solution_id,designation,source_id,random_index,ref_epoch,ra,ra_error,dec,dec_error,parallax,parallax_error,parallax_over_error,pmra,pmra_error,pmdec,pmdec_error,ra_dec_corr,ra_parallax_corr,ra_pmra_corr,ra_pmdec_corr,dec_parallax_corr,dec_pmra_corr,dec_pmdec_corr,parallax_pmra_corr,parallax_pmdec_corr,pmra_pmdec_corr,astrometric_n_obs_al,astrometric_n_obs_ac,astrometric_n_good_obs_al,astrometric_n_bad_obs_al,astrometric_gof_al,astrometric_chi2_al,astrometric_excess_noise,astrometric_excess_noise_sig,astrometric_params_solved,astrometric_primary_flag,astrometric_weight_al,astrometric_pseudo_colour,astrometric_pseudo_colour_error,mean_varpi_factor_al,astrometric_matched_observations,visibility_periods_used,astrometric_sigma5d_max,frame_rotator_object_type,matched_observations,duplicated_source,phot_g_n_obs,phot_g_mean_flux,phot_g_mean_flux_error,phot_g_mean_flux_over_error,phot_g_mean_mag,phot_bp_n_obs,phot_bp_mean_flux,phot_bp_mean_flux_error,phot_bp_mean_flux_over_error,phot_bp_mean_mag,phot_rp_n_obs,phot_rp_mean_flux,phot_rp_mean_flux_error,phot_rp_mean_flux_over_error,phot_rp_mean_mag,phot_bp_rp_excess_factor,phot_proc_mode,bp_rp,bp_g,g_rp,radial_velocity,radial_velocity_error,rv_nb_transits,rv_template_teff,rv_template_logg,rv_template_fe_h,phot_variable_flag,l,b,ecl_lon,ecl_lat,priam_flags,teff_val,teff_percentile_lower,teff_percentile_upper,a_g_val,a_g_percentile_lower,a_g_percentile_upper,e_bp_min_rp_val,e_bp_min_rp_percentile_lower,e_bp_min_rp_percentile_upper,flame_flags,radius_val,radius_percentile_lower,radius_percentile_upper,lum_val,lum_percentile_lower,lum_percentile_upper,datalink_url,epoch_photometry_url,dist,radius,B,V,J,H,K
1635721458409799680,Gaia DR2 2169146745790692608,2169146745790692608,305380833,2015.5,316.32338132460467,0.038826876900591,50.70863553335312,0.03892872149137936,1.0125400002915044,0.04929443648621522,45.37010192871094,-4.883813619297459,0.07800730261590653,-6.742632585905771,0.0782551855526176,0.030267026275396347,0.35551783442497253,-0.20409439504146576,-0.03568785637617111,0.2234097123146057,-0.07189179956912994,-0.3115590512752533,-0.1475660800933838,0.011217794381082058,-0.08128015697002411,229,0,228,1,1.4292874336242676,253.83961486816406,0.05586509575324783,0.5841214140575444,31,True,35.7813606262207,1.3690711297242066,0.005355063240076117,-0.04539832845330238,26,15,0.04680394381284714,0,40,False,352,31078.604725208424,11.889105571486375,2614.04052734375,14.22802106294632,37,8921.651064127402,32.011037083149716,278.7054748535156,15.475275039672852,37,33654.41699249008,47.99985056121826,701.1358642578125,13.444314956665039,1.369947910308838,0,2.0309600830078125,1.0180635452270508,1.0128965377807617,,,0,,,,NOT_AVAILABLE,91.01023621575833,2.4144653253374515,348.47591395938946,62.132341528695044,100001,3806.43505859375,3672.333251953125,4287.853515625,2.5880000591278076,2.1136999130249023,2.8901000022888184,1.315999984741211,1.059999942779541,1.4586999416351318,200111,3.4670729637145996,2.7322468757629395,3.7249088287353516,2.2734968662261963,2.1417999267578125,2.40519380569458,https://gea.esac.esa.int/data-server/datalink/links?ID=Gaia+DR2+2169146745790692608,,0.025281898855368024,0.026577876178099858,,,11.959,11.541,11.269
1635721458409799680,Gaia DR2 2169150040022460032,2169150040022460032,483219430,2015.5,316.28388240480035,0.07176355531852745,50.751578340064924,0.07870292033914585,1.1083929424972065,0.08857728152369,15.45798397064209,-4.713989526917737,0.14686347644036601,-6.625005936978695,0.15551825239458783,0.07326498627662659,0.24453049898147583,-0.251620352268219,-0.11405494064092636,0.14962473511695862,-0.1237361952662468,-0.332404762506485,-0.2551289200782776,-0.07653448730707169,-0.03717883676290512,237,0,236,1,1.2782950401306152,258.8597412109375,0.0,0.0,31,False,2.4330263137817383,1.3642720414313776,0.016732300599382365,-0.05951767414808273,27,16,0.12377461791038513,0,42,False,367,2422.5230879814553,2.2020561263458838,1100.11865234375,16.923424917984008,41,645.6014800904411,7.112354081766887,90.77184295654297,18.32647705078125,41,2697.342032720872,9.770978286308116,276.0564880371094,16.184579849243164,1.3799428939819336,0,2.141897201538086,1.0987815856933594,1.0431156158447266,,,0,,,,NOT_AVAILABLE,91.02544419959236,2.4617761068088138,348.4903524291083,62.18157261098048,,,,,,,,,,,,,,,,,,https://gea.esac.esa.int/data-server/datalink/links?ID=Gaia+DR2+2169150040022460032,,0.03675792677650106,0.053450239177801714,,,14.773,14.071,13.986
1635721458409799680,Gaia DR2 2169150246182027520,2169150246182027520,272110974,2015.5,316.37491790210777,0.029166787022510382,50.76027966038969,0.030625007524645788,1.0548919666259537,0.03597812227063383,38.99859619140625,-4.137419016495846,0.05873733928072076,-6.592361401935387,0.05995295164794952,0.03813443332910538,0.2861470580101013,-0.2297644317150116,-0.03471611440181732,0.30391114950180054,-0.09338109195232391,-0.34333622455596924,-0.14518308639526367,0.038941554725170135,-0.0466032400727272,231,231,230,1,2.1678216457366943,273.4306640625,0.0,0.0,31,True,317.6513977050781,1.4652494335599346,0.006384191949454072,0.0044761523604393005,26,16,0.03524669632315636,0,41,False,349,222270.4781171687,42.88162445441113,5183.35009765625,12.149857799720763,37,85113.86050838446,119.76983420942416,710.6452026367188,13.026387214660645,39,201580.86666848804,100.44533826087911,2006.871337890625,11.5007963180542,1.2898461818695068,0,1.5255908966064453,0.705225944519043,0.8203649520874023,,,0,,,,NOT_AVAILABLE,91.07049110954586,2.424803957937043,348.59898227157566,62.15293488670408,100001,4434.1796875,4282.0,4792.384765625,,,,,,,200111,5.46621561050415,4.6796135902404785,5.86165189743042,10.406900405883789,9.963414192199707,10.850386619567871,https://gea.esac.esa.int/data-server/datalink/links?ID=Gaia+DR2+2169150246182027520,,0.03760197161680823,0.04917778547146787,13.75,12.757,10.448,10.196,10.023
1635721458409799680,Gaia DR2 2169147226827108736,2169147226827108736,84915418,2015.5,316.39112721316945,0.07347546998743451,50.746088372619006,0.08002515849973535,0.9647267576683185,0.09241287634820254,12.737318992614746,-4.515943575758808,0.15009181983680744,-6.585214344140915,0.15805861965270468,0.03498037904500961,0.13393129408359528,-0.16983440518379211,-0.11739687621593475,0.3140767514705658,-0.1915278285741806,-0.22821174561977386,-0.2622576057910919,0.025961529463529587,0.001098686596378684,207,0,202,5,1.1088635921478271,219.12374877929688,0.0,0.0,31,False,2.7159714698791504,1.3626317018974805,0.016983351529247005,-0.09341081976890564,24,15,0.12434721738100052,0,40,False,340,2658.663465523265,2.305609822385854,1153.1280517578125,16.825173315238953,39,635.7656684851055,9.147721881881395,69.49989318847656,18.3431453704834,39,3118.7708962892816,10.190650778589175,306.0423583984375,16.026960372924805,1.4121894836425781,0,2.3161849975585938,1.2164382934570312,1.0997467041015625,,,0,,,,NOT_AVAILABLE,91.06681736733027,2.407684212467844,348.5975467427693,62.13543893929973,,,,,,,,,,,,,,,,,,https://gea.esac.esa.int/data-server/datalink/links?ID=Gaia+DR2+2169147226827108736,,0.0384416796129782,0.058607371399184635,,,14.401,13.726,13.492
1635721458409799680,Gaia DR2 2169150284843820928,2169150284843820928,795332428,2015.5,316.35139413135545,0.04756940558664839,50.77158124886142,0.04867303434739441,0.9704798764127126,0.058730546358385566,26.200687408447266,-4.872789125941793,0.09679442806051711,-6.797153006717849,0.0958596917188539,-0.006223160307854414,0.20012396574020386,-0.1812707781791687,-0.10057540237903595,0.26774105429649353,-0.13747604191303253,-0.3315291106700897,-0.20019814372062683,-0.04252351447939873,-0.09794066101312637,235,0,234,1,0.3748175799846649,236.4337921142578,0.02455610305351474,0.04659474565818283,31,False,9.332763671875,1.3841005929867543,0.009047683621674168,-0.02400098741054535,27,16,0.06938310712575912,0,43,False,367,7837.472793911673,4.966055149381266,1578.208984375,15.683201396083831,40,2280.2204829636335,10.912706581687551,208.95095825195312,16.956445693969727,41,8322.21277331436,14.59532679534703,570.1970825195312,14.961322784423828,1.3527872562408447,0,1.9951229095458984,1.0035200119018555,0.991602897644043,,,0,,,,NOT_AVAILABLE,91.0689227685758,2.4434222789541633,348.5888155289687,62.17100578651586,100001,3920.219970703125,3698.666748046875,4353.830078125,,,,,,,200111,1.6479581594467163,1.3360543251037598,1.8512994050979614,0.5778682231903076,0.5268054604530334,0.6289309859275818,https://gea.esac.esa.int/data-server/datalink/links?ID=Gaia+DR2+2169150284843820928,,0.0401130442339014,0.04232101805625414,,,13.542,13.028,12.809
1635721458409799680,Gaia DR2 2169149597648976000,2169149597648976000,1004412817,2015.5,316.2700375119858,0.06215377323649907,50.69758852922656,0.06363762510309597,1.0394713692879074,0.07616203831383611,17.858572006225586,-4.3988707447371,0.1269959937225822,-7.141039644087329,0.1294464489367081,-0.006323025096207857,0.32955318689346313,-0.1900285929441452,-0.04719061031937599,0.17396679520606995,-0.06929224729537964,-0.26512789726257324,-0.1404745876789093,-0.011960235424339771,-0.09238697588443756,218,0,218,0,18.511871337890625,867.3738403320312,0.4330930972018015,24.19052829140279,31,False,4.203006744384766,1.2480501802456825,0.014492302830574134,-0.02168150618672371,25,15,0.1011732965707779,0,39,False,341,17210.514640688103,9.107919078192518,1889.6209716796875,14.852301099014282,34,2243.9737893670035,12.074511975931763,185.84385681152344,16.973844528198242,37,25018.00190819038,45.48885134323257,549.98095703125,13.766288757324219,1.584030270576477,0,3.2075557708740234,1.8749637603759766,1.3325920104980469,,,0,,,,NOT_AVAILABLE,90.97939819070113,2.4321898604848924,348.4043830075389,62.1444219905057,100001,4106.22216796875,3745.563232421875,4310.5166015625,2.8399999141693115,2.717900037765503,2.948899984359741,1.434000015258789,1.3659000396728516,1.501099944114685,200111,1.9588452577590942,1.7775685787200928,2.3542399406433105,0.9827990531921387,0.8642980456352234,1.1013001203536987,https://gea.esac.esa.int/data-server/datalink/links?ID=Gaia+DR2+2169149597648976000,,0.053805582997691746,0.0731106841392435,,,11.393,10.627,10.253
1635721458409799680,Gaia DR2 2169146539632264320,2169146539632264320,458442593,2015.5,316.31847790118474,0.06547933185106558,50.675756412313255,0.06592598988799968,1.1025481823008028,0.07931095321502167,17.867748260498047,-5.3291328134610465,0.13377740485761933,-7.140780347028594,0.13344076339031857,0.006039600353688002,0.31278562545776367,-0.19342610239982605,-0.0328025259077549,0.2172473520040512,-0.06912446767091751,-0.2872805595397949,-0.153662770986557,0.00990279484540224,-0.08675596863031387,231,0,231,0,6.154530048370361,382.77569580078125,0.3458971448461641,6.6753204159259125,31,False,3.5299365520477295,1.2989311495629665,0.014745977702218438,-0.04779387637972832,26,15,0.10584577172994614,0,39,False,344,5262.42824348011,3.9449704530809266,1333.9588623046875,16.10395641117096,33,996.3688936206942,10.048489485987373,99.15608978271484,17.855337142944336,36,6741.731734624823,13.6190294915455,495.0229187011719,15.189990997314453,1.4704430103302002,0,2.665346145629883,1.4699363708496094,1.1954097747802734,,,0,,,,NOT_AVAILABLE,90.98370075680408,2.3947728313645116,348.42742055656566,62.10833171585395,100001,3648.41259765625,3220.75,3827.780029296875,2.9690001010894775,2.9228999614715576,3.010999917984009,1.4993000030517578,1.4709999561309814,1.5211000442504883,200111,1.5068094730377197,1.3689017295837402,1.9335356950759888,0.3624325096607208,0.31904929876327515,0.4058157205581665,https://gea.esac.esa.int/data-server/datalink/links?ID=Gaia+DR2+2169146539632264320,,0.05808809310000546,0.05931074002978396,,,13.272,12.633,12.243
1635721458409799680,Gaia DR2 2169150319203558400,2169150319203558400,405691919,2015.5,316.363948757927,0.03830971793632135,50.7902961596974,0.03787512841955611,1.097942815059424,0.04824551786896817,54.20052719116211,-4.839388387793241,0.07824955412227794,-6.749958948336502,0.07543388571998257,-0.0016858860617503524,0.16048522293567657,0.06070137396454811,-0.10506246238946915,0.2608533799648285,-0.1197575181722641,-0.3370684087276459,-0.22139954566955566,-0.060653045773506165,-0.11375439912080765,208,0,208,0,-3.546427011489868,139.0795440673828,0.0,0.0,31,False,56.54301071166992,1.459189817723898,0.004787811740229814,-0.002562721725553274,24,16,0.0471494235098362,0,40,False,337,44329.03621275818,11.474504622595795,3863.263671875,13.852903209400177,39,16557.930503403753,26.102726883860953,634.3372192382812,14.803873062133789,38,40952.48438436596,29.097846852416726,1407.406005859375,13.231219291687012,1.2973531484603882,0,1.5726537704467773,0.7322282791137695,0.8404254913330078,,,0,,,,NOT_AVAILABLE,91.08815683011733,2.4500545387146944,348.62693062630655,62.18084237802732,100001,4423.0,4260.74462890625,4658.35986328125,,,,,,,200111,2.3629958629608154,2.130250930786133,2.5463953018188477,1.9252554178237915,1.8291089534759521,2.021401882171631,https://gea.esac.esa.int/data-server/datalink/links?ID=Gaia+DR2+2169150319203558400,,0.060339542486191444,0.0646512027532378,14.808,13.766,12.124,11.819,11.681
1635721458409799680,Gaia DR2 2169151178197014784,2169151178197014784,792489268,2015.5,316.2744360063095,0.05069152977571381,50.780377084796456,0.05313942825469798,1.0930571013652264,0.06396815543830986,24.926382064819336,-4.680537063306213,0.10304991252589865,-6.55929748497958,0.10569800629782394,-0.0002180302981287241,0.24940352141857147,-0.15366338193416595,-0.08439357578754425,0.23097026348114014,-0.11164913326501846,-0.20832623541355133,-0.16972124576568604,-0.05803569778800011,-0.0450715608894825,213,0,213,0,-0.3644627034664154,200.00442504882812,0.0,1.393488951877828e-15,31,False,7.574900150299072,1.3898666783913105,0.010408464908411673,0.048975735902786255,25,16,0.07625572383403778,0,39,False,335,6490.252485340584,4.261161600563163,1523.1181640625,15.882437060165405,36,1946.2972211582507,11.40521378746554,170.6497802734375,17.12836456298828,36,6784.687372307998,11.489848991132847,590.4940185546875,15.18309497833252,1.3452457189559937,0,1.9452695846557617,0.9706535339355469,0.9746160507202148,,,0,,,,NOT_AVAILABLE,91.04287781727209,2.4854763265101183,348.51831404039984,62.207934337132166,100001,3804.0,3753.333251953125,3990.333251953125,,,,,,,200111,1.4707818031311035,1.3366291522979736,1.5107582807540894,0.40808743238449097,0.3713568449020386,0.44481801986694336,https://gea.esac.esa.int/data-server/datalink/links?ID=Gaia+DR2+2169151178197014784,,0.06053387845494703,0.07610819606438468,,,13.845,13.341,13.186
1635721458409799680,Gaia DR2 2169150559721725184,2169150559721725184,1030050819,2015.5,316.33330400553757,0.029800951566763604,50.79461774349243,0.030786246660494447,1.0037332189246957,0.0356420843251557,37.64185333251953,-4.480283454963887,0.05984563616103645,-6.676375257500708,0.06321407431507847,0.020042743533849716,0.32453078031539917,-0.15275686979293823,-0.1700322926044464,0.23786240816116333,-0.14521172642707825,-0.32683566212654114,-0.1160023882985115,-0.1194038912653923,-0.1360180526971817,222,196,221,1,4.0939555168151855,311.9015197753906,0.0,0.0,31,True,187.81503295898438,1.4995730850773539,0.006407485308850258,-0.020623452961444855,25,16,0.0400509387254715,0,40,False,322,132769.98448618845,35.8158144337225,3707.021240234375,12.69415148935318,38,55449.11283716753,52.43058455310745,1057.5718994140625,13.49165153503418,37,112435.36760744273,65.66548751954785,1712.2445068359375,12.134662628173828,1.2644761800765991,0,1.3569889068603516,0.6110353469848633,0.7459535598754883,,,0,,,,NOT_AVAILABLE,91.07839166726156,2.4673388807650034,348.59996619518745,62.1961935718425,100001,4779.6748046875,4576.19482421875,5038.33349609375,,,,,,,200111,3.593717336654663,3.2341995239257812,3.9204111099243164,6.072617530822754,5.793671131134033,6.351563930511475,https://gea.esac.esa.int/data-server/datalink/links?ID=Gaia+DR2+2169150559721725184,,0.06161371249700104,0.06162167412032161,14.135,13.261,11.098,10.814,10.628
1635721458409799680,Gaia DR2 2169149872526880256,2169149872526880256,560925337,2015.5,316.23620617230426,0.03827640002464496,50.72418487854578,0.03867968099223709,1.0582698643656692,0.048698610120427165,49.99819564819336,-4.859552034653794,0.07669060053903028,-6.602619409945516,0.07730270476264664,0.009428654797375202,0.3446293771266937,-0.2635769248008728,-0.07570482790470123,0.17193207144737244,-0.09065894037485123,-0.3297473192214966,-0.20509305596351624,-0.051614776253700256,-0.11129304766654968,227,0,226,1,-1.7724283933639526,185.19873046875,0.0,0.0,31,True,40.77146530151367,1.4171956916017472,0.005159678803684187,-0.043327100574970245,26,15,0.04582207277417183,0,40,False,349,31475.60067862704,8.073831512998458,3898.471435546875,14.214613923168182,38,10565.069908975127,17.256672549774077,612.2310180664062,15.291707038879395,36,31255.10903796471,26.99573651949158,1157.7794189453125,13.524617195129395,1.3286539316177368,0,1.76708984375,0.8482761383056641,0.9188137054443359,,,0,,,,NOT_AVAILABLE,90.9848631564467,2.4659019610430413,348.4032673430495,62.17856940045223,100001,4099.0,3964.25,4263.81982421875,2.631500005722046,2.2260000705718994,3.2520999908447266,1.2992000579833984,1.1009000539779663,1.6266000270843506,200111,2.6169283390045166,2.4185216426849365,2.7978575229644775,1.7417670488357544,1.648742437362671,1.834791660308838,https://gea.esac.esa.int/data-server/datalink/links?ID=Gaia+DR2+2169149872526880256,,0.06253396472758108,0.09819032081440868,16.232,15.059,12.272,11.929,11.726
1635721458409799680,Gaia DR2 2169148051460750976,2169148051460750976,776359659,2015.5,316.26880584983144,0.05931827180254369,50.68039344029415,0.06084123621930686,1.0869750015264292,0.07335208379585617,19.754314422607422,-4.683001874090374,0.12090669340994192,-6.5443858773638,0.12359022932535814,-0.001852920395322144,0.31670519709587097,-0.1875171810388565,-0.03839379921555519,0.18487057089805603,-0.06563812494277954,-0.24486781656742096,-0.15306511521339417,-0.010593005456030369,-0.0669960305094719,218,0,217,1,7.735910892486572,413.47760009765625,0.3109332831565545,7.13978519892974,31,False,4.751056671142578,1.2731900191210652,0.013662043943561755,-0.02388862706720829,25,15,0.09442988783121109,0,40,False,349,7506.557286936375,5.221664785845138,1437.579345703125,15.728769898223877,36,1409.9888561835915,15.475145246285694,91.11312866210938,17.478349685668945,37,10901.48355694104,103.66988746014056,105.1557388305664,14.668206214904785,1.6400957107543945,0,2.81014347076416,1.478586196899414,1.331557273864746,,,0,,,,NOT_AVAILABLE,90.96607847361399,2.4212727567431185,348.3804375070398,62.1313435533889,100001,4379.1025390625,3560.0,4788.96484375,,,,,,,200111,1.0118608474731445,0.8460727334022522,1.5310558080673218,0.33921632170677185,0.3019787073135376,0.3764539361000061,https://gea.esac.esa.int/data-server/datalink/links?ID=Gaia+DR2+2169148051460750976,,0.06688140510207613,0.08377187678622634,,,12.534,11.742,11.456
1635721458409799680,Gaia DR2 2169150628441123072,2169150628441123072,1582001324,2015.5,316.22682284652814,0.07248594949491174,50.742460632365756,0.07197304040285928,1.0890198294761178,0.08998126631736833,14.879966735839844,-4.729920238279907,0.13981246868835878,-6.486603055586767,0.13798369542054564,0.15492025017738342,0.47636333107948303,-0.11309587955474854,-0.15802794694900513,0.3329337239265442,-0.1550288200378418,-0.22035875916481018,-0.148511603474617,-0.11931020766496658,-0.06808844953775406,187,0,187,0,2.9603514671325684,243.71298217773438,0.14839542597026623,0.7885730534880683,31,False,3.854794502258301,1.3377150418916655,0.017297825049018334,0.010521110147237778,22,15,0.10781636089086533,0,35,False,300,3848.9512105799595,3.0908006681045364,1245.2926025390625,16.434362149429322,31,864.2903181624876,10.042800356306978,86.0606918334961,18.00973892211914,29,4641.344164471212,13.677068458539402,339.3522644042969,15.59531021118164,1.4304245710372925,0,2.4144287109375,1.28472900390625,1.12969970703125,,,0,,,,NOT_AVAILABLE,90.99449942309069,2.4825329639041995,348.4173518778435,62.19662735615673,100001,3398.333251953125,3361.75,3736.22998046875,2.793299913406372,2.399399995803833,3.048099994659424,1.4134999513626099,1.1318999528884888,1.5449999570846558,200111,1.6570439338684082,1.370877742767334,1.6933046579360962,0.32993364334106445,0.2833053171634674,0.3765619695186615,https://gea.esac.esa.int/data-server/datalink/links?ID=Gaia+DR2+2169150628441123072,,0.0684908455147111,0.10759389290797153,,,13.844,13.204,12.972
1635721458409799680,Gaia DR2 2169148012797617408,2169148012797617408,1147176666,2015.5,316.2562531250457,0.041830623936823866,50.66828408538055,0.042586245854995305,1.158870004687871,0.053259439833431246,39.826759338378906,-4.855736133995981,0.08471695260862419,-7.618842249260629,0.08517970126555681,-0.01552222017198801,0.28523269295692444,-0.1959676444530487,-0.05659728869795799,0.23548631370067596,-0.1155785471200943,-0.24582429230213165,-0.2114178091287613,0.02674291469156742,-0.095924511551857,210,0,210,0,9.28404712677002,455.1692810058594,0.1992146895651056,10.083258749050817,31,False,20.761064529418945,1.3642848622007664,0.006839788611783787,-0.054123010486364365,24,14,0.055865660309791565,0,39,False,343,98051.26263909036,48.64716930647546,2015.5594482421875,13.01434924478531,34,22850.710374204344,83.73239388623936,272.90167236328125,14.45413875579834,34,117710.85117239445,217.3561031576101,541.5576171875,12.084878921508789,1.4335517883300781,0,2.369259834289551,1.244405746459961,1.1248540878295898,,,0,,,,NOT_AVAILABLE,90.95174211943977,2.419092382058606,348.3510915631694,62.12668354674786,100001,3832.3701171875,3407.75,4695.18017578125,2.2964999675750732,2.155600070953369,2.542099952697754,1.121000051498413,1.027899980545044,1.2661000490188599,200111,5.26153564453125,3.5054428577423096,6.654447078704834,5.380090236663818,5.049839019775391,5.710341453552246,https://gea.esac.esa.int/data-server/datalink/links?ID=Gaia+DR2+2169148012797617408,,0.08132829494417611,0.10115693831958016,15.711,14.172,10.328,9.814,9.538
1635721458409799680,Gaia DR2 2169173821264837504,2169173821264837504,975372076,2015.5,316.3945280098365,0.04852745282860327,50.812958495252836,0.05004368668234958,1.0859142788828369,0.060036951323894576,27.991544723510742,-4.854784909743463,0.09810876849142797,-6.720145990314727,0.09774461746479443,0.004794724751263857,0.24209442734718323,-0.2127418965101242,-0.09615042060613632,0.27062278985977173,-0.13503023982048035,-0.33859264850616455,-0.22791999578475952,-0.059148892760276794,-0.10644771158695221,239,0,237,2,0.3178180456161499,238.23435974121094,0.0,0.0,31,True,8.519980430603027,1.4226957860233955,0.00927724863542951,-0.014064476825296879,27,16,0.0712423175573349,0,42,False,362,7160.867541944821,4.864335278750129,1472.1163330078125,15.778570231819153,38,2333.0074587661416,13.01516895224794,179.25294494628906,16.931598663330078,38,7186.063464669267,11.550897915738055,622.1216430664062,15.120692253112793,1.3293181657791138,0,1.8109064102172852,0.8806476593017578,0.9302587509155273,,,0,,,,NOT_AVAILABLE,91.11795671204818,2.450878000675008,348.689489932476,62.18674891711949,100001,3903.0,3869.0,4069.72509765625,,,,,,,200111,1.4284971952438354,1.3138517141342163,1.4537142515182495,0.42662638425827026,0.39166122674942017,0.46159154176712036,https://gea.esac.esa.int/data-server/datalink/links?ID=Gaia+DR2+2169173821264837504,,0.08864078845835587,0.10028459970437181,,,13.844,13.401,13.209
1635721458409799680,Gaia DR2 2169145543199856128,2169145543199856128,581681955,2015.5,316.38826539514247,0.0383184756851256,50.64654048907986,0.037673988684797016,1.046797444962593,0.04812436055061668,52.31778335571289,-4.651933765767927,0.07676057895796275,-6.698113785112986,0.07456770258583512,0.0870850682258606,0.305046021938324,-0.31369221210479736,-0.0324706993997097,0.2802874743938446,-0.081550732254982,-0.2838096618652344,-0.15477007627487183,0.012779432348906994,-0.058593425899744034,209,0,209,0,-2.4104206562042236,158.51844787597656,0.0,0.0,31,False,57.82738494873047,1.4494733569034988,0.005141578161854873,-0.11655005067586899,24,15,0.044483285397291183,0,38,False,331,43561.44125327905,9.819732909859438,4436.11279296875,13.871354959487915,32,15999.3103996026,25.048748592854302,638.7269287109375,14.841135025024414,32,40683.75643595604,30.031238825966767,1354.714599609375,13.238367080688477,1.3012211322784424,0,1.6027679443359375,0.7505245208740234,0.8522434234619141,,,0,,,,NOT_AVAILABLE,90.9916215442367,2.3423514779001704,348.4635796146941,62.05809198801004,100001,4269.5751953125,4185.91650390625,4433.0,,,,,,,200111,2.7343528270721436,2.5364623069763184,2.844741106033325,2.238424777984619,2.1221675872802734,2.354681968688965,https://gea.esac.esa.int/data-server/datalink/links?ID=Gaia+DR2+2169145543199856128,,0.09304666893373865,0.10207830395591921,15.633,14.592,12.121,11.82,11.603
1635721458409799680,Gaia DR2 2169169388858598528,2169169388858598528,1045647546,2015.5,316.4806153882234,0.03168327258131441,50.688114969465516,0.03100409292721516,1.0509296893941358,0.037705924227700395,36.24275588989258,-4.800728336764211,0.06386658506851582,-6.625166735857453,0.05965046916107595,0.03409735485911369,0.24021665751934052,-0.28147396445274353,-0.04754355177283287,0.3015604019165039,-0.0671195462346077,-0.1918659657239914,-0.08660686016082764,-0.045888740569353104,-0.06469152867794037,211,211,209,2,2.170189619064331,250.28564453125,0.0,0.0,31,True,240.26956176757812,1.482757205263198,0.007131437763009735,-0.0006651828880421817,24,16,0.03725024312734604,0,40,False,340,163723.9683036716,47.16607696367201,3471.222900390625,12.472786158084869,37,67030.22364846646,73.36482256376387,913.6561889648438,13.285711288452148,37,142170.70870364286,72.49582688413113,1961.088134765625,11.879894256591797,1.2777661085128784,0,1.4058170318603516,0.6326265335083008,0.7731904983520508,,,0,,,,NOT_AVAILABLE,91.06176603319766,2.326778515996258,348.61663785543305,62.054869869809714,100001,4443.5849609375,4391.0,4687.75,,,,,,,200111,4.679731369018555,4.20493221282959,4.792488098144531,7.692553520202637,7.348321914672852,8.036785125732422,https://gea.esac.esa.int/data-server/datalink/links?ID=Gaia+DR2+2169169388858598528,,0.10312041338238323,0.1533321167595818,13.917,13.007,10.912,10.627,10.477
1635721458409799680,Gaia DR2 2169151556154130688,2169151556154130688,224847061,2015.5,316.2552182352117,0.026873116420108877,50.83586875195578,0.02879774721986833,0.9751926547045333,0.03293884285501532,41.50326156616211,-4.760088952967359,0.05346624417287888,-6.702437443648818,0.05539964113262383,0.055774860084056854,0.23051418364048004,-0.27635225653648376,-0.09856338053941727,0.23341624438762665,-0.1270420402288437,-0.38644808530807495,-0.21631042659282684,-0.047963425517082214,-0.06382190436124802,219,140,217,2,-0.4802924394607544,201.6177520751953,0.0,0.0,31,True,172.06639099121094,1.5249588228805886,0.005604941952243673,0.016007661819458008,25,16,0.037353843450546265,0,39,False,316,125456.54082312473,25.53633358728804,4912.8642578125,12.754000219058991,37,56892.42612613992,70.2181471439512,810.2239990234375,13.463751792907715,38,99458.20440841238,72.93319932070399,1363.6890869140625,12.267818450927734,1.2462533712387085,0,1.1959333419799805,0.5216197967529297,0.6743135452270508,,,0,,,,NOT_AVAILABLE,91.07605832479797,2.5316062174256047,348.57128434195283,62.25909915711659,100001,4891.5,4828.72998046875,4950.0,,,,,,,200111,3.3820273876190186,3.302561044692993,3.470526695251465,5.899527072906494,5.621545314788818,6.17750883102417,https://gea.esac.esa.int/data-server/datalink/links?ID=Gaia+DR2+2169151556154130688,,0.11429051616894637,0.12957062395503655,13.99,13.236,11.414,11.23,11.11
1635721458409799680,Gaia DR2 2169148223259440384,2169148223259440384,481262330,2015.5,316.18397381221047,0.0629567169907475,50.66844152266696,0.06768622669097485,1.0294686303497755,0.07571672696495876,17.840045928955078,-4.5847806857719515,0.13733150715281114,-6.883001439929407,0.13959802984748973,-0.17817382514476776,0.16150814294815063,-0.3083936274051666,0.08559046685695648,0.2214777171611786,0.07010690122842789,-0.4145171642303467,-0.1916484236717224,-0.0838480293750763,-0.34128111600875854,208,0,208,0,6.620097637176514,366.75177001953125,0.32423397413740324,6.724629551385787,31,False,4.364901542663574,1.3035088723097754,0.013289003009758554,-0.06728871166706085,24,14,0.1256805807352066,0,38,False,332,6970.6514902847,5.204095911331994,1339.454833984375,15.807010069084168,33,1316.9215059237597,9.037653069836411,145.71498107910156,17.552488327026367,35,9000.578115312694,13.52379118657147,665.53662109375,14.876243591308594,1.4801342487335205,0,2.6762447357177734,1.4723052978515625,1.203939437866211,,,0,,,,NOT_AVAILABLE,90.92122224374612,2.4532817362744543,348.273964682958,62.15496269545768,100001,3416.862548828125,3219.0,3987.25244140625,,,,,,,200111,2.315255641937256,1.7002254724502563,2.6086273193359375,0.6582678556442261,0.5787307024002075,0.7378050088882446,https://gea.esac.esa.int/data-server/datalink/links?ID=Gaia+DR2+2169148223259440384,,0.11488621923632134,0.16332683189917452,,,12.897,12.263,11.954
1635721458409799680,Gaia DR2 2169170247852116480,2169170247852116480,921105528,2015.5,316.5220957731868,0.07004533899688713,50.788537322896524,0.0677575163214661,0.9777693705019447,0.08417698792484585,14.592463493347168,-4.827104070331881,0.14182065636742164,-6.829258995543313,0.13121054387587916,0.07675457745790482,0.28330302238464355,-0.18419410288333893,-0.1017056480050087,0.2858532965183258,-0.16428185999393463,-0.10257820785045624,-0.2011202573776245,0.016132257878780365,0.037415195256471634,238,0,237,1,0.40609297156333923,240.17503356933594,0.0,1.319444736062194e-15,31,False,2.9678194522857666,1.4083467777642276,0.015513594468550294,0.024778204038739204,27,16,0.11061493307352066,0,40,False,344,2874.4416570445214,2.5230138297252442,1139.2889404296875,16.742744920921325,32,857.8555292683286,8.868979558566865,96.72539520263672,18.017852783203125,32,3055.043056473975,12.957397780712627,235.77597045898438,16.04937744140625,1.3612725734710693,0,1.968475341796875,0.9758701324462891,0.9926052093505859,,,0,,,,NOT_AVAILABLE,91.15392406142854,2.374684372259919,348.7930133765369,62.117768406167606,100001,3821.669921875,3750.0,4261.85009765625,,,,,,,200111,1.0776209831237793,0.8665149211883545,1.1192055940628052,0.2231718897819519,0.19074495136737823,0.25559884309768677,https://gea.esac.esa.int/data-server/datalink/links?ID=Gaia+DR2+2169170247852116480,,0.13129757326720976,0.19612346653382232,,,14.662,14.012,13.867
1635721458409799680,Gaia DR2 2169133551651168640,2169133551651168640,41007367,2015.5,316.43766768061647,0.047936798189780555,50.61689661931452,0.04608707367970762,1.1055248327794627,0.05834017320267292,30.282121658325195,-4.748431815208458,0.09729054852226325,-6.629548112318623,0.08998226423698905,-0.048671744763851166,0.18758903443813324,-0.23419344425201416,-0.07879188656806946,0.2692652642726898,-0.13165214657783508,-0.17718735337257385,-0.23192669451236725,-0.07218438386917114,-0.15960727632045746,212,0,210,2,5.0717082023620605,324.88983154296875,0.18363532826411028,4.0927410580291435,31,False,11.571538925170898,1.3358770715047235,0.008732059319298864,-0.11061906814575195,24,14,0.07005274295806885,0,41,False,360,15050.545357683448,8.052089148160682,1869.1478271484375,14.993959360599519,38,3745.4277750066535,18.313263487787705,204.51995849609375,16.417634963989258,38,17444.33858822365,25.554971000775385,682.6201782226562,14.157783508300781,1.4079068899154663,1,2.2598514556884766,1.1731500625610352,1.0867013931274414,,,0,,,,NOT_AVAILABLE,90.99061341524174,2.299227365262263,348.47745823003555,62.0154498378873,100002,3699.0,3495.0,4542.71337890625,2.426300048828125,2.240000009536743,2.7030999660491943,1.190000057220459,1.1159000396728516,1.3834999799728394,200111,2.428385019302368,1.6101099252700806,2.7201435565948486,0.9946426749229431,0.9183732271194458,1.0709121227264404,https://gea.esac.esa.int/data-server/datalink/links?ID=Gaia+DR2+2169133551651168640,,0.1334036265635304,0.15565019438148972,,,12.549,12.07,11.794
1635721458409799680,Gaia DR2 2169157740907292800,2169157740907292800,813512754,2015.5,316.5466233059905,0.057973375475894665,50.70397504079487,0.059023505031513844,1.1191229779912462,0.07103629969819023,21.37566566467285,-4.7549312960691745,0.11617131743325113,-6.731822232375528,0.1129342323174757,-0.005534347612410784,0.2289925366640091,-0.2661397457122803,-0.03701921924948692,0.26844894886016846,-0.09100651741027832,-0.2454364001750946,-0.2495831698179245,-0.05772358179092407,-0.09688378125429153,235,0,235,0,0.10913831740617752,231.6781463623047,0.0,0.0,31,False,4.720047473907471,1.38921865601665,0.011277082239852026,-0.008771036751568317,27,16,0.08839700371026993,0,44,False,375,4208.438466066021,2.832112763693125,1485.9713134765625,16.34004268913269,35,1270.2226531955114,8.581726511233981,148.0148162841797,17.59168815612793,39,4429.029353729492,10.532591542770655,420.507080078125,15.646148681640625,1.3542438745498657,0,1.9455394744873047,0.9636249542236328,0.9819145202636719,,,0,,,,NOT_AVAILABLE,91.10161462449237,2.306420658161006,348.707760242555,62.04162308531448,100001,3820.0,3758.0,4269.72021484375,,,,,,,200111,1.1408650875091553,0.9131921529769897,1.1788198947906494,0.2496989667415619,0.2241976410150528,0.2752003073692322,https://gea.esac.esa.int/data-server/datalink/links?ID=Gaia+DR2+2169157740907292800,,0.13770740276167756,0.2145952434402891,,,14.313,13.699,13.482
1635721458409799680,Gaia DR2 2169147536064558464,2169147536064558464,315048245,2015.5,316.18848251968996,0.036901935557442034,50.62510210438452,0.03749201733282435,1.0499139442048409,0.0471522679465575,58.606590270996094,-4.839401575962478,0.07550542048938527,-6.712537271455497,0.0753312794738593,-0.05591166764497757,0.12274937331676483,-0.3545549511909485,0.013072537258267403,0.3292190432548523,0.011704676784574986,-0.364227831363678,-0.017064271494746208,-0.06234259903430939,-0.18799445033073425,202,0,202,0,-6.823308944702148,89.83300018310547,0.0,0.0,31,False,130.60899353027344,1.4895915865838496,0.004222910829785361,-0.0930800810456276,23,14,0.046233467757701874,0,37,False,323,98963.08264282736,25.05920234301278,3949.17138671875,13.004570847129822,33,40565.81889629202,58.43926817429545,694.1534423828125,13.830987930297852,32,85728.57104987261,58.371508157063,1468.6715087890625,12.429105758666992,1.2761768102645874,0,1.4018821716308594,0.6313056945800781,0.7705764770507812,,,0,,,,NOT_AVAILABLE,90.8908463888655,2.422209954664379,348.22183964718846,62.11900417686368,100001,4502.75,4419.0,4842.0,,,,,,,200111,3.5037567615509033,3.029982089996338,3.6378235816955566,4.54646635055542,4.328013896942139,4.764918804168701,https://gea.esac.esa.int/data-server/datalink/links?ID=Gaia+DR2+2169147536064558464,,0.14193924877816702,0.1811554386543062,14.495,13.59,11.44,11.203,11.041
1635721458409799680,Gaia DR2 2169170350931331712,2169170350931331712,650752093,2015.5,316.5381131317148,0.04107045494342922,50.795969160793554,0.04095445408734827,1.0916505955130933,0.05205827334081291,40.178131103515625,-4.792133434726529,0.08438300655071074,-6.575375560092542,0.08099136240412408,0.10435281693935394,0.1820942908525467,-0.00998750701546669,-0.020958339795470238,0.24464693665504456,-0.07555390149354935,-0.11844131350517273,-0.27911579608917236,-0.07286425679922104,0.07877612113952637,226,0,225,1,-2.164273738861084,177.07545471191406,0.0,0.0,31,False,20.12908363342285,1.4397868908638862,0.005781777053730009,0.06011012941598892,26,15,0.05426150932908058,0,43,False,342,15773.992623062924,6.677793239883682,2362.156494140625,14.944367788696288,30,5366.845919955068,20.34594922056901,263.7795715332031,16.027090072631836,31,15554.551392537143,20.412870041545776,761.9972534179688,14.282276153564453,1.3263221979141235,0,1.7448139190673828,0.8335781097412109,0.9112358093261719,,,0,,,,NOT_AVAILABLE,91.16623949339827,2.3721663422223904,348.8198564301605,62.1173651636593,100001,4109.33349609375,3976.0,4405.6572265625,,,,,,,200111,1.7812917232513428,1.5497313737869263,1.9027646780014038,0.8151741027832031,0.764699399471283,0.8656488060951233,https://gea.esac.esa.int/data-server/datalink/links?ID=Gaia+DR2+2169170350931331712,,0.14363358914792457,0.2136054441007173,,,13.098,12.598,12.438
1635721458409799680,Gaia DR2 2169170350931330560,2169170350931330560,1271798140,2015.5,316.53593210868036,0.03175031144337292,50.79900891326326,0.03158109259255242,0.8876392083812932,0.038080766103309356,30.17751693725586,-5.060542500638153,0.06370856653572196,-6.743056564555339,0.06049515180473844,0.12114322185516357,0.3046703338623047,-0.2572062611579895,-0.12008868157863617,0.2877333164215088,-0.1620570570230484,-0.1660877913236618,-0.13788703083992004,-0.011583156883716583,0.04215523973107338,248,248,241,7,14.912567138671875,729.4390869140625,0.06055967722699152,1.447542249562329,31,True,124.98663330078125,1.55857313823127,0.00683025168299074,0.04821118712425232,28,16,0.037350766360759735,0,44,False,324,1903341.6933487314,620.901940337673,3065.446533203125,9.881456037425995,39,885918.58585096,623.028829406385,1421.954345703125,10.482903480529785,40,1456583.6247727831,1374.005099638242,1060.1005859375,9.353581428527832,1.2307312488555908,1,1.1293220520019531,0.4933300018310547,0.6359920501708984,,,0,,,,NOT_AVAILABLE,91.16756857128952,2.3752285411351504,348.8215506271849,62.120607506915995,100002,4984.0,4948.0,4999.0,,,,,,,200111,13.789813041687012,13.707181930541992,13.991203308105469,105.71183013916016,100.05858612060547,111.36507415771484,https://gea.esac.esa.int/data-server/datalink/links?ID=Gaia+DR2+2169170350931330560,,0.14376123564449497,0.21244705963201876,10.932,10.229,8.585,8.41,8.29
1635721458409799680,Gaia DR2 2169145165242737280,2169145165242737280,288517261,2015.5,316.39473503743864,0.06905757434268991,50.59326344843557,0.06796701547994013,1.0449807800232838,0.08315672972029708,15.856147766113281,-4.315841288850764,0.14599026170793017,-6.575182124899781,0.13159656896132688,0.011227731592953205,0.15735508501529694,-0.16418540477752686,-0.07158853858709335,0.3517337143421173,-0.12297782301902771,-0.1644126921892166,-0.14799532294273376,0.005588534753769636,-0.10138695687055588,221,0,220,1,-0.10392715036869049,212.19058227539062,0.0,0.0,31,False,3.279282331466675,1.331641811909133,0.0157309735540945,-0.08838523924350739,25,15,0.11458251625299454,0,39,False,344,2938.4147391946826,2.5303912979785737,1161.2491455078125,16.71949350757599,32,637.9387435512261,8.067369655898906,79.07642364501953,18.339441299438477,33,3550.803996540216,14.060055967576432,252.54551696777344,15.886103630065918,1.425511121749878,0,2.4533376693725586,1.3213577270507812,1.1319799423217773,,,0,,,,NOT_AVAILABLE,90.95478353955576,2.3036154107830717,348.400702168251,62.013527892099845,100001,3737.0,3386.0,4031.4599609375,2.5940001010894775,2.280900001525879,2.93149995803833,1.3016999959945679,1.0599000453948975,1.4536000490188599,200111,1.097561001777649,0.9430835247039795,1.3369063138961792,0.21166275441646576,0.18331190943717957,0.24001359939575195,https://gea.esac.esa.int/data-server/datalink/links?ID=Gaia+DR2+2169145165242737280,,0.14494681110204494,0.15236485361063234,,,14.202,13.603,13.236
1635721458409799680,Gaia DR2 2169339022882471296,2169339022882471296,648829958,2015.5,316.16328483326436,0.04265929523968684,50.83209950539817,0.04618706797392828,1.0717518403206823,0.0556018014551925,32.8366813659668,-4.925365624584642,0.0843799723047003,-6.235348596357563,0.08595601360656273,0.16032806038856506,0.3007694482803345,-0.30310916900634766,-0.0633656457066536,0.5205262899398804,-0.07566114515066147,-0.42405572533607483,-0.18413443863391876,-0.22991350293159485,-0.11416413635015488,171,0,168,3,0.9342839121818542,179.74502563476562,0.0,1.5741328969105305e-15,31,False,30.42023277282715,1.4432695427930842,0.007138244272596968,0.07302168756723404,20,13,0.057516660541296005,0,36,False,310,24221.449222902593,18.25955482769818,1326.5081787109375,14.491340071678161,31,8870.722987437373,29.35894346830125,302.147216796875,15.481491088867188,30,22693.651913736092,52.22170023644219,434.5636291503906,13.872159004211426,1.303157925605774,0,1.6093320846557617,0.7536258697509766,0.8557062149047852,,,0,,,,NOT_AVAILABLE,91.03442711659302,2.572296760437068,348.4680874250075,62.291970913832564,100001,4296.07666015625,4141.9501953125,4637.5,2.746999979019165,2.3480000495910645,3.046099901199341,1.3806999921798706,1.1963000297546387,1.5541000366210938,200111,1.9537954330444336,1.6766996383666992,2.1019065380096436,1.1714963912963867,1.0866235494613647,1.2563692331314087,https://gea.esac.esa.int/data-server/datalink/links?ID=Gaia+DR2+2169339022882471296,,0.14653078301563624,0.19739397185259253,16.436,15.226,12.775,12.365,12.235
1635721458409799680,Gaia DR2 2169362834181240832,2169362834181240832,1663282524,2015.5,316.29345647134454,0.04246611644407575,50.88114961528292,0.04426085129752345,0.9543530431433674,0.053974393533375485,31.594684600830078,-4.677805339649838,0.08550071893866659,-6.516738783056647,0.08694766213811575,0.07318935543298721,0.18723921477794647,-0.14639246463775635,-0.1934741735458374,0.15979550778865814,-0.2150324434041977,-0.1893455982208252,-0.2627067565917969,-0.08269475400447845,-0.004933303687721491,226,0,226,0,2.370605230331421,273.9095764160156,0.021270721095717548,0.04775541012223204,31,False,14.853948593139648,1.425118200996411,0.006591107341868418,0.09623613208532333,26,15,0.0570087730884552,0,41,False,356,12355.079916105782,6.286494838324119,1965.3367919921875,15.202419507980347,36,4165.308309034467,12.24580907917909,340.14154052734375,16.302270889282227,38,12251.117671187922,19.914270655075235,615.19287109375,14.541481018066406,1.328718662261963,0,1.7607898712158203,0.8435192108154297,0.9172706604003906,,,0,,,,NOT_AVAILABLE,91.12591707022894,2.5439330302701713,348.672192113064,62.27979484600739,100001,3989.666748046875,3920.0,4199.33349609375,,,,,,,200111,1.9842718839645386,1.7910746335983276,2.0554280281066895,0.8987596035003662,0.8298503756523132,0.9676688313484192,https://gea.esac.esa.int/data-server/datalink/links?ID=Gaia+DR2+2169362834181240832,,0.15034412312402345,0.15359715565177307,--,--,13.357,12.828,12.65
1635721458409799680,Gaia DR2 2169338988522732288,2169338988522732288,285446923,2015.5,316.1282695143808,0.04486602016587395,50.82137147715553,0.045665466430287495,1.1166323632215454,0.056240186140398093,33.26926040649414,-4.774508720062364,0.08963010340795184,-6.448657786371501,0.09098523181371254,0.1259372979402542,0.30332624912261963,-0.2684172987937927,-0.15607546269893646,0.1882246434688568,-0.13852456212043762,-0.29145723581314087,-0.2268979251384735,-0.1876996010541916,-0.05002642050385475,204,0,202,2,0.2610122561454773,201.54884338378906,0.0,0.0,31,False,14.85677433013916,1.3750999878995787,0.008791786187066827,0.05832480639219284,24,15,0.06193824112415314,0,39,False,333,11990.646680879985,7.206749921155021,1663.8077392578125,15.234046440410614,32,3380.078935434218,10.884254519011598,310.5475769042969,16.529071807861328,33,13118.451327033905,16.296478676470738,804.9868774414062,14.46721363067627,1.3759499788284302,0,2.0618581771850586,1.0378122329711914,1.0240459442138672,,,0,,,,NOT_AVAILABLE,91.01165375464285,2.581609161242554,348.41641130500005,62.29717385146727,100001,3719.119873046875,3598.75,4268.2451171875,2.7760000228881836,2.499500036239624,3.1572999954223633,1.4119999408721924,1.2583999633789062,1.5686999559402466,200111,2.1079208850860596,1.600427269935608,2.2512893676757812,0.7658858299255371,0.7114628553390503,0.8203088045120239,https://gea.esac.esa.int/data-server/datalink/links?ID=Gaia+DR2+2169338988522732288,,0.1572695162226652,0.22390746009850232,,,13.035,12.517,12.316
1635721458409799680,Gaia DR2 2169362868540976896,2169362868540976896,834643595,2015.5,316.28717304814586,0.03241707963391827,50.89273164515832,0.033343000791272275,1.0425609677313046,0.03825176920777767,35.217437744140625,-4.802359413423361,0.06095485975256669,-6.598114542598946,0.06210690496542348,0.2537790536880493,0.45891162753105164,-0.4187411367893219,-0.20158331096172333,0.2586922347545624,-0.24689793586730957,-0.430105984210968,-0.3596309721469879,-0.08817873895168304,0.06877517700195312,218,201,213,5,0.12005549669265747,209.78707885742188,0.0,0.0,31,True,193.43441772460938,1.5363107689586997,0.006267619806320125,0.18349406123161316,25,15,0.04030812159180641,0,39,False,309,134746.68960357114,26.3274850496666,5118.099609375,12.678540753936767,35,61665.06615035335,76.43614701049172,806.752685546875,13.376290321350098,36,106251.13010963827,67.97524860987929,1563.0855712890625,12.196085929870605,1.246161937713623,0,1.1802043914794922,0.5117197036743164,0.6684846878051758,,,0,,,,NOT_AVAILABLE,91.13188302891463,2.5546257279809215,348.680890347651,62.29134872116144,100001,4905.0,4850.80517578125,4964.25,,,,,,,200111,3.2550718784332275,3.1778347492218018,3.328211784362793,5.5255045890808105,5.266922950744629,5.784086227416992,https://gea.esac.esa.int/data-server/datalink/links?ID=Gaia+DR2+2169362868540976896,,0.16244437196131267,0.1664540834132193,13.846,13.197,11.386,11.185,11.06
1635721458409799680,Gaia DR2 2169339641357837184,2169339641357837184,916967004,2015.5,316.2428860838764,0.05315719860645198,50.88643158365599,0.054504973654437135,1.0881981511675347,0.06547257829267755,23.80374526977539,-4.755594692581389,0.10572255077029233,-6.621779994691889,0.10561242933244704,0.10048305243253708,0.25966987013816833,-0.26453280448913574,-0.1579660177230835,0.27347275614738464,-0.18387305736541748,-0.32307568192481995,-0.281046062707901,-0.14623410999774933,-0.03639737516641617,206,0,206,0,0.5984618663787842,212.54676818847656,0.0,0.0,31,False,7.453554153442383,1.4308997028514159,0.011318991661324818,0.04284923896193504,24,16,0.07848905771970749,0,40,False,347,6410.366699002943,4.507423994397288,1422.1796875,15.895519459533691,37,2188.1102520717436,12.405848083264537,176.3773193359375,17.0012149810791,38,6265.852046997085,10.970262365621847,571.1669921875,15.269469261169434,1.3187954425811768,0,1.731745719909668,0.8300571441650391,0.9016885757446289,,,0,,,,NOT_AVAILABLE,91.10849807030478,2.5711908114722246,348.6252782829024,62.303668988800524,100001,4376.875,3973.0,5025.69970703125,,,,,,,200111,0.9354420304298401,0.7094994783401489,1.1352931261062622,0.2893243730068207,0.2622433602809906,0.31640538573265076,https://gea.esac.esa.int/data-server/datalink/links?ID=Gaia+DR2+2169339641357837184,,0.1638749990366722,0.1784460606866063,,,14.076,13.594,13.335
1635721458409799680,Gaia DR2 2169131898079916032,2169131898079916032,946089538,2015.5,316.38564732371674,0.08665087007511492,50.56696873255505,0.08063195270288558,0.7054670152244314,0.0974902272827109,8.707993507385254,-4.602514437936349,0.18812527962366687,-7.3991239542540335,0.15665204318433643,-0.09632306545972824,0.19714467227458954,-0.41810470819473267,0.13680581748485565,0.4100050926208496,0.0753588005900383,-0.3310062289237976,-0.1294795721769333,-0.07247763127088547,-0.313732773065567,194,0,193,1,2.23303484916687,233.93740844726562,0.24282851601415334,1.7187589907053704,31,False,2.754776954650879,1.3429934428038004,0.017872782133617204,-0.06938162446022034,22,14,0.16285456717014313,0,39,False,342,2977.0841793213435,2.1217564856169595,1403.1224365234375,16.705681834030152,36,742.3890533730661,6.606832962179506,112.36685943603516,18.174808502197266,34,3508.126945741439,10.38406601827003,337.8374938964844,15.899231910705566,1.4277446269989014,1,2.275576591491699,1.1709213256835938,1.1046552658081055,,,0,,,,NOT_AVAILABLE,90.93137580037629,2.2902860908565237,348.3566228594098,61.99630551485534,100002,3796.820068359375,3482.0,4198.009765625,2.744800090789795,2.516900062561035,3.056999921798706,1.4056999683380127,1.2609000205993652,1.5609999895095825,200111,1.5530402660369873,1.2703864574432373,1.8465676307678223,0.45158571004867554,0.34342220425605774,0.5597492456436157,https://gea.esac.esa.int/data-server/datalink/links?ID=Gaia+DR2+2169131898079916032,,0.16923433268426874,0.17387877333498142,,,14.249,13.631,13.391
1635721458409799680,Gaia DR2 2169338266968225920,2169338266968225920,632926225,2015.5,316.10498318691015,0.06531509105417825,50.82188467842867,0.06644374326333288,0.939273501818602,0.08001551770245985,15.032940864562988,-4.734089028525055,0.13247867214062434,-6.253922554624646,0.13446711559777066,0.14576666057109833,0.3196408450603485,-0.14857468008995056,-0.10011477768421173,0.25597691535949707,-0.1087811291217804,-0.2519972026348114,-0.18201254308223724,-0.08751095086336136,0.0050254929810762405,208,0,207,1,2.6616153717041016,259.57080078125,0.1944972606568657,1.569605284261814,31,False,3.9131758213043213,1.2720912066385826,0.01554241846717956,0.046799659729003906,24,16,0.10403113812208176,0,39,False,334,4209.308554711604,3.0694079900128806,1371.374755859375,16.339823721313476,34,728.4456012429191,7.056771137005516,103.22647094726562,18.19539451599121,35,5526.3780826191605,11.265015840557618,490.57879638671875,15.405818939208984,1.4859503507614136,0,2.7895755767822266,1.567556381225586,1.2220191955566406,,,0,,,,NOT_AVAILABLE,91.00221311161555,2.5929108299847665,348.39218092944026,62.30665151552284,100001,3586.9423828125,3249.333251953125,3958.246826171875,2.9572999477386475,2.8759000301361084,3.010999917984009,1.4993000030517578,1.4500000476837158,1.5286999940872192,200111,1.673652172088623,1.3743845224380493,2.03950834274292,0.41775602102279663,0.3584032654762268,0.47710877656936646,https://gea.esac.esa.int/data-server/datalink/links?ID=Gaia+DR2+2169338266968225920,,0.16991925035420347,0.24566071468023187,,,13.418,12.726,12.37
1635721458409799680,Gaia DR2 2169143447255710720,2169143447255710720,1488439242,2015.5,316.2734646099173,0.07111844004252998,50.565399719594176,0.0752302447382237,1.145628127717543,0.08452198122826181,17.003402709960938,-4.796391507066266,0.1567660609855841,-6.515719934320936,0.15161558852106122,-0.05436741188168526,0.016607075929641724,-0.28158101439476013,0.014768077991902828,0.3072674572467804,0.02438238635659218,-0.3967626094818115,-0.009004822932183743,-0.02848718874156475,-0.18378444015979767,191,0,190,1,13.257415771484375,573.7114868164062,0.44801106752352543,16.345853568307888,31,False,3.4719886779785156,1.2386984505549041,0.01612794884913351,-0.12725038826465607,22,14,0.1326485276222229,0,37,False,321,10010.846837609104,23.167208798486705,432.1127624511719,15.424666277503967,32,1179.6874155116996,32.322435072982486,36.49747848510742,17.67197036743164,33,14966.111484513103,116.6616061236711,128.28651428222656,14.32414722442627,1.6128305196762085,0,3.347823143005371,1.984781265258789,1.363041877746582,,,0,,,,NOT_AVAILABLE,90.88247934303573,2.342180737418274,348.234608839962,62.03876197594449,100001,4279.66015625,3727.123291015625,4673.06005859375,2.9089999198913574,2.789400100708008,2.968400001525879,1.4670000076293945,1.4110000133514404,1.4982999563217163,200111,1.1890182495117188,0.9972507357597351,1.567687749862671,0.4272763729095459,0.37401679158210754,0.48053595423698425,https://gea.esac.esa.int/data-server/datalink/links?ID=Gaia+DR2+2169143447255710720,,0.17194614109713305,0.17819760785311783,,,11.802,11.011,10.605
1635721458409799680,Gaia DR2 2169147329906132864,2169147329906132864,143182817,2015.5,316.17174154348885,0.04621541847333871,50.593126173763345,0.043873226212337954,1.0982159578548065,0.05524036660446948,34.20340347290039,-4.265284547879982,0.09867999305728893,-6.904562794600825,0.0876407597644359,-0.059990908950567245,-0.06600154936313629,-0.3988693952560425,-0.03433490917086601,0.38574978709220886,-0.01299397274851799,-0.35173648595809937,0.1284967064857483,-0.16452261805534363,-0.2037457376718521,154,0,154,0,-2.9768757820129395,102.77130889892578,0.0,0.0,31,False,28.67442512512207,1.4507021058622493,0.00743967056246967,-0.039605677127838135,18,13,0.07463892549276352,0,31,False,268,21994.750154261434,8.836678465030777,2489.029052734375,14.593205571269989,26,7682.038545788169,21.755809669146977,353.10284423828125,15.637697219848633,26,21213.520582116584,26.30596463509154,806.4148559570312,13.945387840270996,1.3137480020523071,0,1.6923093795776367,0.8051290512084961,0.8871803283691406,,,0,,,,NOT_AVAILABLE,90.85992318593588,2.4087644159356274,348.1619656048566,62.100272293878916,100001,4243.66650390625,4070.2451171875,4337.0,,,,,,,200111,1.887369990348816,1.807010531425476,2.0516269207000732,1.0408155918121338,0.9681549072265625,1.113476276397705,https://gea.esac.esa.int/data-server/datalink/links?ID=Gaia+DR2+2169147329906132864,,0.17362609964122735,0.21422533457895016,,,12.771,12.343,12.207
1635721458409799680,Gaia DR2 2169158290663176832,2169158290663176832,1237461904,2015.5,316.60818718298884,0.06790138943387686,50.75793696339054,0.06827888236648016,0.7431179903436915,0.08456653172795557,11.021513938903809,-4.76080317670341,0.1355274227230648,-5.799346085329911,0.1330095430618844,0.031787946820259094,0.3108905851840973,-0.10917188972234726,-0.08768080919981003,0.21900740265846252,-0.12525887787342072,-0.018753405660390854,-0.2445959746837616,-0.05514753982424736,4.548679862637073e-05,231,0,230,1,0.3672245740890503,232.1987762451172,0.0,0.0,31,False,3.062028169631958,1.3668388435917016,0.014867418873078672,0.09679438918828964,26,15,0.10361314564943314,0,40,False,354,2881.620472346482,2.0226464073371035,1424.6783447265625,16.74010988445282,33,741.9504613893853,7.344288703096391,101.02413940429688,18.175451278686523,36,3302.2578676485496,10.209401485392885,323.45263671875,15.964892387390137,1.403449296951294,0,2.2105588912963867,1.1361770629882812,1.0743818283081055,,,0,,,,NOT_AVAILABLE,91.16781982184897,2.313793473618009,348.84419855017205,62.06009346499181,100001,4129.5,3500.666748046875,4880.4599609375,2.856300115585327,2.5315001010894775,3.0780999660491943,1.4709999561309814,1.2692999839782715,1.5889999866485596,200111,1.100854754447937,0.7881401181221008,1.5318752527236938,0.31750065088272095,0.2564590871334076,0.3785422146320343,https://gea.esac.esa.int/data-server/datalink/links?ID=Gaia+DR2+2169158290663176832,,0.17527281062385527,0.27531883963596965,,,14.353,13.733,13.45
1635721458409799680,Gaia DR2 2169340328552600192,2169340328552600192,1116842534,2015.5,316.18622902791986,0.03900265225127319,50.888197933028536,0.039018701389750166,1.047576932699315,0.048778828546769584,49.12680435180664,-5.476801938662265,0.0774452396733067,-6.680850077882284,0.0765884210885889,0.14150172472000122,0.24768182635307312,-0.3837004601955414,-0.1674102544784546,0.28609606623649597,-0.20128683745861053,-0.3702199161052704,-0.23414506018161774,-0.11949432641267776,-0.004047364927828312,201,0,200,1,-1.599522590637207,164.4910125732422,0.0,0.0,31,True,50.769256591796875,1.4525032526781412,0.005310536065944043,0.022899089381098747,23,16,0.04674385488033295,0,38,True,332,38845.724964293775,9.718305594130326,3997.170654296875,13.992381071090698,36,13978.777623852795,17.396913836780087,803.5205688476562,14.987714767456055,37,36828.87967727982,22.528192671765073,1634.7906494140625,13.34644889831543,1.307934284210205,0,1.641265869140625,0.7727069854736328,0.8685588836669922,,,0,,,,NOT_AVAILABLE,91.08591325861438,2.5989679988120837,348.56715329579197,62.327149473603946,100001,4320.0,4161.66796875,4511.677734375,,,,,,,200111,2.4886887073516846,2.2817177772521973,2.681657075881958,1.9434387683868408,1.838040828704834,2.0488367080688477,https://gea.esac.esa.int/data-server/datalink/links?ID=Gaia+DR2+2169340328552600192,,0.18112003532730436,0.21429572698922394,15.785,14.71,12.172,11.766,11.558
1635721458409799680,Gaia DR2 2169133311133006848,2169133311133006848,1453818380,2015.5,316.4134605123559,0.08260768778734236,50.55867844354675,0.0706748694465026,1.224193370533684,0.08847451172315401,17.09893226623535,-4.888815461414583,0.18770045027845805,-6.783086872271923,0.1366376475231873,-0.10124731808900833,0.08409842103719711,-0.5446100234985352,0.17418347299098969,0.4554503262042999,0.17160475254058838,-0.24092672765254974,0.07458684593439102,-0.04188281670212746,-0.2340928018093109,166,0,165,1,2.7755563259124756,214.15284729003906,0.17051927970887973,1.1764635439494584,31,False,4.43031120300293,1.3888137188685012,0.015004968529922882,-0.055974747985601425,19,12,0.1600324809551239,0,37,False,315,4401.27552662054,3.4262138956105663,1284.588623046875,16.292717805290224,29,1134.7927632232584,8.037692477891834,141.18389892578125,17.714096069335938,31,4992.745593369261,11.803111188452501,423.00250244140625,15.516071319580078,1.3922187089920044,1,2.1980247497558594,1.1346759796142578,1.0633487701416016,,,0,,,,NOT_AVAILABLE,90.93706247158909,2.2716154245858062,348.37550853427615,61.97892144721334,100002,4186.9599609375,3680.5,4894.10986328125,,,,,,,200111,0.7901493310928345,0.5783082246780396,1.022570252418518,0.17286549508571625,0.1515638828277588,0.1941671073436737,https://gea.esac.esa.int/data-server/datalink/links?ID=Gaia+DR2+2169133311133006848,,0.18146133534069436,0.19157760325296244,,,13.92,13.252,13.026
1635721458409799680,Gaia DR2 2169174783337555840,2169174783337555840,897019571,2015.5,316.4534675094121,0.040586733025610784,50.898058253945074,0.04033514247307467,1.0499233803709598,0.050568049296719,42.61138153076172,-4.807139296903038,0.08118031156952578,-6.67235469118333,0.08022980202715642,0.15149976313114166,0.27581191062927246,-0.2618861198425293,-0.13091756403446198,0.17786742746829987,-0.16512398421764374,-0.2499847412109375,-0.1298876851797104,0.021591994911432266,0.09083760529756546,221,0,221,0,-2.667379856109619,164.6107177734375,0.0,0.0,31,False,24.457048416137695,1.4582227836996187,0.005609460337369146,0.07229427993297577,25,16,0.052045367658138275,0,42,False,359,19308.79190693939,6.540404993833494,2952.23193359375,14.73078323764801,39,7092.120718067409,14.23749623342063,498.1297607421875,15.724448204040527,40,18064.138860643867,19.366357220702827,932.7587280273438,14.119876861572266,1.3028396368026733,0,1.6045713424682617,0.7504701614379883,0.8541011810302734,,,0,,,,NOT_AVAILABLE,91.20613845893682,2.4802840431311584,348.8650318003388,62.23065169524036,100001,4282.33349609375,4206.0,4515.15478515625,,,,,,,200111,1.798371434211731,1.6176891326904297,1.864240050315857,0.9798856973648071,0.9211459159851074,1.0386254787445068,https://gea.esac.esa.int/data-server/datalink/links?ID=Gaia+DR2+2169174783337555840,,0.181491000589678,0.20375650419196914,,,13.085,12.682,12.497
1635721458409799680,Gaia DR2 2169141518806784256,2169141518806784256,557829754,2015.5,316.1402285770693,0.04040261727412448,50.595181134055096,0.04107114001049458,1.051218341983474,0.050810873912288224,41.94114303588867,-4.792963717555301,0.0833756997984742,-6.7228755609584745,0.08586093767787505,-0.06823587417602539,0.07686122506856918,-0.3402813971042633,0.02803850919008255,0.2573064863681793,0.021465983241796494,-0.28765755891799927,-0.036337606608867645,-0.11460522562265396,-0.19040650129318237,182,0,179,3,-1.053497314453125,154.46128845214844,0.0,0.0,31,False,36.66930389404297,1.4430286477944696,0.006158737479871935,-0.10781818628311157,21,14,0.060700301080942154,0,35,False,295,28206.045172511185,8.435094642758823,3343.891845703125,14.330466456127168,27,9966.469478679313,23.14599250989363,430.5915832519531,15.355034828186035,28,26989.48588543965,23.845305962674527,1131.857421875,13.68393325805664,1.3102140426635742,0,1.6711015701293945,0.7925243377685547,0.8785772323608398,,,0,,,,NOT_AVAILABLE,90.84808820740741,2.425030770382274,348.13088225370933,62.11416332001034,100001,4244.0,4170.59326171875,4362.5,,,,,,,200111,2.2323224544525146,2.1126949787139893,2.311596393585205,1.456498622894287,1.3682126998901367,1.5447845458984375,https://gea.esac.esa.int/data-server/datalink/links?ID=Gaia+DR2+2169141518806784256,,0.18461571565647003,0.2377843648243609,16.172,15.163,12.516,12.135,11.986
1635721458409799680,Gaia DR2 2169156503956716800,2169156503956716800,1140996273,2015.5,316.5810668609877,0.05167616906424829,50.63461892913997,0.0482102562954151,1.197873210050483,0.062051320730083764,28.918203353881836,-4.752769318866983,0.1053055387226783,-6.766776499760514,0.09598810046966028,0.06705746054649353,0.3478344976902008,-0.168356791138649,-0.15101540088653564,0.29557764530181885,-0.12941260635852814,-0.17311543226242065,-0.09782000631093979,-0.18726667761802673,-0.1691623330116272,220,0,220,0,2.7415835857391357,276.22015380859375,0.14990370178944668,1.9315632225015926,31,False,8.976027488708496,1.334809274973463,0.008974118591249577,0.022106869146227837,25,16,0.07787717133760452,0,39,False,344,9444.850746408121,6.648979453385108,1420.496337890625,15.486142420578004,36,2220.2559375150986,15.50325203910607,143.21226501464844,16.985380172729492,34,11235.79997035018,22.49947841760024,499.3804626464844,14.63541030883789,1.4246975183486938,1,2.3499698638916016,1.2350025177001953,1.1149673461914062,,,0,,,,NOT_AVAILABLE,91.06485410517007,2.2436702001499764,348.65348322896733,61.97352138000946,100002,3556.553466796875,3385.0,4302.31005859375,2.882999897003174,2.6110000610351562,3.0676000118255615,1.4830000400543213,1.358199954032898,1.5722999572753906,200111,2.0223968029022217,1.3820432424545288,2.232583522796631,0.5895828008651733,0.5433809161186218,0.6357846856117249,https://gea.esac.esa.int/data-server/datalink/links?ID=Gaia+DR2+2169156503956716800,,0.18488726935228122,0.2659339559023403,,,12.897,12.343,12.027
1635721458409799680,Gaia DR2 2169131795000619648,2169131795000619648,737201715,2015.5,316.3836140128639,0.042099139367705506,50.548189715787984,0.04150280469714343,1.1198364384502966,0.051973032788241134,41.42939376831055,-4.910563719028021,0.08650503702638568,-6.553547098050183,0.0813892672675165,-0.04452722519636154,0.13142265379428864,-0.385180801153183,0.029580261558294296,0.42076772451400757,-0.027841346338391304,-0.3555928170681,-0.14565066993236542,-0.16004519164562225,-0.25847113132476807,210,0,210,0,-2.740368127822876,153.8164825439453,0.0,0.0,31,False,26.236421585083008,1.4457655067929704,0.0061448329238992985,-0.12397227436304092,24,14,0.061005041003227234,0,40,False,351,20413.121035122716,6.0076825559547995,3397.836181640625,14.672033986186982,33,6974.606655354795,18.784321428455918,371.29937744140625,15.742588996887207,33,20077.139678598785,24.69216892102601,813.0974731445312,14.005165100097656,1.3252136707305908,0,1.7374238967895508,0.8289966583251953,0.9084272384643555,,,0,,,,NOT_AVAILABLE,90.91655491894431,2.2786666836216196,348.3299301942306,61.982263702600235,100001,4126.03662109375,3923.5849609375,4578.955078125,,,,,,,200111,1.9496002197265625,1.5829929113388062,2.155984401702881,0.9924717545509338,0.9327948689460754,1.052148699760437,https://gea.esac.esa.int/data-server/datalink/links?ID=Gaia+DR2+2169131795000619648,,0.18747417112554873,0.19135409957193344,16.819,15.639,12.73,12.368,12.159
1635721458409799680,Gaia DR2 2169176192086828416,2169176192086828416,620114738,2015.5,316.46518468084093,0.06885944565844099,50.90774764368854,0.07160813091711486,0.9493252815214016,0.08331181594035818,14.368143081665039,-4.7825213510576825,0.14253053405962787,-6.540935063435667,0.14276454718654522,0.11151120066642761,0.24687887728214264,-0.14104127883911133,-0.05851839482784271,0.24661105871200562,-0.06228449195623398,-0.27693378925323486,-0.10559398680925369,-0.05420517548918724,-0.00776863656938076,232,0,231,1,-0.857100784778595,207.63247680664062,0.0,0.0,31,False,2.868293285369873,1.401286240845281,0.015357709756879426,0.0946517214179039,26,16,0.11118825525045395,0,42,False,360,2790.5245235659313,2.369371192495882,1177.7490234375,16.77404247379303,35,867.4547963814783,7.117759405134378,121.87188720703125,18.00577163696289,35,2937.2118963687235,14.87913978454189,197.40467834472656,16.09208106994629,1.363423466682434,0,1.9136905670166016,0.9316196441650391,0.9820709228515625,,,0,,,,NOT_AVAILABLE,91.21829312711658,2.481297207055533,348.8903614896145,62.233689079076264,,,,,,,,,,,,,,,,,,https://gea.esac.esa.int/data-server/datalink/links?ID=Gaia+DR2+2169176192086828416,,0.1933966862655467,0.2185089459542428,,,14.746,14.157,14.095
1635721458409799680,Gaia DR2 2169340122394092416,2169340122394092416,702626962,2015.5,316.1005515055354,0.03948022084900842,50.878751452168814,0.04017880320534051,1.0187621249894216,0.05020483900989353,42.458553314208984,-4.107364604503892,0.07846160551514829,-7.009186447931644,0.08018375433086761,0.09413907676935196,0.28479811549186707,-0.2803031802177429,-0.15993577241897583,0.27008697390556335,-0.1718326061964035,-0.2932485342025757,-0.2707909643650055,-0.18014828860759735,-0.03626237064599991,203,0,203,0,-2.9985544681549072,143.58424377441406,0.0,0.0,31,False,35.30249786376953,1.439491695170412,0.006015403736714472,0.02990775741636753,23,16,0.04907997325062752,0,39,False,344,27361.06837611183,8.827264184692947,3099.609130859375,14.362594416618347,36,9659.804920262393,15.665540457606548,616.6276245117188,15.388967514038086,36,26184.252649174723,23.403498574336655,1118.81787109375,13.716819763183594,1.310038685798645,1,1.6721477508544922,0.7934341430664062,0.8787136077880859,,,0,,,,NOT_AVAILABLE,91.04276160721443,2.6329220164018228,348.46302565195646,62.35312002834631,100002,4227.0,4144.06689453125,4300.0,,,,,,,200111,2.2973415851593018,2.220000982284546,2.3902127742767334,1.5180108547210693,1.4260011911392212,1.6100205183029175,https://gea.esac.esa.int/data-server/datalink/links?ID=Gaia+DR2+2169340122394092416,,0.20738343179686117,0.27521207345809817,,,12.54,12.164,12.018
1635721458409799680,Gaia DR2 2169132589578579328,2169132589578579328,862176635,2015.5,316.53622678559157,0.05540879016178825,50.56496273307621,0.04914694443588755,1.0289718581454037,0.06330484234230592,23.919435501098633,-4.733061253061519,0.11062656488732145,-6.4586025679514885,0.09511622809140222,0.04109695926308632,0.2326793521642685,-0.41780176758766174,-0.10238254070281982,0.3184259533882141,-0.17369496822357178,-0.18754196166992188,-0.23690158128738403,-0.10429828613996506,-0.11058163642883301,203,0,203,0,-0.058362480252981186,196.17755126953125,0.0,0.0,31,False,9.052547454833984,1.402515947137211,0.010216652075232702,-0.09505961090326309,23,13,0.08516664803028107,0,40,False,334,7641.49293829003,4.740066527990311,1612.106689453125,15.709950727558136,33,2463.724809314376,11.29920484371738,218.04408264160156,16.872407913208008,34,7706.9200152658395,12.222031259474356,630.5760498046875,15.044717788696289,1.330976128578186,0,1.8276901245117188,0.8919878005981445,0.9357023239135742,,,0,,,,NOT_AVAILABLE,90.99407326531289,2.2179854708756346,348.5147088317245,61.93604028403283,100001,3901.0,3842.489990234375,3983.666748046875,,,,,,,200111,1.559969186782837,1.4958977699279785,1.60783851146698,0.507727324962616,0.459947407245636,0.555507242679596,https://gea.esac.esa.int/data-server/datalink/links?ID=Gaia+DR2+2169132589578579328,,0.21137345129630591,0.2629300208913256,,,13.753,13.249,13.074
1635721458409799680,Gaia DR2 2169340534711026176,2169340534711026176,490628404,2015.5,316.19980714242104,0.037409090786930006,50.93323510414931,0.03752726621391597,1.0579328318656132,0.04767157354445631,55.51555252075195,-4.771659433826585,0.07495989239160561,-6.6453269512897855,0.07575265110919535,0.051167767494916916,0.33665159344673157,-0.11388425529003143,-0.16575120389461517,0.06581910699605942,-0.12982740998268127,-0.20788925886154175,-0.2245239019393921,-0.12548887729644775,-0.03359798341989517,208,0,208,0,-5.3813910484313965,112.27859497070312,0.0,0.0,31,True,70.23277282714844,1.4985046404486884,0.004144705140146549,0.1130518689751625,24,16,0.042318712919950485,0,39,False,337,54457.10038920689,13.890297792835709,3920.513427734375,13.635542391300202,36,22704.7159581425,22.79117288151021,996.20654296875,14.461097717285156,36,46316.43596085993,35.547266900827125,1302.9534912109375,13.09758186340332,1.2674407958984375,1,1.363515853881836,0.6128683090209961,0.7506475448608398,,,0,,,,NOT_AVAILABLE,91.12519450358921,2.622670954871318,348.64164873201736,62.35724709885624,100002,4843.18017578125,4583.0,5030.625,,,,,,,200111,2.108192205429077,1.9540135860443115,2.354353904724121,2.2031173706054688,2.093599319458008,2.3126354217529297,https://gea.esac.esa.int/data-server/datalink/links?ID=Gaia+DR2+2169340534711026176,,0.2174303521942218,0.2410431910652021,,,12.135,11.882,11.715
1635721458409799680,Gaia DR2 2169131283908341120,2169131283908341120,1338740688,2015.5,316.34488302999733,0.054890121717847025,50.49883855720085,0.04940644152805536,1.0643576608452634,0.06175865011284007,25.930782318115234,-4.658808820392535,0.11970910106646793,-6.889661452079846,0.09824846251605687,-0.05322572588920593,0.035416457802057266,-0.4339842200279236,0.01515496801584959,0.41204893589019775,-0.011867042630910873,-0.3394419550895691,0.048950791358947754,-0.2249603569507599,-0.32619696855545044,195,0,195,0,1.4804481267929077,219.61000061035156,0.08987410647466687,0.6537104115584322,31,False,10.500539779663086,1.398046884011134,0.009519226566192003,-0.1250581294298172,22,13,0.09848164767026901,0,38,False,328,9340.072123248634,5.896456039897618,1584.0145263671875,15.497926786136627,32,2813.1625284266806,13.053683022720266,215.50718688964844,16.72840118408203,32,9847.82213984337,11.373896363202144,865.8265991210938,14.778569221496582,1.3555552959442139,0,1.9498319625854492,0.9659109115600586,0.9839210510253906,,,0,,,,NOT_AVAILABLE,90.86337162499827,2.2639072344595172,348.2241791479428,61.95834258075993,100001,3945.580078125,3795.5,4708.54052734375,,,,,,,200111,1.6055060625076294,1.127355933189392,1.7349847555160522,0.5628103017807007,0.5135442018508911,0.6120764017105103,https://gea.esac.esa.int/data-server/datalink/links?ID=Gaia+DR2+2169131283908341120,,0.2342687136053414,0.2344142095430689,,,13.426,12.908,12.676
1635721458409799680,Gaia DR2 2169363624455313024,2169363624455313024,244182054,2015.5,316.3776119042481,0.022384240572031595,50.97399622186736,0.022572870807006342,1.036879925146086,0.027789394388562226,61.528167724609375,-4.755175405978028,0.04442821795751476,-6.648693029197883,0.043559563383617945,0.19088836014270782,0.36497974395751953,-0.299794465303421,-0.13983900845050812,0.2651735544204712,-0.20405662059783936,-0.40115469694137573,-0.3695991337299347,-0.030040528625249863,0.018646063283085823,227,0,227,0,-6.089702606201172,116.38320922851562,0.0,0.0,31,True,137.94491577148438,1.5271598522899048,0.0036832234341561128,0.09635995328426361,26,16,0.038583267480134964,0,39,False,332,107039.36281396607,30.72800407503125,3483.446533203125,12.921703589344025,38,47596.9568731864,45.36727433333351,1049.1473388671875,13.657440185546875,38,86507.1200757946,52.540935020269494,1646.470947265625,12.419290542602539,1.2528482675552368,0,1.238149642944336,0.542933464050293,0.695216178894043,,,0,,,,NOT_AVAILABLE,91.2305106911987,2.5666488012135664,348.8854529613393,62.3198787527991,100001,4904.009765625,4763.365234375,5574.4375,,,,,,,200111,2.9185984134674072,2.2587850093841553,3.093493700027466,4.438627243041992,4.23126745223999,4.645987033843994,https://gea.esac.esa.int/data-server/datalink/links?ID=Gaia+DR2+2169363624455313024,,0.24255755953808347,0.24491054927562714,14.133,13.451,11.562,11.38,11.203
1635721458409799680,Gaia DR2 2169131009030441344,2169131009030441344,829328145,2015.5,316.3726647827431,0.036592788010839795,50.48202487102395,0.03152147441660285,1.0489536317230954,0.038673546692478904,34.88407897949219,-4.898654036623731,0.07659540874185379,-6.727521335335233,0.06003713328295642,-0.07509852200746536,0.05445009469985962,-0.5442386865615845,0.08388598263263702,0.4521434009075165,0.01577156037092209,-0.344841867685318,-0.04922731593251228,-0.1567404419183731,-0.26936978101730347,213,213,212,1,-0.21155209839344025,202.06857299804688,0.0,0.0,31,True,287.726318359375,1.5184282808591623,0.006656192608661837,-0.11862311512231827,24,13,0.048851143568754196,0,39,False,340,198646.3193103206,49.92013433615726,3979.282470703125,12.268555058670044,35,86045.99246698504,127.02485293269491,677.3949584960938,13.014561653137207,33,164784.90658993265,140.47687368477887,1173.0394287109375,11.719626426696777,1.2627009153366089,0,1.2949352264404297,0.5713968276977539,0.7235383987426758,,,0,,,,NOT_AVAILABLE,90.86271815076665,2.23952122559079,348.23201649748324,61.93422789743495,100001,4930.0,4776.21337890625,5092.5,,,,,,,200111,3.876713275909424,3.633251428604126,4.130380630493164,7.99852180480957,7.631279468536377,8.365763664245605,https://gea.esac.esa.int/data-server/datalink/links?ID=Gaia+DR2+2169131009030441344,,0.2521768493934981,0.25393597773673365,13.629,12.777,10.808,10.591,10.48
