solution_id,designation,source_id,random_index,ref_epoch,ra,ra_error,dec,dec_error,parallax,parallax_error,parallax_over_error,pmra,pmra_error,pmdec,pmdec_error,ra_dec_corr,ra_parallax_corr,ra_pmra_corr,ra_pmdec_corr,dec_parallax_corr,dec_pmra_corr,dec_pmdec_corr,parallax_pmra_corr,parallax_pmdec_corr,pmra_pmdec_corr,astrometric_n_obs_al,astrometric_n_obs_ac,astrometric_n_good_obs_al,astrometric_n_bad_obs_al,astrometric_gof_al,astrometric_chi2_al,astrometric_excess_noise,astrometric_excess_noise_sig,astrometric_params_solved,astrometric_primary_flag,astrometric_weight_al,astrometric_pseudo_colour,astrometric_pseudo_colour_error,mean_varpi_factor_al,astrometric_matched_observations,visibility_periods_used,astrometric_sigma5d_max,frame_rotator_object_type,matched_observations,duplicated_source,phot_g_n_obs,phot_g_mean_flux,phot_g_mean_flux_error,phot_g_mean_flux_over_error,phot_g_mean_mag,phot_bp_n_obs,phot_bp_mean_flux,phot_bp_mean_flux_error,phot_bp_mean_flux_over_error,phot_bp_mean_mag,phot_rp_n_obs,phot_rp_mean_flux,phot_rp_mean_flux_error,phot_rp_mean_flux_over_error,phot_rp_mean_mag,phot_bp_rp_excess_factor,phot_proc_mode,bp_rp,bp_g,g_rp,radial_velocity,radial_velocity_error,rv_nb_transits,rv_template_teff,rv_template_logg,rv_template_fe_h,phot_variable_flag,l,b,ecl_lon,ecl_lat,priam_flags,teff_val,teff_percentile_lower,teff_percentile_upper,a_g_val,a_g_percentile_lower,a_g_percentile_upper,e_bp_min_rp_val,e_bp_min_rp_percentile_lower,e_bp_min_rp_percentile_upper,flame_flags,radius_val,radius_percentile_lower,radius_percentile_upper,lum_val,lum_percentile_lower,lum_percentile_upper,datalink_url,epoch_photometry_url,dist,radius,B,V,J,H,K
1635721458409799680,Gaia DR2 517925570740296192,517925570740296192,1085196096,2015.5,30.3277591064143,0.03925307204701531,63.801735587668055,0.03942588532450338,0.6359281739917075,0.05119915734197097,24.712900161743164,-4.9639883730221985,0.0765311248801208,-0.11392928670467392,0.07985477209187598,-0.33783552050590515,-0.08955371379852295,-0.567922055721283,0.2532464265823364,0.04337839409708977,0.2444586157798767,-0.4202115833759308,0.1695197969675064,-0.01450229249894619,-0.4496258795261383,406,0,406,0,-3.000394582748413,321.3148193359375,0.0,0.0,31,False,19.24388885498047,1.5221762770416007,0.005105550282496642,-0.09944693744182587,46,17,0.05472757667303085,0,53,False,458,15555.50524025995,4.275646242290103,3638.164794921875,14.959100797176362,51,7031.227058733548,16.037010554860917,438.4375,15.733810424804688,50,12844.85887192581,13.929452707384192,922.1366577148438,14.490097045898438,1.2777525186538696,0,1.24371337890625,0.5251550674438477,0.7185583114624023,,,0,,,,NOT_AVAILABLE,130.5518011417921,1.9685173982100324,55.834415617722314,47.269811542064915,100001,4908.5,4847.86767578125,5059.0,,,,,,,200111,1.8098050355911255,1.703727126121521,1.855358600616455,1.7129846811294556,1.538032054901123,1.887937307357788,https://gea.esac.esa.int/data-server/datalink/links?ID=Gaia+DR2+517925570740296192,,0.003288443559271023,0.007278161109566832,,,13.596,13.28,13.187
1635721458409799680,Gaia DR2 517925575042048384,517925575042048384,808161958,2015.5,30.326628416990246,0.026134437642523836,63.797370494120656,0.027038905707568367,0.7253852133186116,0.034158486746799,29.07925796508789,-4.893544505329559,0.05068667712418334,-0.34378479605220535,0.057054674662332015,-0.31415313482284546,0.0060145738534629345,-0.513856053352356,0.2325408011674881,0.012259750626981258,0.23077689111232758,-0.44622960686683655,0.14705312252044678,-0.03916984051465988,-0.4348527789115906,421,421,387,34,15.606368064880371,994.8516235351562,0.0,0.0,31,True,420.62310791015625,1.4094682345079201,0.005247089820956539,-0.09557186812162399,47,18,0.03808268532156944,0,54,False,442,546593.7243210899,402.6854777258593,1357.371337890625,11.199376021957397,47,168562.90436707388,216.25806414851886,779.4525756835938,12.284482955932617,48,546112.8821759565,279.7928620620144,1951.8470458984375,10.418713569641113,1.3075082302093506,1,1.865769386291504,0.9402790069580078,0.9254903793334961,-57.35601114767556,0.18413445644850424,11,5000.0,3.0,0.0,NOT_AVAILABLE,130.5524873025386,1.9641776984564199,55.8305261832596,47.266299048486324,100002,4024.31005859375,3800.0,4132.16015625,1.0913000106811523,0.9085999727249146,1.3508000373840332,0.5457000136375427,0.4375999867916107,0.6499999761581421,200111,16.902101516723633,16.031320571899414,18.956422805786133,67.50592041015625,63.53304672241211,71.47879028320312,https://gea.esac.esa.int/data-server/datalink/links?ID=Gaia+DR2+517925575042048384,,0.005185730108796014,0.009124511768714883,--,11.986,9.024,8.325,8.092
1635721458409799680,Gaia DR2 517925575042348672,517925575042348672,357704063,2015.5,30.347536703054285,0.03874348981596203,63.800684204565734,0.039284178106930405,0.6280666828992939,0.05079702539517607,25.082481384277344,-4.853602753119399,0.07582997920336022,-0.11710847660760848,0.07955714668747026,-0.3290594518184662,-0.09243752807378769,-0.5694210529327393,0.2721344530582428,0.09646540135145187,0.26734617352485657,-0.45348602533340454,0.18228155374526978,-0.051101211458444595,-0.4670376777648926,386,0,383,3,-2.208360195159912,319.87652587890625,0.0,0.0,31,False,23.168272018432617,1.5341133215851819,0.004831892302905363,-0.03885076940059662,44,18,0.05447974428534508,0,49,False,425,18728.25996367494,5.381784828763855,3479.934814453125,14.76302903251648,45,8445.621287382843,10.563195791102146,799.5327758789062,15.534809112548828,42,15054.451736057032,15.85151398103142,949.7169799804688,14.317757606506348,1.2547920942306519,0,1.2170515060424805,0.5276870727539062,0.6893644332885742,,,0,,,,NOT_AVAILABLE,130.5605009340832,1.9698396501212343,55.84473090204701,47.26448718312563,100001,4856.0,4827.357421875,4920.54345703125,,,,,,,200111,2.068025588989258,2.0141282081604004,2.092639207839966,2.1425018310546875,1.9252896308898926,2.3597140312194824,https://gea.esac.esa.int/data-server/datalink/links?ID=Gaia+DR2+517925575042348672,,0.005535608018975917,0.012540679815209324,,,13.425,13.155,13.088
1635721458409799680,Gaia DR2 517925575042349696,517925575042349696,441635754,2015.5,30.343385108807638,0.025447186609582517,63.795009812463434,0.02843542650016616,0.6614324093183078,0.03685721402815875,23.58397674560547,-4.90391183157973,0.048944120756801913,-0.2062115586139578,0.0599912754616054,-0.3625512421131134,-0.02368955872952938,-0.4940510392189026,0.29977282881736755,0.0685722604393959,0.2830286920070648,-0.38089391589164734,0.17497579753398895,-0.14173968136310577,-0.5244858264923096,388,379,387,1,1.2851923704147339,417.9277038574219,0.0,0.0,31,True,265.7297058105469,1.6055625777008053,0.00514652970934864,-0.029520496726036072,44,17,0.03896820545196533,0,52,True,435,185484.88124070925,28.71297202351343,6459.96826171875,12.340967530918121,49,99449.00545569065,95.15979943960797,1045.07373046875,12.857386589050293,48,126388.52897979796,87.01834874483421,1452.4354248046875,12.007650375366211,1.2175523042678833,0,0.849736213684082,0.33979225158691406,0.509943962097168,,,0,,,,NOT_AVAILABLE,130.56025285737306,1.963881673403813,55.838171341238194,47.26051951877127,100001,5812.0,5692.5,6650.0751953125,,,,,,,200111,4.03160285949707,3.0794689655303955,4.202646732330322,16.709081649780273,15.538756370544434,17.87940788269043,https://gea.esac.esa.int/data-server/datalink/links?ID=Gaia+DR2+517925575042349696,,0.007037145719078645,0.010304969502098115,--,12.68,11.387,11.177,11.123
1635721458409799680,Gaia DR2 517925197084934016,517925197084934016,179212572,2015.5,30.308516212550803,0.03632301199138207,63.79231636910053,0.03672385457773392,0.635375431138648,0.04759930128680243,33.61598205566406,-4.976123477496202,0.07201430753382372,-0.03872767534776242,0.07455144020288357,-0.3199918270111084,-0.015242411755025387,-0.49237921833992004,0.23280374705791473,0.02068263851106167,0.22706817090511322,-0.4111782908439636,0.14516225457191467,-0.030350390821695328,-0.4543988108634949,396,0,395,1,-4.822251319885254,269.70806884765625,0.0,0.0,31,False,42.87547302246094,1.5713422480639934,0.0037952812095984013,-0.08181934803724289,45,18,0.04527546465396881,0,51,False,441,33618.6185723726,6.459502157014963,5204.521484375,14.145036898612975,45,16556.289027533458,22.959204723932146,721.11767578125,14.803980827331543,43,24878.04581839543,19.22207706592366,1294.243408203125,13.772378921508789,1.232481837272644,0,1.031601905822754,0.4320650100708008,0.5995368957519531,,,0,,,,NOT_AVAILABLE,130.54612644608224,1.9571705051071713,55.81659144576363,47.26598688047664,100001,5143.65234375,4911.27978515625,5488.3427734375,,,,,,,200111,2.3661584854125977,2.078282594680786,2.595360517501831,3.5307650566101074,3.240142822265625,3.82138729095459,https://gea.esac.esa.int/data-server/datalink/links?ID=Gaia+DR2+517925197084934016,,0.01457190067272203,0.027871068211543625,--,14.593,13.031,12.783,12.722
1635721458409799680,Gaia DR2 517925609401758976,517925609401758976,1300884846,2015.5,30.34276538037158,0.056761415438764076,63.815339341601614,0.056127215994696215,0.5696131400060298,0.07382576479826679,10.251266479492188,-4.814310564136012,0.10589282367623079,0.07298365540264558,0.11305313323172282,-0.32105448842048645,-0.08701039105653763,-0.5762998461723328,0.24825923144817352,0.024424958974123,0.22941851615905762,-0.37249064445495605,0.1381126493215561,0.04906652867794037,-0.4292246401309967,395,0,393,2,2.648054361343384,465.786376953125,0.17319920714394813,1.5987081230019158,31,False,3.918471574783325,1.4620215641301286,0.010842694012281485,-0.08995730429887772,45,17,0.09699857980012894,0,50,False,438,4067.941746971193,3.628504005701954,1121.107177734375,16.37590887565613,47,1425.947537697733,6.996569725789679,203.80667114257812,17.466129302978516,47,3918.946056475899,9.804875486030577,399.693603515625,15.778996467590332,1.3139060735702515,0,1.6871328353881836,0.8012008666992188,0.8859319686889648,,,0,,,,NOT_AVAILABLE,130.55454691381925,1.9833969345342843,55.85298077408289,47.27819386759487,100001,4237.0,4118.466796875,4469.9248046875,,,,,,,200111,1.5726265907287598,1.4129998683929443,1.6644525527954102,0.7180915474891663,0.5663807392120361,0.8698023557662964,https://gea.esac.esa.int/data-server/datalink/links?ID=Gaia+DR2+517925609401758976,,0.014741959901610533,0.016306987762399906,,,14.494,13.944,13.803
1635721458409799680,Gaia DR2 517925776898762112,517925776898762112,413124837,2015.5,30.315044158303472,0.03923578835286425,63.815741409306895,0.03984461400559249,0.6807311718486172,0.05143504924788471,26.04887580871582,-4.8591416879957094,0.07639653055523257,-0.04468206367861719,0.08072004240838623,-0.3105291426181793,-0.005182148423045874,-0.5199461579322815,0.24787640571594238,0.014416295103728771,0.23530235886573792,-0.38923150300979614,0.08599810302257538,0.022771384567022324,-0.3990545868873596,388,0,387,1,-3.255458354949951,298.33203125,0.0,0.0,31,False,17.735130310058594,1.521831224757881,0.005311189839619565,-0.08580318838357925,44,18,0.05449090152978897,0,49,False,427,14392.1918262761,4.57240962011476,3147.616455078125,15.041206306743621,48,6418.232548468153,14.094480867377007,455.3720397949219,15.832849502563477,46,12173.951522619496,43.05243746965909,282.77032470703125,14.548340797424316,1.2918243408203125,1,1.2845087051391602,0.5398015975952148,0.7447071075439453,,,0,,,,NOT_AVAILABLE,130.54264517405846,1.9805142801865057,55.837729260344844,47.28473143641085,100002,4861.0,4669.1298828125,4995.009765625,,,,,,,200111,1.6681097745895386,1.5798039436340332,1.8080229759216309,1.399737000465393,1.2646726369857788,1.5348013639450073,https://gea.esac.esa.int/data-server/datalink/links?ID=Gaia+DR2+517925776898762112,,0.017177111948231617,0.02481017465013651,,,13.603,13.165,13.075
1635721458409799680,Gaia DR2 517925506322873600,517925506322873600,216988350,2015.5,30.35305910870384,0.04050311155322394,63.785666896214536,0.04309009763848227,0.7278097465340323,0.054338923929284196,23.659873962402344,-4.8714235163466215,0.07853795073051187,-0.18713457362994662,0.08821831984889998,-0.28192242980003357,-0.03639198839664459,-0.4998191297054291,0.21647047996520996,0.014630524441599846,0.23200227320194244,-0.5036706328392029,0.10200905799865723,0.010617797262966633,-0.42400655150413513,385,0,382,3,-1.7605839967727661,330.0824890136719,0.0,0.0,31,False,13.611723899841309,1.5104816164217283,0.006154233078858065,-0.06089717522263527,44,18,0.06442993134260178,0,52,False,432,11299.413989932065,4.039685211885057,2797.1025390625,15.296765875339508,47,4783.878361354623,11.324785553911466,422.4255065917969,16.15193748474121,42,9557.670996824678,9.594341020785373,996.177978515625,14.811039924621582,1.269229531288147,1,1.340897560119629,0.5962114334106445,0.7446861267089844,,,0,,,,NOT_AVAILABLE,130.56687378245772,1.9560229364714503,55.83664006568301,47.25029871043489,100002,4683.419921875,4526.7333984375,5028.0,,,,,,,200111,1.5281481742858887,1.3258706331253052,1.6357685327529907,1.0122272968292236,0.9090438485145569,1.1154108047485352,https://gea.esac.esa.int/data-server/datalink/links?ID=Gaia+DR2+517925506322873600,,0.0172787749862148,0.023690409006028073,,,13.858,13.524,13.369
1635721458409799680,Gaia DR2 517925815560185600,517925815560185600,184321782,2015.5,30.313800170039467,0.04051845279012166,63.81935940594171,0.04093972445333603,0.639530002378087,0.05296679288651762,22.332969665527344,-4.96400032871325,0.07864880669511659,-0.17389609511396328,0.08281201626790284,-0.305637925863266,-0.015642395243048668,-0.5425903797149658,0.23112931847572327,0.014728015288710594,0.21585525572299957,-0.39926958084106445,0.10876787453889847,0.02402089349925518,-0.4323674738407135,405,0,403,2,-1.4646023511886597,357.4710693359375,0.0,0.0,31,False,14.202513694763184,1.5011274427038261,0.00580530741410754,-0.07417554408311844,46,18,0.05842319130897522,0,52,False,457,11771.770287478963,3.776148873408274,3117.401123046875,15.253505813598633,50,5036.034245402065,9.012208104383843,558.8013916015625,16.096166610717773,48,9881.919116387318,11.76849980493369,839.6923217773438,14.774816513061523,1.2672650814056396,0,1.32135009765625,0.5849056243896484,0.7364444732666016,,,0,,,,NOT_AVAILABLE,130.5411489090131,1.9838541971111818,55.83973145083916,47.288129464562196,100001,4888.330078125,4618.66650390625,5171.0,,,,,,,200111,1.5823981761932373,1.414124846458435,1.7725708484649658,1.2881556749343872,1.1465842723846436,1.4297270774841309,https://gea.esac.esa.int/data-server/datalink/links?ID=Gaia+DR2+517925815560185600,,0.020610381167288104,0.028044617609944082,,,13.836,13.442,13.337
1635721458409799680,Gaia DR2 517925162725217408,517925162725217408,1057017177,2015.5,30.32806166989091,0.04152312032711812,63.77705714266602,0.042795046336402603,0.558861309630471,0.05556289951792659,17.152448654174805,-5.359097068275629,0.08033632685189797,-0.15579628338679918,0.08680880593961743,-0.3306300938129425,-0.02339009940624237,-0.46328526735305786,0.24002835154533386,-0.00951229128986597,0.23089760541915894,-0.37479260563850403,0.05230741202831268,0.05727500095963478,-0.4555317759513855,405,0,405,0,-1.4038954973220825,360.9683837890625,0.0,0.0,31,False,10.972963333129883,1.4774459195417158,0.006606701460423785,-0.09276458621025085,47,18,0.06290242820978165,0,55,False,456,9263.448705941091,3.230202500982527,2867.760986328125,15.506627973461152,52,3852.1332532925717,7.371942410341915,522.539794921875,16.387134552001953,50,7983.736378130417,10.166698661243121,785.2830810546875,15.006404876708984,1.2776957750320435,0,1.3807296752929688,0.6157007217407227,0.7650289535522461,,,0,,,,NOT_AVAILABLE,130.55853069850622,1.9447727279325784,55.81619008610579,47.24845639790745,100001,4973.31298828125,4447.0,5236.5400390625,,,,,,,200111,1.5363800525665283,1.3858026266098022,1.9215689897537231,1.3009936809539795,1.1204901933670044,1.4814971685409546,https://gea.esac.esa.int/data-server/datalink/links?ID=Gaia+DR2+517925162725217408,,0.02413861951709886,0.02492791290939273,,,14.004,13.558,13.466
1635721458409799680,Gaia DR2 517925811258523392,517925811258523392,873303019,2015.5,30.321972441825995,0.05387695728871868,63.824733715845575,0.051136267653675786,0.6602832739769561,0.06786449026830212,13.582135200500488,-5.101033336140861,0.10299772533997015,0.09989978589152815,0.10442159887191382,-0.29586896300315857,-0.1255832463502884,-0.6082307696342468,0.2418331652879715,0.02333274856209755,0.2039356529712677,-0.3620077073574066,0.20724116265773773,0.0004822782357223332,-0.4388536214828491,379,0,377,2,-1.608905553817749,329.203125,0.0,0.0,31,False,5.257604122161865,1.4529848100957556,0.009633017109389316,-0.08063951879739761,43,17,0.09058612585067749,0,49,False,423,4687.895543561311,2.799885074162031,1674.317138671875,16.22607550621033,45,1796.962058934333,8.083781937124918,222.29225158691406,17.21504020690918,48,4256.1685816151285,6.389579478141546,666.1109008789062,15.689373016357422,1.291225552558899,0,1.5256671905517578,0.7041187286376953,0.8215484619140625,,,0,,,,NOT_AVAILABLE,130.54318851742985,1.9899963692259326,55.84832631663884,47.290939124142795,100001,4432.33349609375,4284.26025390625,4724.5400390625,1.5989999771118164,1.2487000226974487,1.7783000469207764,0.7646999955177307,0.6380000114440918,0.8932999968528748,200111,1.269834280014038,1.1176166534423828,1.3591276407241821,0.5606845021247864,0.46959370374679565,0.6517753005027771,https://gea.esac.esa.int/data-server/datalink/links?ID=Gaia+DR2+517925811258523392,,0.024422638979195097,0.027074093517891057,,,14.571,14.209,14.177
1635721458409799680,Gaia DR2 517925128365752192,517925128365752192,835191469,2015.5,30.35612289425753,0.037634665062893764,63.770327201906,0.03915731441692413,0.6452404625572616,0.05018341628098004,26.934598922729492,-4.904791222789609,0.07391893321588495,-0.12171045570177988,0.08003605596867083,-0.3106713593006134,-0.01595672033727169,-0.47157731652259827,0.20146185159683228,0.11414511501789093,0.22966188192367554,-0.4775146543979645,0.07006241381168365,-0.030798792839050293,-0.46865716576576233,385,0,382,3,-1.337560772895813,340.82794189453125,0.0,2.0701152173195105e-15,31,False,26.14447021484375,1.539014204610706,0.004738702492822286,-0.0840560719370842,44,18,0.053561434149742126,0,51,False,438,20914.041367212652,13.306615738033024,1571.7025146484375,14.646425885295868,43,9715.136915828276,31.368933286834956,309.7056884765625,15.382765769958496,44,16314.100415143394,30.82154222485158,529.308349609375,14.230512619018555,1.244581937789917,0,1.1522531509399414,0.4954948425292969,0.6567583084106445,,,0,,,,NOT_AVAILABLE,130.57228778133359,1.9416055395870455,55.82693615027794,47.23637969436174,100001,4922.0,4810.29345703125,5007.26708984375,1.930999994277954,1.611899971961975,2.276099920272827,0.9679999947547913,0.8069000244140625,1.1411000490188599,200111,2.0535318851470947,1.984189510345459,2.150015115737915,2.229790449142456,2.016643762588501,2.442937135696411,https://gea.esac.esa.int/data-server/datalink/links?ID=Gaia+DR2+517925128365752192,,0.032057603399240374,0.03724241137104645,--,15.167,13.422,13.082,13.123
1635721458409799680,Gaia DR2 517925437603104640,517925437603104640,1392285646,2015.5,30.25596959562547,0.04867661345508958,63.7931684094451,0.04859428372495871,0.5848530744834893,0.06372438096953842,13.43067741394043,-4.697589936944778,0.09423553484495015,-0.6329953087267921,0.0999275239007557,-0.3295409679412842,-0.07401995360851288,-0.5270718932151794,0.2507089376449585,0.02158283069729805,0.226608008146286,-0.34938541054725647,0.16310694813728333,-0.007230137940496206,-0.4543125629425049,379,0,378,1,-0.6197659373283386,355.68084716796875,0.0,0.0,31,False,6.417054176330566,1.46220719615274,0.008608680775999146,-0.0952669307589531,43,17,0.08189745247364044,0,49,False,430,5588.037731093606,2.5380901856193074,2201.670166015625,16.040539248275756,48,2117.119508065729,7.015519517239294,301.7765808105469,17.037025451660156,46,5136.128632713335,8.692665752410102,590.8577270507812,15.485330581665039,1.2979955673217773,1,1.5516948699951172,0.7168083190917969,0.8348865509033203,,,0,,,,NOT_AVAILABLE,130.5235206013118,1.9518042659246346,55.78773314207907,47.27846958867576,100002,4305.39306640625,4187.43505859375,4478.0,1.9134999513626099,1.6038999557495117,2.255199909210205,0.940500020980835,0.7998999953269958,1.0846999883651733,200111,1.708315134048462,1.5791573524475098,1.8059154748916626,0.9034037590026855,0.7523168325424194,1.0544906854629517,https://gea.esac.esa.int/data-server/datalink/links?ID=Gaia+DR2+517925437603104640,,0.03577190809476392,0.0794174957186487,,,14.364,13.807,13.71
1635721458409799680,Gaia DR2 517925094006014336,517925094006014336,355614382,2015.5,30.332196410719934,0.05804587617426315,63.76473921844355,0.06430889266294898,0.583425489540597,0.0825953780922327,8.935113906860352,-4.850925913431065,0.11148609423291338,0.11999182544179642,0.13149016129626895,-0.3718893229961395,-0.08302763104438782,-0.4904959499835968,0.3128209710121155,0.07007116824388504,0.302286833524704,-0.39828142523765564,0.17731355130672455,0.009712516330182552,-0.5225815176963806,361,0,359,2,1.2117526531219482,386.52410888671875,0.10659793133090804,0.47283912063444344,31,False,3.3847172260284424,1.4713683931206971,0.012734681158757059,-0.05241592600941658,41,17,0.1152847558259964,0,47,False,409,3262.158261478639,1.9001195010053982,1716.8173828125,16.609089190864562,44,1271.3009940899624,7.1747350837347925,177.19134521484375,17.59076690673828,45,2939.1183787286986,7.236646684450251,406.1436767578125,16.09137725830078,1.2906851768493652,0,1.4993896484375,0.6861629486083984,0.8132266998291016,,,0,,,,NOT_AVAILABLE,130.56358758471887,1.9333916992042695,55.809336321430244,47.236905623904406,100001,4388.33349609375,4273.87744140625,4683.009765625,,,,,,,200111,1.234939455986023,1.0844131708145142,1.3019694089889526,0.5095472931861877,0.38831788301467896,0.6307767033576965,https://gea.esac.esa.int/data-server/datalink/links?ID=Gaia+DR2+517925094006014336,,0.03628160034419146,0.03636900317490022,,,15.053,14.538,14.377
1635721458409799680,Gaia DR2 514923221106711168,514923221106711168,1116096769,2015.5,30.41767063568388,0.023085979056151493,63.803855049473164,0.024670635544766926,0.6382563246378821,0.032338096897009394,28.03044891357422,-4.772096139876817,0.04317178239378124,-0.25350832637425325,0.04964871495912109,-0.2424289435148239,0.07699136435985565,-0.44370195269584656,0.2009311020374298,0.05028645694255829,0.1907426416873932,-0.37462446093559265,0.01858161762356758,0.05188189819455147,-0.3777167499065399,398,281,397,1,3.9194061756134033,511.506591796875,0.0,0.0,31,True,176.38458251953125,1.6043564205546756,0.00445153084579188,-0.023317942395806313,45,19,0.0331074520945549,0,51,False,437,129010.67006561231,30.628970772877675,4212.04736328125,12.724491521930695,43,69396.21866793493,77.35273592797644,897.1398315429688,13.248048782348633,43,87545.76035113243,78.71115565272088,1112.2408447265625,12.406332015991211,1.2165038585662842,0,0.8417167663574219,0.33624744415283203,0.5054693222045898,,,0,,,,NOT_AVAILABLE,130.58949631265133,1.9811961347363949,55.88645234661967,47.251568499620355,100001,5761.0,5470.26318359375,5871.33349609375,,,,,,,200111,3.551806688308716,3.4195706844329834,3.9393868446350098,12.519438743591309,11.655709266662598,13.38316822052002,https://gea.esac.esa.int/data-server/datalink/links?ID=Gaia+DR2+514923221106711168,,0.036599765290406476,0.08271992088893018,--,12.981,11.73,11.59,11.513
1635721458409799680,Gaia DR2 517925678121561344,517925678121561344,1542449624,2015.5,30.396344346582058,0.04220792483649109,63.82729113583125,0.04351292785483968,0.7952794510465784,0.05695142940464155,23.000625610351562,-4.781688396722979,0.08075569565270971,-0.3261562193043176,0.08769727041872934,-0.24684682488441467,0.00694702984765172,-0.5067956447601318,0.16353055834770203,0.021569645032286644,0.15638120472431183,-0.3670785427093506,0.04469362646341324,0.07158514112234116,-0.35068953037261963,415,0,414,1,0.2953609824180603,416.830322265625,0.0,0.0,31,False,9.743492126464844,1.4843483186300817,0.0069048078645974524,-0.043490707874298096,47,19,0.06138104200363159,0,53,False,467,8309.913387146604,3.1849060185075935,2609.155029296875,15.621372677707672,50,3235.6434741090557,7.972218570957477,405.8648681640625,16.576486587524414,51,7485.550962769916,8.898360351709155,841.2281494140625,15.076360702514648,1.2901692390441895,0,1.5001258850097656,0.6871118545532227,0.813014030456543,,,0,,,,NOT_AVAILABLE,130.57412971392776,2.0012450746991792,55.891946159696204,47.2765466436738,100001,4407.5,4272.0,5421.5,1.7089999914169312,1.4210000038146973,1.8547999858856201,0.843500018119812,0.6564000248908997,0.9355999827384949,200111,1.4272706508636475,0.9433048367500305,1.51924729347229,0.6925907135009766,0.6218670606613159,0.7633143663406372,https://gea.esac.esa.int/data-server/datalink/links?ID=Gaia+DR2+517925678121561344,,0.03773077232307022,0.06674093706921448,,,13.972,13.582,13.439
1635721458409799680,Gaia DR2 517925678121560704,517925678121560704,903738770,2015.5,30.3948167973671,0.046471220617765006,63.83403251872834,0.04751885893353467,0.6604764379128633,0.062220347733854854,15.86173152923584,-4.932138588069112,0.08693463550732275,-0.08554627977937425,0.09572048474350982,-0.25946444272994995,-0.0487145371735096,-0.5273751020431519,0.16359691321849823,0.0378897450864315,0.15828603506088257,-0.33432072401046753,0.07961779832839966,0.0754459872841835,-0.35512635111808777,384,0,383,1,-0.6617794632911682,359.4494323730469,0.0,0.0,31,False,7.097094535827637,1.4782079803426644,0.00813335673195436,-0.06168536841869354,44,18,0.07131899893283844,0,50,False,436,6213.143563675104,2.7153021456507536,2288.196044921875,15.928529786109925,45,2484.4562168809357,9.55098176123701,260.125732421875,16.863309860229492,42,5501.516307526837,8.285054372846599,664.0289916992188,15.410714149475098,1.2853353023529053,0,1.4525957107543945,0.6582221984863281,0.7943735122680664,,,0,,,,NOT_AVAILABLE,130.57167035422785,2.0075584769929984,55.89611494944304,47.28270305625308,100001,4454.2646484375,4381.75,4593.40673828125,,,,,,,200111,1.4403539896011353,1.3544141054153442,1.48842191696167,0.7357617616653442,0.6307474970817566,0.8407760262489319,https://gea.esac.esa.int/data-server/datalink/links?ID=Gaia+DR2+517925678121560704,,0.042277019743423565,0.06833151938011232,,,14.339,13.938,13.871
1635721458409799680,Gaia DR2 514923221106711680,514923221106711680,1259863157,2015.5,30.433305339745807,0.0349444364120726,63.79984483789078,0.03550242468885638,0.6501334834972887,0.04632542858370169,40.73942565917969,-4.856635168059977,0.06896278133686926,-0.09185900626215587,0.07120292382693837,-0.3562016487121582,0.0753110945224762,-0.4707791805267334,0.2840900719165802,-0.07382383942604065,0.26325055956840515,-0.36895275115966797,0.018305083736777306,0.05095139518380165,-0.4557272791862488,413,0,411,2,-2.313938617706299,342.971923828125,0.0,0.0,31,True,123.38162231445312,1.6022552864880737,0.0030611560178922356,-0.00768515607342124,47,19,0.036072492599487305,0,53,False,452,96668.6188614258,16.585277399868907,5828.580078125,13.029350396060943,50,51590.44503868684,45.084845137832744,1144.296875,13.569965362548828,49,66256.35345066797,35.00141204719583,1892.9622802734375,12.708850860595703,1.2190802097320557,1,0.861114501953125,0.34481334686279297,0.516301155090332,,,0,,,,NOT_AVAILABLE,130.59722712249902,1.9791885707084356,55.892241952111426,47.24462022973049,100002,5545.99267578125,5356.60009765625,5790.0,,,,,,,200111,3.284357786178589,3.013366222381592,3.5207128524780273,9.19417667388916,8.53320026397705,9.85515308380127,https://gea.esac.esa.int/data-server/datalink/links?ID=Gaia+DR2+514923221106711680,,0.043408850485068595,0.09831212652586159,--,13.34,12.021,11.851,11.775
1635721458409799680,Gaia DR2 514946723167754240,514946723167754240,137384754,2015.5,30.427155485022148,0.036904844730203584,63.8216133216159,0.03755967378926813,0.6012585147330161,0.04918639053529966,27.191484451293945,-4.310571207762482,0.07274974569538942,-0.27344321325733223,0.07585218033033668,-0.29350733757019043,0.020668664947152138,-0.40802642703056335,0.15942497551441193,0.011921779252588749,0.1545255482196808,-0.32462188601493835,0.09578781574964523,0.03195041045546532,-0.4404083490371704,390,0,390,0,-3.4752771854400635,295.83294677734375,0.0,0.0,31,False,29.82425308227539,1.5206059511698446,0.004318127162493617,-0.02056744694709778,45,19,0.045465487986803055,0,51,False,438,23827.34538818391,4.960287320617952,4803.6220703125,14.508669147777557,47,10569.823329506524,14.080769071674446,750.6566772460938,15.291218757629395,47,19375.380053499146,13.156556184995386,1472.6787109375,14.043794631958008,1.2567578554153442,0,1.2474241256713867,0.5455417633056641,0.7018823623657227,,,0,,,,NOT_AVAILABLE,130.58875565183175,1.9994260169101985,55.90499783354163,47.26477646335511,100001,4811.40673828125,4658.4765625,5029.35302734375,,,,,,,200111,2.496900796890259,2.285183906555176,2.663529872894287,3.010132074356079,2.718397617340088,3.3018665313720703,https://gea.esac.esa.int/data-server/datalink/links?ID=Gaia+DR2+514946723167754240,,0.0455892933800231,0.09443274033780637,,,13.101,12.805,12.67
1635721458409799680,Gaia DR2 514923152387235968,514923152387235968,1023458539,2015.5,30.433964616696528,0.025575744644326565,63.78661832897981,0.028585990603961914,0.6170651656050241,0.036332108396051485,22.477855682373047,-4.917781932030168,0.04947281407832994,-0.29999698169314837,0.059574002770565085,-0.41577208042144775,-0.04007786512374878,-0.4580383598804474,0.27597111463546753,0.11269737780094147,0.29223814606666565,-0.43657782673835754,0.18343345820903778,-0.12407989799976349,-0.5516003370285034,387,343,383,4,4.986389636993408,531.5099487304688,0.0,0.0,31,True,195.017822265625,1.6066928853975082,0.005137600083336351,-0.02177645079791546,44,18,0.04063723236322403,0,50,False,413,139196.18286645535,26.295017916333215,5293.63330078125,12.644223115253448,48,75389.65088774437,68.79875881189467,1095.799560546875,13.158108711242676,47,93741.92209932818,57.84130782058166,1620.67431640625,12.332085609436035,1.2150590419769287,0,0.8260231018066406,0.3288116455078125,0.4972114562988281,,,0,,,,NOT_AVAILABLE,130.60106619467584,1.9665274374520911,55.88277116609686,47.233058278480804,100001,5811.0,5680.0,5983.66650390625,,,,,,,200111,3.745014190673828,3.5319981575012207,3.9197516441345215,14.408048629760742,13.312076568603516,15.504020690917969,https://gea.esac.esa.int/data-server/datalink/links?ID=Gaia+DR2+514923152387235968,,0.046000557534162774,0.10000413901046046,--,12.974,11.696,11.535,11.449
1635721458409799680,Gaia DR2 517926640193881728,517926640193881728,1264876076,2015.5,30.278777545423875,0.051678366901776115,63.840944834418515,0.05245390411271442,0.7132953544811943,0.06991999216047894,13.972375869750977,-4.455752841685115,0.09718291233489373,-0.041258448193870534,0.10668091242776753,-0.27802276611328125,-0.09908821433782578,-0.5590238571166992,0.235263854265213,-0.07120686769485474,0.19885624945163727,-0.3582383692264557,0.1533711552619934,0.028833569958806038,-0.4010029733181,371,0,371,0,-0.5050843358039856,351.8542785644531,0.0,0.0,31,False,5.299480438232422,1.4414455780540043,0.009909026692695914,-0.07088125497102737,42,17,0.08635878562927246,0,48,False,422,4732.213249556854,2.3720183405340958,1995.0155029296875,16.2161365940094,44,1754.9605656037095,8.12765894289117,215.9244842529297,17.240718841552734,41,4392.935813167138,8.326552062856383,527.5816040039062,15.655033111572266,1.2991588115692139,0,1.5856857299804688,0.7400131225585938,0.845672607421875,,,0,,,,NOT_AVAILABLE,130.52049031144264,2.000535098510381,55.83621227183877,47.31456464873399,100001,4221.6748046875,4050.280029296875,4453.5,,,,,,,200111,1.3699755668640137,1.2310606241226196,1.4883745908737183,0.5371053218841553,0.4528905153274536,0.6213201284408569,https://gea.esac.esa.int/data-server/datalink/links?ID=Gaia+DR2+517926640193881728,,0.04702434102469328,0.06896777649951455,,,14.533,14.008,13.954
1635721458409799680,Gaia DR2 517925334523901440,517925334523901440,805881132,2015.5,30.22884164666991,0.04108921760751152,63.786422198333526,0.04239538892967592,0.628276544012783,0.05522790665711045,19.578575134277344,-4.97867104925407,0.08057895212340178,0.03445119267661374,0.08684308880011066,-0.27971282601356506,-0.026718812063336372,-0.4973140358924866,0.20714685320854187,-0.07899298518896103,0.17777776718139648,-0.3764421343803406,0.1441478729248047,0.0018104992341250181,-0.4390074908733368,374,0,373,1,-2.587825298309326,301.57977294921875,0.0,0.0,31,False,13.381343841552734,1.5132973236912022,0.0063081485147460795,-0.04310576617717743,43,18,0.06271598488092422,0,49,False,412,11061.070109659766,3.913593067941288,2826.321044921875,15.319285231018066,46,4772.46973566284,8.11669043949427,587.9822387695312,16.154529571533203,45,9220.854508826433,9.806718720525627,940.2589111328125,14.849991798400879,1.2650967836380005,0,1.3045377731323242,0.5756568908691406,0.7288808822631836,,,0,,,,NOT_AVAILABLE,130.5137600666984,1.9421135884862473,55.76746903350503,47.27872167400522,100001,4823.9248046875,4591.7451171875,5064.66650390625,,,,,,,200111,1.616855263710022,1.4667986631393433,1.7845004796981812,1.2753785848617554,1.1198160648345947,1.430941104888916,https://gea.esac.esa.int/data-server/datalink/links?ID=Gaia+DR2+517925334523901440,,0.04910193090639771,0.10715459991611932,,,13.934,13.579,13.465
1635721458409799680,Gaia DR2 517926090438128768,517926090438128768,1004696449,2015.5,30.22003633026281,0.036431304164354354,63.79922585165231,0.037409873589170785,0.4307301578013891,0.047495783609821075,23.062807083129883,-4.341842426050004,0.07113978708950026,0.039113986663786876,0.07468914446441523,-0.4661383032798767,0.1416444182395935,-0.6021109223365784,0.3706738352775574,-0.21422944962978363,0.3538168668746948,-0.5576571226119995,0.001659827888943255,0.12819945812225342,-0.49510425329208374,351,9,348,3,-0.7717273831367493,322.5413513183594,0.0,0.0,31,False,114.72724151611328,1.3971857056451662,0.0035290518572228162,-0.04738582670688629,40,18,0.04642998054623604,0,46,False,401,86846.6335272812,15.613781354049772,5562.17822265625,13.14252892370224,44,25938.5639230344,44.02925908781775,589.1210327148438,14.316523551940918,43,90721.15686126056,62.273292459567884,1456.8228759765625,12.367648124694824,1.3432843685150146,0,1.9488754272460938,0.9750404357910156,0.9738349914550781,-76.11295936017814,0.7994361428173337,13,5500.0,3.5,0.0,NOT_AVAILABLE,130.50660428403893,1.9534232561803182,55.77209026619867,47.29173042593628,100001,3801.1552734375,3734.5,4112.78369140625,1.5694999694824219,1.3025000095367432,2.043299913406372,0.7493000030517578,0.6430000066757202,1.0470999479293823,200111,13.686806678771973,11.691267967224121,14.179744720458984,35.23395538330078,31.04796028137207,39.41994857788086,https://gea.esac.esa.int/data-server/datalink/links?ID=Gaia+DR2+517926090438128768,,0.050796129192121835,0.11497735847461983,--,14.022,10.875,10.158,9.981
1635721458409799680,Gaia DR2 517926743273086976,517926743273086976,613387945,2015.5,30.29018766654595,0.03879050192265743,63.84970548496551,0.039314830824806246,0.6275994856810035,0.0511074614603549,24.53871726989746,-4.887521383103608,0.07493092465369657,-0.09768643648091234,0.07909491407886671,-0.3165862560272217,-0.1262674480676651,-0.5892295837402344,0.24329873919487,-0.0057299379259347916,0.23506924510002136,-0.42811867594718933,0.16037338972091675,0.01809203065931797,-0.3978387713432312,370,0,369,1,-3.519951105117798,276.4917297363281,0.0,0.0,31,False,25.263551712036133,1.5278046948752848,0.004961345990286392,-0.06454440951347351,42,17,0.05160175636410713,0,48,False,420,20130.90251385688,5.353222934723219,3760.52001953125,14.686740087604523,47,9068.637695563737,15.47550137764567,585.9996337890625,15.45753288269043,47,16203.373179513212,13.810975832187049,1173.224365234375,14.237906455993652,1.255383849143982,0,1.2196264266967773,0.5288248062133789,0.6908016204833984,,,0,,,,NOT_AVAILABLE,130.52300298497715,2.01031975082408,55.84915577857724,47.31956922813378,100001,4851.6298828125,4773.83642578125,4971.2099609375,,,,,,,200111,2.150761127471924,2.048534631729126,2.2214291095733643,2.3090310096740723,2.071133613586426,2.5469284057617188,https://gea.esac.esa.int/data-server/datalink/links?ID=Gaia+DR2+517926743273086976,,0.05256755183584763,0.06618435989962042,--,15.279,13.272,13.088,12.883
1635721458409799680,Gaia DR2 517926193517322496,517926193517322496,11868089,2015.5,30.217450299400316,0.03953139163913976,63.81486401806418,0.04064230512002567,0.6365160556127573,0.052812450496992736,22.419885635375977,-4.999302914582814,0.07691257794786219,-0.1420360437322064,0.08236185628548975,-0.28584715723991394,-0.04003152251243591,-0.5356239676475525,0.21208195388317108,-0.060947876423597336,0.19247137010097504,-0.4090576171875,0.12131739407777786,0.03466026857495308,-0.42745962738990784,388,0,385,3,-4.7412333488464355,263.1844482421875,0.0,0.0,31,False,17.684059143066406,1.5122164696246225,0.005429171693427648,-0.043740108609199524,44,18,0.05624022334814072,0,50,False,439,14428.788621077794,4.343695047628361,3321.777587890625,15.038523950958252,49,6254.678701166793,14.510775511376506,431.0368347167969,15.860876083374023,47,11979.104730029097,12.977282254173927,923.0827026367188,14.565858840942383,1.2637085914611816,0,1.2950172424316406,0.5705852508544922,0.7244319915771484,,,0,,,,NOT_AVAILABLE,130.50134579603449,1.9681960643704162,55.78232652419981,47.30578973239127,100001,4915.7548828125,4757.33251953125,5075.0,,,,,,,200111,1.7347561120986938,1.6275966167449951,1.8522169589996338,1.5831879377365112,1.4094895124435425,1.75688636302948,https://gea.esac.esa.int/data-server/datalink/links?ID=Gaia+DR2+517926193517322496,,0.053712752460589076,0.11836445035549924,--,15.571,13.653,13.299,13.189
1635721458409799680,Gaia DR2 517949145823743488,517949145823743488,279501594,2015.5,30.416447987119433,0.03691915916720607,63.84216802970591,0.03696676720559937,0.6671761577549028,0.04877438152208116,31.300466537475586,-4.83809007975746,0.07253965180871708,-0.20952162370728797,0.07478337738063762,-0.20363745093345642,-0.09930429607629776,-0.5198314189910889,0.09308961033821106,0.09430152177810669,0.09796132147312164,-0.3217616379261017,0.13048993051052094,0.045646291226148605,-0.3273907005786896,376,0,373,3,-5.660658836364746,234.30796813964844,0.0,0.0,31,False,39.00770568847656,1.5618600728170426,0.00406569901025173,-0.08126343041658401,43,18,0.04235398769378662,0,50,False,424,30719.10843387376,6.092744067665511,5041.9169921875,14.240311095714569,47,15082.874437231074,20.13201710467279,749.1983642578125,14.90517807006836,44,22834.59981472486,14.699726985534708,1553.4029541015625,13.865436553955078,1.2343286275863647,0,1.0397415161132812,0.4353342056274414,0.6044073104858398,,,0,,,,NOT_AVAILABLE,130.57867774764162,2.0179558479814705,55.914308908777926,47.28489820452049,100001,5133.72021484375,4964.0,5448.43994140625,1.7109999656677246,1.3040000200271606,1.997499942779541,0.8349999785423279,0.6236000061035156,1.027999997138977,200111,2.164266586303711,1.9214575290679932,2.3147900104522705,2.931196689605713,2.6816656589508057,3.18072772026062,https://gea.esac.esa.int/data-server/datalink/links?ID=Gaia+DR2+517949145823743488,,0.054638721738119664,0.09126106111411213,--,14.662,12.884,12.859,12.609
1635721458409799680,Gaia DR2 517926605834142208,517926605834142208,1463230301,2015.5,30.25317801094432,0.06425964653963845,63.843091739015364,0.06540555249407265,0.41488255267960633,0.08715772816674017,5.910314559936523,-4.553379740701759,0.11725110734097395,0.09842137156735187,0.13221506671387595,-0.28547269105911255,-0.10351678729057312,-0.5750178098678589,0.2543489933013916,-0.06855365633964539,0.22194303572177887,-0.36381685733795166,0.1259675770998001,0.04817274585366249,-0.3935798704624176,382,0,380,2,1.4831397533416748,416.3863220214844,0.0,0.0,31,False,2.714999198913574,1.4514770406321496,0.013563565382767798,-0.07197792083024979,43,17,0.11387824267148972,0,49,False,432,2668.590338121335,1.8133102416928963,1471.6678466796875,16.821237461471558,43,1015.8495043897981,8.15370184663647,124.5875244140625,17.834314346313477,46,2450.641777905832,6.549222481106961,374.1882019042969,16.288721084594727,1.298997163772583,0,1.54559326171875,0.7116527557373047,0.8339405059814453,,,0,,,,NOT_AVAILABLE,130.50903373038503,1.999597947171679,55.82346608772911,47.32213469856157,,,,,,,,,,,,,,,,,,https://gea.esac.esa.int/data-server/datalink/links?ID=Gaia+DR2+517926605834142208,,0.0554556234407073,0.09201387061940776,,,15.175,14.638,14.47
1635721458409799680,Gaia DR2 514922563968928384,514922563968928384,664735944,2015.5,30.334720984651064,0.05374827983837948,63.74307588608939,0.05652994180525397,0.6673349192370234,0.06959401815359978,13.170976638793945,-4.791460991239733,0.10222815344495494,-0.2046176320675792,0.11681535550335814,-0.49568212032318115,-0.024602320045232773,-0.562860369682312,0.4061170518398285,-0.0031969700939953327,0.39421510696411133,-0.5013284087181091,0.13486427068710327,-0.01441973727196455,-0.5843979120254517,388,0,386,2,-0.3071410655975342,371.9278869628906,0.0,0.0,31,False,4.938894748687744,1.4727011091565207,0.010326431644198225,-0.05927272140979767,44,17,0.10526097565889359,0,50,False,438,4336.798209001088,3.4310245718034404,1263.9951171875,16.308305344963074,45,1624.7036894850212,9.435132406153919,172.19723510742188,17.324453353881836,47,3973.5222016008815,10.363648340731443,383.40960693359375,15.763980865478516,1.2908661365509033,0,1.5604724884033203,0.7290115356445312,0.8314609527587891,,,0,,,,NOT_AVAILABLE,130.57045979162436,1.912815685115111,55.7946271795387,47.21765025856428,100001,4332.0,4028.740234375,4420.5,,,,,,,200111,1.2943569421768188,1.2430487871170044,1.4965541362762451,0.5315653085708618,0.44305166602134705,0.6200789213180542,https://gea.esac.esa.int/data-server/datalink/links?ID=Gaia+DR2+514922563968928384,,0.05792365315661275,0.05792478590287691,,,14.741,14.238,13.978
1635721458409799680,Gaia DR2 517924952264874752,517924952264874752,1659003024,2015.5,30.321578130931353,0.050328532334776625,63.74293474067188,0.052670396552325555,0.599038911999364,0.06963882991868073,11.810741424560547,-4.457807329590559,0.0971835169273794,-0.09240005500764159,0.10679955342823957,-0.4022269546985626,-0.06881867349147797,-0.4812162220478058,0.31658920645713806,0.05527621880173683,0.2894395589828491,-0.31226032972335815,0.16632907092571259,0.013044667430222034,-0.531322717666626,405,0,404,1,0.7598357200622559,420.1612854003906,0.0,0.0,31,False,4.960252285003662,1.4814987513736382,0.009962343963749898,-0.0728200376033783,46,17,0.08974938839673996,0,52,False,451,4455.795666210528,2.287716892278473,1947.7041015625,16.2797133436203,47,1837.5258205035113,7.949396285861102,231.1528778076172,17.190805435180664,47,3855.8145843423804,7.971134807870342,483.72216796875,15.796629905700684,1.2777382135391235,0,1.3941755294799805,0.6247520446777344,0.7694234848022461,,,0,,,,NOT_AVAILABLE,130.56489162701104,1.9111254399448159,55.787135810046586,47.22046769301378,100001,4644.35498046875,4488.6201171875,4902.0,,,,,,,200111,1.1932851076126099,1.0711452960968018,1.277524709701538,0.596876859664917,0.4860587418079376,0.7076950073242188,https://gea.esac.esa.int/data-server/datalink/links?ID=Gaia+DR2+517924952264874752,,0.058367685146948685,0.05959631624637755,,,14.762,14.382,14.329
1635721458409799680,Gaia DR2 517926640193869440,517926640193869440,643902811,2015.5,30.27214139985314,0.03682513094156103,63.853104672830604,0.037292352146314774,0.8036479294461896,0.04836008622525114,39.22161102294922,-4.809437830256271,0.0718034041600983,-0.3297592463421911,0.07527031458220587,-0.25128382444381714,-0.052151840180158615,-0.590789794921875,0.20709192752838135,-0.01598970592021942,0.2010432332754135,-0.4826885163784027,0.146887868642807,-0.0003302764380350709,-0.3528476357460022,363,0,362,1,1.7594552040100098,405.3819580078125,0.05273801356194857,0.709798223624703,31,False,51.846717834472656,1.573702083813938,0.003973250652857423,-0.10069892555475235,41,17,0.04462730139493942,0,47,False,414,47967.627105579515,9.873904502272016,4858.02001953125,13.76957482023239,47,23071.256278796387,31.278568139118754,737.6058959960938,14.443710327148438,44,36421.83163511955,22.476396847472714,1620.447998046875,13.358515739440918,1.2402758598327637,0,1.0851945877075195,0.4577150344848633,0.6274795532226562,,,0,,,,NOT_AVAILABLE,130.5144262849193,2.0114753904645646,55.84158239740205,47.326529803598675,100001,5006.6298828125,4943.4501953125,5183.14697265625,,,,,,,200111,2.3902463912963867,2.2302143573760986,2.4517338275909424,3.234163761138916,3.011763334274292,3.45656418800354,https://gea.esac.esa.int/data-server/datalink/links?ID=Gaia+DR2+517926640193869440,,0.0590265737904841,0.08164619123515161,--,14.241,12.529,12.264,12.162
1635721458409799680,Gaia DR2 517926056078406272,517926056078406272,957562912,2015.5,30.193265774033026,0.06915033621843017,63.78870799016433,0.07249716046002189,0.692880586841285,0.09322128251496486,9.047232627868652,-4.042839099483519,0.13086402660552365,-0.11759809341372046,0.14909342266389736,-0.1895648092031479,-0.037198010832071304,-0.5392312407493591,0.13197802007198334,-0.0999615490436554,0.10008078813552856,-0.38554975390434265,0.1364469677209854,0.02530035935342312,-0.3482852578163147,362,0,359,3,-0.5086472034454346,339.9881591796875,0.0,0.0,31,False,2.2405166625976562,1.451769227068059,0.015062269880283382,-0.05363182723522186,41,17,0.12778592109680176,0,49,False,412,2262.0647452746894,1.5381998489267448,1470.59228515625,16.99581605014801,48,825.0910060847186,7.381560566013024,111.77731323242188,18.06013298034668,47,2145.293228399028,6.101959637283963,351.574462890625,16.433202743530273,1.3131296634674072,0,1.6269302368164062,0.7580299377441406,0.8689002990722656,,,0,,,,NOT_AVAILABLE,130.49799437432733,1.9401440465992763,55.7492065014178,47.28865496451799,,,,,,,,,,,,,,,,,,https://gea.esac.esa.int/data-server/datalink/links?ID=Gaia+DR2+517926056078406272,,0.06379149305129565,0.14226624447231875,,,15.297,14.721,14.587
1635721458409799680,Gaia DR2 517923822695441792,517923822695441792,607846117,2015.5,30.209465770416685,0.03616693557702883,63.768135539490984,0.03688797413899089,0.6558032566399032,0.04797469366775711,33.29307174682617,-4.796008911457561,0.07121723038735224,-0.37883806889749005,0.07448658481907688,-0.32840991020202637,-0.009323402307927608,-0.4913882911205292,0.24823759496212006,0.028777867555618286,0.2433697134256363,-0.4156681001186371,0.05568517744541168,-0.019574493169784546,-0.4617074728012085,403,0,403,0,-7.315546989440918,224.7695770263672,0.0,0.0,31,False,44.742225646972656,1.565399962989209,0.003801488231964184,-0.08071412146091461,46,18,0.04384860768914223,0,50,False,436,34950.09656627669,6.597845598613243,5297.1982421875,14.10400826740265,50,17595.736026521598,20.968505213542226,839.1506958007812,14.737869262695312,47,25333.057549944326,22.295190259742583,1136.256591796875,13.752700805664062,1.2282882928848267,0,0.98516845703125,0.4081249237060547,0.5770435333251953,,,0,,,,NOT_AVAILABLE,130.51036309686012,1.922209465016625,55.74293665062986,47.26729222705117,100001,5276.0,5116.1748046875,5369.0,,,,,,,200111,2.1981170177459717,2.122626543045044,2.337596893310547,3.372993230819702,3.096344470977783,3.649641990661621,https://gea.esac.esa.int/data-server/datalink/links?ID=Gaia+DR2+517923822695441792,,0.06446812117715446,0.12976484717220396,--,13.57,13.044,12.803,12.682
1635721458409799680,Gaia DR2 514922602631437440,514922602631437440,1562093468,2015.5,30.39864008721281,0.02762534806083226,63.74059427520755,0.02776927527110513,0.6403761169273366,0.035719759284046124,23.935436248779297,-4.972739237368802,0.05209489469916552,-0.1222540410572805,0.05829970688032518,-0.3963688313961029,-0.11436343938112259,-0.6160522699356079,0.36859917640686035,0.05547395348548889,0.34316152334213257,-0.40072324872016907,0.19339458644390106,-0.08207118511199951,-0.4513069987297058,380,344,379,1,5.20124626159668,534.2034912109375,0.0,0.0,31,False,201.97752380371094,1.63619445752319,0.005340490657264405,-0.0483877994120121,43,18,0.04056443274021149,0,53,True,395,145558.8778373617,27.791613103740474,5237.5107421875,12.597010498809814,46,81544.29345698007,85.79768353950732,950.4253540039062,13.072904586791992,47,94283.7468562001,98.47769977067931,957.4121704101562,12.325827598571777,1.207951307296753,0,0.7470769882202148,0.29213523864746094,0.4549417495727539,,,0,,,,NOT_AVAILABLE,130.59838549986011,1.9180001405033276,55.828706337992635,47.20122165330962,100001,5981.04052734375,5501.21044921875,6540.41357421875,,,,,,,200111,3.469172477722168,2.901141881942749,4.100746154785156,13.875655174255371,12.881227493286133,14.87008285522461,https://gea.esac.esa.int/data-server/datalink/links?ID=Gaia+DR2+514922602631437440,,0.06662895168370979,0.08774344584158818,--,12.909,11.754,11.602,11.528
1635721458409799680,Gaia DR2 517923547817567360,517923547817567360,1549732292,2015.5,30.280520001243573,0.04053684680328926,63.73853870437175,0.04040049659808033,0.6237229766440118,0.05266188315980039,22.15721321105957,-4.864089064703189,0.0798799986033657,-0.057841709053140455,0.08241321032370247,-0.33242323994636536,-0.05817899852991104,-0.5466061234474182,0.25296109914779663,0.0062647112645208836,0.2191615253686905,-0.3599488139152527,0.18306641280651093,0.0011691417312249541,-0.4827950894832611,397,0,395,2,-1.1293226480484009,358.6715087890625,0.0,0.0,31,False,15.374388694763184,1.5336601747302603,0.005834893817443142,-0.0690673291683197,46,18,0.06003936380147934,0,54,False,446,12659.072156564207,3.945622114308359,3208.38427734375,15.176743675518036,47,5704.402822575816,8.36066342460284,682.2907104492188,15.96086311340332,49,10185.233217682791,11.0520451876247,921.5700073242188,14.741992950439453,1.255197525024414,0,1.2188701629638672,0.5285024642944336,0.6903676986694336,,,0,,,,NOT_AVAILABLE,130.54854941220657,1.9020403900709328,55.760786931328525,47.22586123154247,100001,4860.6572265625,4830.5146484375,4993.1572265625,1.6410000324249268,1.1950000524520874,1.910599946975708,0.8105000257492065,0.6053000092506409,0.963699996471405,200111,1.7077587842941284,1.6183260679244995,1.7291382551193237,1.4666543006896973,1.303481101989746,1.6298274993896484,https://gea.esac.esa.int/data-server/datalink/links?ID=Gaia+DR2+517923547817567360,,0.06694425321791792,0.08288234863986661,--,15.74,13.886,13.592,13.529
1635721458409799680,Gaia DR2 514922946228809600,514922946228809600,501556246,2015.5,30.47029451225931,0.03970000826833263,63.769529932279305,0.041566335894528995,0.6660177071195079,0.05522656241342766,20.755962371826172,-4.970977520875568,0.07870594332573694,-0.15098794120782238,0.08631766056819318,-0.41658642888069153,-0.09526616334915161,-0.4401777684688568,0.30752506852149963,0.04850589111447334,0.280872106552124,-0.3345010578632355,0.168953999876976,-0.13253620266914368,-0.5795326828956604,380,0,379,1,-3.5757358074188232,283.92620849609375,0.0,0.0,31,False,16.684619903564453,1.5289844131333392,0.005752928016795132,-0.01279786229133606,44,17,0.06317424774169922,0,50,False,427,13523.713050139891,4.006204801489153,3375.69189453125,15.10695325012207,44,6000.770267451821,10.919701409907194,549.5361328125,15.90587043762207,43,10944.282699006939,9.739860581882112,1123.6590576171875,14.663951873779297,1.2529882192611694,0,1.2419185638427734,0.5452442169189453,0.6966743469238281,,,0,,,,NOT_AVAILABLE,130.6211373143949,1.9543902083470157,55.89046929333085,47.21020317680992,100001,4965.9599609375,4800.66650390625,5202.0,1.371000051498413,0.8935999870300293,1.9896999597549438,0.6759999990463257,0.4408999979496002,0.9539999961853027,200111,1.5635889768600464,1.424912929534912,1.673115611076355,1.3395310640335083,1.1854097843170166,1.49365234375,https://gea.esac.esa.int/data-server/datalink/links?ID=Gaia+DR2+514922946228809600,,0.06753620780800858,0.13890633610397332,--,15.76,13.771,13.4,13.319
1635721458409799680,Gaia DR2 517949489420994688,517949489420994688,607722310,2015.5,30.34562248166729,0.037570300920570884,63.87545412616086,0.03748704756506411,0.6326980253142177,0.04976938928579267,27.267362594604492,-4.926695327302076,0.07341578232422312,-0.16392967765471056,0.07604067021638333,-0.20329438149929047,-0.014025491662323475,-0.4537096917629242,0.09024570882320404,0.03591611236333847,0.0829119011759758,-0.27503442764282227,0.08708874136209488,0.07515384256839752,-0.34691354632377625,389,0,389,0,-5.56839656829834,248.93272399902344,0.0,0.0,31,False,26.241479873657227,1.5452426616549817,0.004614667255892366,-0.12317532300949097,44,18,0.0442805290222168,0,51,False,444,20985.76340392577,4.996034394770139,4200.484375,14.64280920495987,49,9807.65664596689,15.147102180111363,647.493896484375,15.372474670410156,48,16249.523171866287,11.998586155093442,1354.2864990234375,14.234818458557129,1.2416598796844482,1,1.1376562118530273,0.4889211654663086,0.6487350463867188,,,0,,,,NOT_AVAILABLE,130.53966671054076,2.041656921136989,55.89946041185469,47.32939901566958,100002,4946.103515625,4866.31005859375,5392.7646484375,,,,,,,200111,2.071539878845215,1.7425962686538696,2.140031576156616,2.3138444423675537,2.093358278274536,2.5343306064605713,https://gea.esac.esa.int/data-server/datalink/links?ID=Gaia+DR2+517949489420994688,,0.07460138191440659,0.07520807150265867,--,15.172,13.43,13.126,13.077
1635721458409799680,Gaia DR2 517923444738373120,517923444738373120,1593225490,2015.5,30.28076146772946,0.04101022763136425,63.72094569913292,0.04296532081902533,0.6095137392904745,0.055940846683111146,18.396621704101562,-4.937339985356635,0.07846573896355587,-0.22582403974354737,0.08594190834237789,-0.3617582619190216,-0.03327718377113342,-0.49401015043258667,0.3025798499584198,-0.02714478224515915,0.29036056995391846,-0.36414769291877747,0.011237278580665588,0.15931296348571777,-0.4531921446323395,419,0,418,1,-2.49718976020813,344.7159423828125,0.0,0.0,31,False,11.490860939025879,1.5243661652756477,0.006505322156828134,-0.09856866300106049,48,18,0.06092880666255951,0,54,False,470,9690.182524414577,3.6100023768432408,2684.25927734375,15.459055359077453,47,4277.194025291938,11.504972465650246,371.7691650390625,16.27349090576172,47,7932.134055930087,11.342126612640582,699.3515625,15.013444900512695,1.259968876838684,0,1.2600460052490234,0.5509548187255859,0.7090911865234375,,,0,,,,NOT_AVAILABLE,130.55334536722413,1.8851126263401519,55.747822713030395,47.21063000498749,100001,4813.93701171875,4725.0,4996.8427734375,,,,,,,200111,1.5685526132583618,1.4558228254318237,1.6281570196151733,1.1904042959213257,1.0369937419891357,1.3438148498535156,https://gea.esac.esa.int/data-server/datalink/links?ID=Gaia+DR2+517923444738373120,,0.08357043252824645,0.09669803240076844,,,14.16,13.804,13.608
1635721458409799680,Gaia DR2 514922396473475456,514922396473475456,7635091,2015.5,30.411088048104638,0.039987310858073756,63.72261029870142,0.04239342178577239,0.7043744238850129,0.05493907274855075,22.246620178222656,-4.790954892333328,0.07718024356506299,-0.23998797916453837,0.08674128895603936,-0.4692932367324829,-0.07835423946380615,-0.4836871325969696,0.3527447283267975,0.10609462857246399,0.34231364727020264,-0.3892032206058502,0.07225744426250458,-0.031017567962408066,-0.5299343466758728,377,0,377,0,-2.2891786098480225,312.3941650390625,0.0,0.0,31,False,16.749998092651367,1.5324469916344403,0.006011466286716686,-0.07169770449399948,43,17,0.06277482211589813,0,50,False,428,13505.027103952427,3.6711201972130345,3678.720947265625,15.108413654136658,45,6205.49380557551,11.757847141662142,527.774658203125,15.869447708129883,41,10678.677484941281,18.923322440875456,564.3130493164062,14.69062614440918,1.250213861465454,0,1.1788215637207031,0.5073204040527344,0.6715011596679688,,,0,,,,NOT_AVAILABLE,130.6085258215164,1.9021551870527902,55.822343579513145,47.1829164770962,100001,4886.0,4749.0,4919.75,0.7416999936103821,0.26930001378059387,1.399999976158142,0.36169999837875366,0.1476999968290329,0.7006000280380249,200111,1.540780782699585,1.5197135210037231,1.630960464477539,1.21896231174469,1.0877058506011963,1.3502187728881836,https://gea.esac.esa.int/data-server/datalink/links?ID=Gaia+DR2+514922396473475456,,0.08529866813752639,0.10924438811240911,,,13.895,13.588,13.441
1635721458409799680,Gaia DR2 517923616537071360,517923616537071360,574167850,2015.5,30.22309014048049,0.04056740699568648,63.71912345640984,0.04255358926217841,0.5518301079793062,0.05451288754161167,17.78713607788086,-5.841747815744062,0.07789869142508754,-0.387050722005996,0.08563293816133705,-0.367794394493103,-0.025365276262164116,-0.509823739528656,0.3187834620475769,0.06585105508565903,0.30381205677986145,-0.4024697542190552,0.028474872931838036,0.055289220064878464,-0.46893516182899475,412,0,409,3,-3.647611141204834,308.3753662109375,0.0,0.0,31,False,12.57179069519043,1.5021975529893468,0.006348719827133188,-0.09855823218822479,47,18,0.06141630560159683,0,54,False,448,10507.798686191276,3.8882079281016595,2702.478515625,15.373489044570922,45,4425.0764327680345,13.113673909192507,337.43988037109375,16.23658561706543,47,8906.48026452158,13.294508075197147,669.9368286132812,14.887654304504395,1.2687296867370605,0,1.3489313125610352,0.6019992828369141,0.7469320297241211,,,0,,,,NOT_AVAILABLE,130.52920412777323,1.876559517540064,55.71403754082949,47.221975365985266,100001,4754.650390625,4609.080078125,5005.0,,,,,,,200111,1.8651223182678223,1.6832023859024048,1.9847965240478516,1.6017093658447266,1.3849663734436035,1.8184523582458496,https://gea.esac.esa.int/data-server/datalink/links?ID=Gaia+DR2+517923616537071360,,0.09566939923660535,0.13866356784659895,,,13.949,13.479,13.43
1635721458409799680,Gaia DR2 514920884644443136,514920884644443136,75998042,2015.5,30.266661011048246,0.05942616624159308,63.681661916505384,0.061841492056582514,0.6557483343576707,0.08235667690963165,10.08272647857666,-4.74420081161016,0.11218462324055745,-0.3926450832908857,0.12568542980689454,-0.4196907579898834,0.0016931205755099654,-0.4378148019313812,0.30507394671440125,-0.04847308620810509,0.2859366834163666,-0.33931154012680054,0.043020881712436676,0.08990563452243805,-0.5240323543548584,426,0,426,0,0.9551894068717957,448.6337585449219,0.0,3.91790716091451e-15,31,False,2.803823709487915,1.4706938569394299,0.012934904045885522,-0.09175611287355423,49,18,0.11060969531536102,0,54,False,458,2754.9057508276937,1.879333751866234,1465.8948974609375,16.78761105594635,50,1084.1406592092565,7.333532632476948,147.83334350585938,17.763673782348633,47,2461.6904159229534,7.729238482416279,318.4906921386719,16.283836364746094,1.2870970964431763,0,1.479837417602539,0.6755752563476562,0.8042621612548828,,,0,,,,NOT_AVAILABLE,130.5577953571861,1.8455846379325969,55.71066247508521,47.17989471744337,,,,,,,,,,,,,,,,,,https://gea.esac.esa.int/data-server/datalink/links?ID=Gaia+DR2+514920884644443136,,0.12311000122042921,0.1375201642782489,,,15.313,14.853,14.671
1635721458409799680,Gaia DR2 517950692011827712,517950692011827712,628461667,2015.5,30.309982157785548,0.04741620005660557,63.939075103627474,0.047688370636662716,0.6859317776144334,0.06602352554610301,14.786271095275879,-4.794305787246273,0.08759150916222896,0.16577341467723158,0.09474909489418434,-0.2636204659938812,0.050941407680511475,-0.5009240508079529,0.19920961558818817,-0.17136219143867493,0.1562821865081787,-0.2798965573310852,0.04671191796660423,0.1597040891647339,-0.34935107827186584,379,0,378,1,-0.3070317208766937,364.0204162597656,0.0,0.0,31,False,6.840663909912109,1.4893023358745656,0.00902790419648934,-0.0850236713886261,43,18,0.06956198811531067,0,47,False,408,6123.446522161605,3.336521852743669,1835.2784423828125,15.943890935325623,42,2495.975851588814,12.876898075405544,193.83363342285156,16.858287811279297,44,5326.94432982106,10.325781407282467,515.8877563476562,15.445724487304688,1.2775354385375977,0,1.4125633239746094,0.6374111175537109,0.7751522064208984,,,0,,,,NOT_AVAILABLE,130.50753295014772,2.09877188622729,55.92711806766357,47.39218723361267,100001,4465.4052734375,4417.25,4752.77783203125,,,,,,,200111,1.3668019771575928,1.2065138816833496,1.396765112876892,0.6691899299621582,0.5685938596725464,0.76978600025177,https://gea.esac.esa.int/data-server/datalink/links?ID=Gaia+DR2+517950692011827712,,0.13851527361582913,0.14032329340064786,--,16.458,14.416,13.893,13.841
