solution_id,designation,source_id,random_index,ref_epoch,ra,ra_error,dec,dec_error,parallax,parallax_error,parallax_over_error,pmra,pmra_error,pmdec,pmdec_error,ra_dec_corr,ra_parallax_corr,ra_pmra_corr,ra_pmdec_corr,dec_parallax_corr,dec_pmra_corr,dec_pmdec_corr,parallax_pmra_corr,parallax_pmdec_corr,pmra_pmdec_corr,astrometric_n_obs_al,astrometric_n_obs_ac,astrometric_n_good_obs_al,astrometric_n_bad_obs_al,astrometric_gof_al,astrometric_chi2_al,astrometric_excess_noise,astrometric_excess_noise_sig,astrometric_params_solved,astrometric_primary_flag,astrometric_weight_al,astrometric_pseudo_colour,astrometric_pseudo_colour_error,mean_varpi_factor_al,astrometric_matched_observations,visibility_periods_used,astrometric_sigma5d_max,frame_rotator_object_type,matched_observations,duplicated_source,phot_g_n_obs,phot_g_mean_flux,phot_g_mean_flux_error,phot_g_mean_flux_over_error,phot_g_mean_mag,phot_bp_n_obs,phot_bp_mean_flux,phot_bp_mean_flux_error,phot_bp_mean_flux_over_error,phot_bp_mean_mag,phot_rp_n_obs,phot_rp_mean_flux,phot_rp_mean_flux_error,phot_rp_mean_flux_over_error,phot_rp_mean_mag,phot_bp_rp_excess_factor,phot_proc_mode,bp_rp,bp_g,g_rp,radial_velocity,radial_velocity_error,rv_nb_transits,rv_template_teff,rv_template_logg,rv_template_fe_h,phot_variable_flag,l,b,ecl_lon,ecl_lat,priam_flags,teff_val,teff_percentile_lower,teff_percentile_upper,a_g_val,a_g_percentile_lower,a_g_percentile_upper,e_bp_min_rp_val,e_bp_min_rp_percentile_lower,e_bp_min_rp_percentile_upper,flame_flags,radius_val,radius_percentile_lower,radius_percentile_upper,lum_val,lum_percentile_lower,lum_percentile_upper,datalink_url,epoch_photometry_url,dist,radius,B,V,J,H,K
1635721458409799680,Gaia DR2 182496394522552832,182496394522552832,1506722913,2015.5,81.3051879705433,0.06577877902885429,33.70165520304214,0.05788351680798017,0.638404395320448,0.07487038148079499,11.249252319335938,-0.504168170051524,0.13904075989872297,-7.4032291603627955,0.1076204840260662,-0.07928870618343353,0.09082886576652527,-0.11538110673427582,0.3155202269554138,-0.30634498596191406,0.3358968496322632,-0.20924387872219086,-0.012451632879674435,0.24683430790901184,-0.09712553024291992,162,0,161,1,0.5018361806869507,164.34194946289062,0.0,0.0,31,False,7.271279811859131,1.5022172815933375,0.011387306955169454,-0.0517682284116745,18,11,0.10964403301477432,0,18,False,160,6633.379347595854,7.824977603892566,847.7186279296875,15.859397192001342,10,2847.0878321047567,37.706859257423055,75.5058364868164,16.71538543701172,10,5616.108232247548,20.748939245235423,270.6696472167969,15.388331413269043,1.2758498191833496,0,1.3270540237426758,0.5813560485839844,0.7456979751586914,,,0,,,,NOT_AVAILABLE,173.6373577388724,-1.0889514686865644,82.65173562188303,10.483898131802027,100001,4842.81982421875,4614.97021484375,5034.0,1.2079999446868896,0.7932999730110168,1.4737999439239502,0.6050000190734863,0.3779999911785126,0.7549999952316284,200111,1.2195453643798828,1.1286730766296387,1.3429405689239502,0.7370278835296631,0.595507800579071,0.8785479664802551,https://gea.esac.esa.int/data-server/datalink/links?ID=Gaia+DR2+182496394522552832,,0.015261561741304771,0.01592191671062008,13.772,13.225,14.296,13.853,13.759
1635721458409799680,Gaia DR2 182495638608311296,182495638608311296,1556851813,2015.5,81.31615825690153,0.05877360457178123,33.6872598886326,0.05171447165028422,0.8022885808480644,0.06740388677286605,16.692934036254883,-1.2176890306772923,0.12384055830449164,-6.7159096590642875,0.1002357677026824,-0.11768292635679245,0.11746226251125336,-0.22980573773384094,0.17598719894886017,-0.272038996219635,0.1686181128025055,-0.41243094205856323,-0.002834892366081476,0.25458836555480957,-0.13589917123317719,170,0,168,2,-1.1686846017837524,142.18679809570312,0.0,0.0,31,False,9.759364128112793,1.54342875226743,0.009761244563269775,-0.06613136827945709,19,11,0.09645149111747742,0,19,False,168,8744.272446347777,5.686509599621903,1537.7222900390625,15.567553913497925,17,4109.804937550324,23.644199281165317,173.81874084472656,16.316835403442383,15,6658.698000899625,23.382247628879792,284.7757873535156,15.203446388244629,1.2314921617507935,0,1.113389015197754,0.48277854919433594,0.630610466003418,,,0,,,,NOT_AVAILABLE,173.65439804497834,-1.0894679349020786,82.66010570813307,10.468971919672867,100001,4974.72021484375,4789.41357421875,5108.16357421875,0.5246999859809875,0.3970000147819519,0.6754999756813049,0.2549999952316284,0.18539999425411224,0.3190999925136566,200111,1.0390430688858032,0.9854651689529419,1.1210014820098877,0.5957121253013611,0.5168284773826599,0.6745957732200623,https://gea.esac.esa.int/data-server/datalink/links?ID=Gaia+DR2+182495638608311296,,0.01595088742484982,0.01917254736182238,,,14.405,14.04,13.946
1635721458409799680,Gaia DR2 182496390222840576,182496390222840576,968020570,2015.5,81.30510969508443,0.04191714450505305,33.70305268315426,0.04011909333124797,0.8103491958477993,0.05253745994675584,28.99297332763672,-0.4734628934032965,0.08578057040845695,-6.689334716691013,0.07647242637836665,0.07445917278528214,0.04196504130959511,-0.119741290807724,0.22578077018260956,-0.4142695665359497,0.23693567514419556,-0.254846453666687,0.018215160816907883,0.2907090187072754,0.048559676855802536,153,0,153,0,-0.3018557131290436,142.21701049804688,0.0,8.259891525868517e-16,31,False,114.4819564819336,1.654481737644108,0.005007030097844301,-0.012049227952957153,17,11,0.05544233322143555,0,18,False,148,93889.29946664364,31.629182038606597,2968.43896484375,13.060165477466583,16,55048.82891838381,85.67006535636605,642.56787109375,13.499518394470215,16,57895.4435748513,90.24504329388036,641.5360107421875,12.85530948638916,1.202951431274414,0,0.6442089080810547,0.2426929473876953,0.4015159606933594,,,0,,,,NOT_AVAILABLE,173.6361640251353,-1.0882215693227182,82.65175643244199,10.48529697865368,100001,6750.66650390625,6402.0,6874.0,1.2649999856948853,1.01419997215271,1.5024000406265259,0.6434999704360962,0.5216000080108643,0.7473999857902527,200111,1.7196463346481323,1.658492088317871,1.9120582342147827,5.532986640930176,5.061688423156738,6.004284858703613,https://gea.esac.esa.int/data-server/datalink/links?ID=Gaia+DR2+182496390222840576,,0.016497432435981552,0.017098257937723405,13.772,13.225,12.286,12.148,12.043
1635721458409799680,Gaia DR2 182495157571989120,182495157571989120,1564846188,2015.5,81.30628457871818,0.07729947916974936,33.65872908792425,0.06668101351101803,0.7184033921368647,0.09095716229821862,9.680157661437988,-0.5118699299291846,0.18108277733373723,-7.131824933834591,0.1418510439087273,-0.12589865922927856,-0.02853919379413128,-0.16497337818145752,0.12600287795066833,-0.3630616068840027,0.16428282856941223,-0.3091430068016052,-0.026067549362778664,0.3764251172542572,-0.432748019695282,152,0,152,0,-1.7463314533233643,118.46548461914062,0.0,8.287938776445064e-16,31,False,4.775365352630615,1.4995446474443155,0.0148350080190156,-0.09742921590805054,17,10,0.1566968709230423,0,17,False,151,4394.807803545017,4.106208401106717,1070.28369140625,16.294270992279053,16,1919.2620682578338,10.931735691371397,175.5679168701172,17.143552780151367,13,3583.1353834577335,21.833765645016324,164.1098175048828,15.876261711120605,1.2520222663879395,1,1.2672910690307617,0.5625362396240234,0.7047548294067383,,,0,,,,NOT_AVAILABLE,173.67341503260812,-1.1122717464636527,82.64999274987954,10.440996539199732,100002,5028.78662109375,4749.2998046875,5128.02685546875,0.671999990940094,0.6003000140190125,0.8543999791145325,0.3244999945163727,0.28200000524520874,0.4041000008583069,200111,0.8003628253936768,0.7696844935417175,0.8973340392112732,0.36908069252967834,0.28899791836738586,0.4491634666919708,https://gea.esac.esa.int/data-server/datalink/links?ID=Gaia+DR2+182495157571989120,,0.03026682929178875,0.030708137288355624,,,14.972,14.577,14.412
1635721458409799680,Gaia DR2 182496149704672896,182496149704672896,943189135,2015.5,81.24729794879389,0.04805903684175294,33.6932946916967,0.038160027319226596,0.8287579847173089,0.04686096555739444,21.36579704284668,-0.48488533183825877,0.0968940463326129,-7.300822870775376,0.06850781716337641,-0.35804417729377747,0.05017056688666344,-0.4377005100250244,0.37373119592666626,-0.14808309078216553,0.36651116609573364,-0.5079267024993896,0.12550456821918488,0.16904203593730927,-0.29329267144203186,159,159,159,0,7.262470722198486,318.7676696777344,0.0,0.0,31,False,309.151611328125,1.7269530768729209,0.009350258483675801,-0.1594182848930359,18,11,0.05992704629898071,0,20,False,159,225065.81627818747,51.256562649557395,4390.9658203125,12.136655710315704,18,149092.80262256574,292.5734240060234,509.591064453125,12.417746543884277,19,117176.01154458727,142.67395276572634,821.2852172851562,12.089822769165039,1.1830708980560303,0,0.3279237747192383,0.11015510559082031,0.21776866912841797,,,0,,,,NOT_AVAILABLE,173.61724943022335,-1.1335093579216595,82.60232572441136,10.478508414921789,100001,8438.5,8128.0,8848.3330078125,0.6538000106811523,0.4763000011444092,0.8590999841690063,0.31869998574256897,0.225600004196167,0.4359999895095825,,,,,,,,https://gea.esac.esa.int/data-server/datalink/links?ID=Gaia+DR2+182496149704672896,,0.04169962654092996,0.04998327374490373,12.616,12.309,11.798,11.75,11.704
1635721458409799680,Gaia DR2 182496497601756544,182496497601756544,655652580,2015.5,81.296683066636,0.04121765042575276,33.73146436299883,0.03492828621238207,0.7843219818283529,0.04556218309308584,20.949365615844727,-0.553787182021685,0.08304978325143121,-7.30271329218313,0.06343026085013333,-0.08918801695108414,0.193082794547081,-0.26521867513656616,0.22077025473117828,-0.27483928203582764,0.17181679606437683,-0.3818567395210266,0.10225041955709457,0.250754714012146,-0.02101149410009384,179,179,176,3,2.9345526695251465,230.398681640625,0.0,0.0,31,False,272.57568359375,1.5007169540737169,0.007466675992853174,-0.02088124491274357,20,11,0.047352906316518784,0,21,False,172,1778813.497992452,918.8427094216821,1935.92822265625,9.952931401634217,20,729420.6977962279,685.2109644340761,1064.5198974609375,10.69394302368164,21,1486706.751856524,1819.2928818279477,817.1893310546875,9.3313570022583,1.245845913887024,1,1.3625860214233398,0.6309032440185547,0.7316827774047852,16.77297023907747,0.16594884859138223,5,5000.0,4.5,0.0,NOT_AVAILABLE,173.60870628154296,-1.0780877844158396,82.64640927854818,10.514084289997125,100002,4627.966796875,4541.04541015625,4793.35009765625,0.1867000013589859,0.01600000075995922,1.542099952697754,0.09049999713897705,0.007899999618530273,0.7365999817848206,200111,18.39052963256836,17.14337730407715,19.101303100585938,139.7797088623047,129.82803344726562,149.73138427734375,https://gea.esac.esa.int/data-server/datalink/links?ID=Gaia+DR2+182496497601756544,,0.04347028804084783,0.04346551849053351,11.625,10.388,8.295,7.861,7.638
1635721458409799680,Gaia DR2 182496154004409600,182496154004409600,4125484,2015.5,81.23880099552936,0.0413441097497785,33.687625192533375,0.03847436625280575,0.7914812496697318,0.05057446957630823,32.10772705078125,-0.6679210662630143,0.08424628312978452,-7.476077565784269,0.07522159963416089,-0.1518004834651947,0.14564818143844604,-0.25227490067481995,0.21668905019760132,-0.2923431098461151,0.19403204321861267,-0.4020935595035553,0.021971790120005608,0.27818983793258667,-0.1418859213590622,177,0,177,0,-2.4863157272338867,129.3320770263672,0.0,0.0,31,False,72.94353485107422,1.6352609260894795,0.005226133412496906,-0.08810113370418549,20,11,0.055866044014692307,0,20,False,177,57517.1757759057,16.985597368960885,3386.232177734375,13.577793340301513,19,32222.3385824945,49.239119441107306,654.4052734375,14.080995559692383,18,37184.18905263768,53.69663037437335,692.4864501953125,13.336024284362793,1.206709623336792,0,0.7449712753295898,0.29212379455566406,0.4528474807739258,,,0,,,,NOT_AVAILABLE,173.61797255259216,-1.1425428203786465,82.59479459345857,10.473285076966022,100001,6191.33349609375,5573.11962890625,6540.41357421875,,,,,,,200111,1.6412817239761353,1.4707576036453247,2.0256052017211914,3.5661346912384033,3.282466173171997,3.8498032093048096,https://gea.esac.esa.int/data-server/datalink/links?ID=Gaia+DR2+182496154004409600,,0.048434324046677295,0.05820021135709303,14.485,13.893,12.8,12.602,12.518
1635721458409799680,Gaia DR2 182496738119936000,182496738119936000,769574655,2015.5,81.2666017307088,0.05187365589917786,33.731569461598106,0.04591307379764752,0.809619720488342,0.06104463121856271,20.17999267578125,-0.5235973914044888,0.10746903966935378,-7.091982963021227,0.08841386670627971,-0.1623394936323166,0.12707842886447906,-0.2126723974943161,0.23117724061012268,-0.3069392144680023,0.21739517152309418,-0.37398990988731384,0.013215472921729088,0.29780498147010803,-0.1904056817293167,179,0,179,0,-2.9291436672210693,124.34423065185547,0.0,0.0,31,False,14.996927261352539,1.5257556696688042,0.007993123440871355,-0.0876297578215599,20,11,0.08116991072893143,0,20,False,179,12742.707068392185,6.816357253298036,1869.4306640625,15.169788663768768,16,5782.35589401947,15.652000734513779,369.432373046875,15.946125984191895,16,10115.975793611182,52.549518700506454,192.50367736816406,14.74940013885498,1.2476415634155273,0,1.196725845336914,0.5209140777587891,0.675811767578125,,,0,,,,NOT_AVAILABLE,173.59458030111017,-1.0987371268867063,82.6210193397002,10.515723333000578,100001,4874.0,4785.0,4987.66650390625,1.017300009727478,0.7861999869346619,1.1504000425338745,0.5214999914169312,0.3930000066757202,0.5741000175476074,200111,1.310512900352478,1.2514616250991821,1.359716773033142,0.8732114434242249,0.7745774388313293,0.9718454480171204,https://gea.esac.esa.int/data-server/datalink/links?ID=Gaia+DR2+182496738119936000,,0.0503839124392651,0.05312582008636442,--,--,13.92,13.517,13.347
1635721458409799680,Gaia DR2 182495290712262784,182495290712262784,1609722875,2015.5,81.34619903323913,0.08798593585427336,33.64922380477251,0.07179353956472506,0.8583421637551253,0.09862648839719064,10.44410228729248,-0.5800809095870444,0.20648273348072138,-7.25734119473446,0.15870721275047373,-0.14086107909679413,0.11544178426265717,-0.11076448112726212,0.19049985706806183,-0.22619839012622833,0.1998199224472046,-0.22155436873435974,-0.06650733947753906,0.36015990376472473,-0.44622865319252014,152,0,150,2,-0.60807204246521,134.25514221191406,0.0,0.0,31,False,3.5114471912384033,1.4625476868253562,0.016670061227021218,-0.09665308892726898,17,10,0.18044120073318481,0,17,False,150,3444.43608877591,3.368750116282745,1022.4671020507812,16.55165467414856,16,1284.649258622232,12.2862258632504,104.56011962890625,17.579425811767578,16,3168.041952786731,11.478785380079383,275.9910583496094,16.00994300842285,1.2927199602127075,0,1.5694828033447266,0.733856201171875,0.8356266021728516,,,0,,,,NOT_AVAILABLE,173.6999194123675,-1.0900903741245946,82.68312384604054,10.429482352327321,100001,4360.72021484375,4147.64990234375,4588.22998046875,1.2237000465393066,0.9485999941825867,1.3899999856948853,0.6028000116348267,0.4528999924659729,0.6736000180244446,200111,0.8790562152862549,0.7940406799316406,0.971692681312561,0.2517450451850891,0.20152319967746735,0.30196690559387207,https://gea.esac.esa.int/data-server/datalink/links?ID=Gaia+DR2+182495290712262784,,0.056384506286213616,0.06264294204446283,,,14.865,14.338,14.214
1635721458409799680,Gaia DR2 182495329370661120,182495329370661120,989128517,2015.5,81.36040419261097,0.039825326743768256,33.66474793508439,0.03263425173823194,0.838353531734942,0.043350675144744784,23.87421417236328,-0.5542519690041455,0.07618000462198614,-7.528482732449239,0.058251925346961116,-0.12476073205471039,0.21934197843074799,-0.30363404750823975,0.28101596236228943,-0.24418115615844727,0.2172718048095703,-0.4376603662967682,0.15858426690101624,0.24474306404590607,-0.025633569806814194,187,142,183,4,2.24444580078125,223.01954650878906,0.0,0.0,31,True,188.54283142089844,1.6707171923852298,0.006491868706159951,-0.01096520945429802,21,11,0.047743190079927444,0,21,False,179,140746.68964116936,35.74427223593052,3937.601318359375,12.632522254371644,17,85743.11392219555,102.01715232003173,840.4774169921875,13.018389701843262,17,81756.65685496105,96.82576546845333,844.3688354492188,12.480611801147461,1.190079689025879,0,0.5377779006958008,0.20111942291259766,0.3366584777832031,,,0,,,,NOT_AVAILABLE,173.69368864914117,-1.0715972422551039,82.6960843448844,10.44425876110684,100001,7039.0,6952.294921875,7176.2001953125,1.0183000564575195,0.65829998254776,1.1972999572753906,0.4991999864578247,0.29100000858306885,0.5960999727249146,200111,1.8754758834838867,1.8044477701187134,1.9225473403930664,7.77967643737793,7.243510723114014,8.315841674804688,https://gea.esac.esa.int/data-server/datalink/links?ID=Gaia+DR2+182495329370661120,,0.057651501035165476,0.06753332631737681,13.347,13.024,12.019,11.922,11.864
1635721458409799680,Gaia DR2 182494882694088448,182494882694088448,775952987,2015.5,81.32060073940026,0.05944180405015924,33.63112125428388,0.05184940400864083,0.7721075485825019,0.07110621662197504,14.724674224853516,-0.48547681875276727,0.1203058233880732,-7.156122128522355,0.09704187168950758,-0.06792712211608887,0.07126075029373169,-0.22179734706878662,0.22100259363651276,-0.34847989678382874,0.19822169840335846,-0.4111447334289551,0.09659572690725327,0.3580949902534485,-0.14635200798511505,161,0,157,4,-1.030793309211731,134.11233520507812,0.0,0.0,31,False,11.335332870483398,1.535726756620438,0.010367038439982748,-0.02235250547528267,18,11,0.09178533405065536,0,19,False,160,9737.565669355328,8.28579240515011,1175.21240234375,15.453902192687988,19,4687.64664496806,21.503903333146468,217.99049377441406,16.174001693725586,18,7368.5452945924135,20.940180496330377,351.8854675292969,15.093465805053711,1.2381114959716797,0,1.080535888671875,0.45676231384277344,0.6237735748291016,,,0,,,,NOT_AVAILABLE,173.70296223164087,-1.1178864862939084,82.66037352472145,10.412712255152677,100001,5001.9501953125,4893.0,5058.9501953125,0.49149999022483826,0.39239999651908875,0.6841999888420105,0.2353000044822693,0.17739999294281006,0.30799999833106995,200111,1.1236008405685425,1.098423957824707,1.1741952896118164,0.711993932723999,0.6064578890800476,0.8175299763679504,https://gea.esac.esa.int/data-server/datalink/links?ID=Gaia+DR2+182494882694088448,,0.060168251556402055,0.06158073249384261,16.648,16.008,14.349,13.976,13.871
1635721458409799680,Gaia DR2 182496188364157440,182496188364157440,132742984,2015.5,81.21855283528063,0.0823008161029928,33.68154081454602,0.0681687320073987,0.680780868077683,0.09229446415947534,9.003098487854004,-0.13616605412150207,0.19110896029710536,-7.302777026369055,0.14454662534140833,-0.26473599672317505,0.16109338402748108,-0.07014209032058716,0.1350102573633194,-0.34247007966041565,0.11438390612602234,-0.23428747057914734,-0.022232675924897194,0.3232732117176056,-0.46045511960983276,154,0,154,0,1.5341863632202148,176.3373565673828,0.19563116610049508,1.4290857496372196,31,False,4.270726203918457,1.4996835409627531,0.016121554668335224,-0.1563362181186676,18,10,0.16540582478046417,0,18,False,154,4740.912122403917,6.518730391000843,727.275390625,16.21419557418823,16,2030.7586055036716,15.149906875182127,134.04429626464844,17.082242965698242,15,3938.260718271399,16.015910617522326,245.8967742919922,15.773658752441406,1.2590445280075073,0,1.308584213256836,0.5835323333740234,0.7250518798828125,,,0,,,,NOT_AVAILABLE,173.6135459969147,-1.1599010240581276,82.57731167343437,10.468251581901958,100001,5017.91015625,4848.9150390625,5574.5,0.8536999821662903,0.6449000239372253,0.9909999966621399,0.41499999165534973,0.2784999907016754,0.4900999963283539,200111,0.8820299506187439,0.7146892547607422,0.9445826411247253,0.4443783760070801,0.34086874127388,0.5478880405426025,https://gea.esac.esa.int/data-server/datalink/links?ID=Gaia+DR2+182496188364157440,,0.06560141358095677,0.07871263386036578,,,14.812,14.346,14.261
1635721458409799680,Gaia DR2 182494436017511552,182494436017511552,764499775,2015.5,81.23232178528951,0.08301362042146695,33.64917533003088,0.06918941083080828,0.7762479406487321,0.09250889435796818,10.23525619506836,-0.6688978616373769,0.1975777005737338,-7.715644895805637,0.15047231184609505,-0.20748794078826904,0.068486787378788,-0.14325721561908722,0.17019735276699066,-0.2809169292449951,0.18681269884109497,-0.25711509585380554,-0.055860791355371475,0.3295345902442932,-0.4632255434989929,160,0,160,0,-0.47905176877975464,146.0757293701172,0.0,0.0,31,False,3.8075599670410156,1.5039800946736357,0.01680038828827778,-0.13439176976680756,18,10,0.17300112545490265,0,18,False,160,3598.992845869095,3.1071277405625657,1158.3021240234375,16.505289166259764,17,1496.611855601366,8.001939411085736,187.03114318847656,17.41361427307129,18,3014.4248476832595,8.468342158300532,355.9639892578125,16.06390953063965,1.2534164190292358,0,1.3497047424316406,0.6157016754150391,0.7340030670166016,,,0,,,,NOT_AVAILABLE,173.6467690255431,-1.1685922001661406,82.58691181367271,10.43524066331016,100001,4798.544921875,4601.5068359375,4943.0,0.6740000247955322,0.5292999744415283,0.8130999803543091,0.32350000739097595,0.2578999996185303,0.38199999928474426,200111,0.7570365071296692,0.7134355306625366,0.8232577443122864,0.2737578749656677,0.21768179535865784,0.3298339545726776,https://gea.esac.esa.int/data-server/datalink/links?ID=Gaia+DR2+182494436017511552,,0.06637234278492544,0.0754362410009056,,,15.082,14.597,14.401
1635721458409799680,Gaia DR2 182519243748537344,182519243748537344,739532354,2015.5,81.36807025989177,0.04139459286458825,33.73127689230053,0.03637206433456735,0.8825426114410105,0.04735902307602306,22.45416259765625,-0.17619480458394077,0.07920107169060638,-6.676094390697728,0.06262649373650121,-0.04019831866025925,0.18064597249031067,-0.3605321943759918,0.12989072501659393,-0.39787307381629944,0.005267697852104902,-0.5815953016281128,0.18726707994937897,0.31710270047187805,0.17408588528633118,188,125,185,3,8.36524772644043,388.82659912109375,0.0,0.0,31,True,160.49913024902344,1.6953694625921378,0.00706429357449236,0.03532037511467934,21,11,0.05084133893251419,0,21,False,182,127342.0102894399,30.594284593880392,4162.28125,12.738243814373016,19,79838.45835998593,95.88898694571809,832.6134033203125,13.095857620239258,20,71568.04482599796,81.30902491074441,880.1980590820312,12.6251220703125,1.1889753341674805,0,0.4707355499267578,0.1699209213256836,0.3008146286010742,,,0,,,,NOT_AVAILABLE,173.64215308979067,-1.029032477438654,82.70666794755003,10.510277485226627,100001,7526.0,7310.14501953125,7618.0,0.6694999933242798,0.38659998774528503,1.0181000232696533,0.36800000071525574,0.17870000004768372,0.5049999952316284,200111,1.4950437545776367,1.4591515064239502,1.5846389532089233,6.460399150848389,5.9859747886657715,6.934823513031006,https://gea.esac.esa.int/data-server/datalink/links?ID=Gaia+DR2+182519243748537344,,0.07326476244428196,0.08320980259725956,13.347,12.947,12.208,12.126,12.056
1635721458409799680,Gaia DR2 182494332938304384,182494332938304384,887653667,2015.5,81.23112290163093,0.053778689911691435,33.632382214866425,0.04667623612795164,0.819473550918436,0.060199796890246654,21.006689071655273,-0.520762227375349,0.11048850505841072,-7.27598645800625,0.0892975336928568,-0.3065571188926697,0.0657941997051239,-0.3234698474407196,0.3228127360343933,-0.25017380714416504,0.31637096405029297,-0.4339931607246399,0.05508476495742798,0.2512867748737335,-0.3109263479709625,164,0,163,1,2.0438215732574463,196.41595458984375,0.06657546491907264,0.44711313753891213,31,False,17.31771469116211,1.5359510725373948,0.008774301060980427,-0.1504899263381958,19,11,0.08861349523067474,0,19,False,162,15544.245070841265,10.027098301314078,1550.2236328125,14.959865328884124,15,7525.8301590922265,33.86731975966178,222.21510314941406,15.660001754760742,17,11736.966094428602,15.245447908592904,769.866943359375,14.588030815124512,1.239223599433899,1,1.0719709396362305,0.4505605697631836,0.6214103698730469,,,0,,,,NOT_AVAILABLE,173.6601078140042,-1.178846774960057,82.58484612477588,10.41854103396935,100002,5140.85693359375,5008.72314453125,5660.00634765625,0.699999988079071,0.5370000004768372,0.8849999904632568,0.36250001192092896,0.26600000262260437,0.43849998712539673,200111,1.249147891998291,1.030507206916809,1.315924048423767,0.9818937182426453,0.8747789263725281,1.0890085697174072,https://gea.esac.esa.int/data-server/datalink/links?ID=Gaia+DR2+182494332938304384,,0.07810323805028611,0.0862156024898807,,,13.817,13.431,13.351
1635721458409799680,Gaia DR2 182493336505881472,182493336505881472,739853000,2015.5,81.28723982900243,0.050914223163093575,33.610181138816074,0.04482209533522557,0.7830104424600232,0.0596420349894156,20.460933685302734,-0.4576253167348593,0.10242802769836648,-7.156812195544418,0.08655696652727064,-0.09730321913957596,0.23132307827472687,-0.21863232553005219,0.19571994245052338,-0.2378736287355423,0.15733182430267334,-0.4172429144382477,0.029581280425190926,0.2606324851512909,-0.08992264419794083,158,0,157,1,-1.0144176483154297,134.3751678466797,0.0,1.6300968317080002e-15,31,False,20.93658447265625,1.5756512005554622,0.008151793106002945,-0.049325767904520035,18,11,0.07461567223072052,0,18,False,157,17222.670450513597,8.721343447929437,1974.7725830078125,14.85155605173111,16,8694.762814747999,20.07670513473366,433.0771789550781,15.503243446350098,17,12447.389709504161,25.35213506552072,490.9799499511719,14.524224281311035,1.2275768518447876,0,0.9790191650390625,0.40512847900390625,0.5738906860351562,,,0,,,,NOT_AVAILABLE,173.70471796598403,-1.152630624441319,82.63087991772508,10.393509985835527,100001,5342.0,5297.0,5376.0,0.5788000226020813,0.28859999775886536,0.8230999708175659,0.30300000309944153,0.20800000429153442,0.4180999994277954,200111,1.2548816204071045,1.2390590906143188,1.2762936353683472,1.1553559303283691,1.0254738330841064,1.2852380275726318,https://gea.esac.esa.int/data-server/datalink/links?ID=Gaia+DR2+182493336505881472,,0.0782375433326645,0.07842854132179969,16.136,15.279,13.829,13.541,13.441
1635721458409799680,Gaia DR2 182507183480379008,182507183480379008,1685806398,2015.5,81.39271025667178,0.06859388824294568,33.688075570338,0.05532180526135026,0.8001922092057551,0.0721205108647463,14.925958633422852,-0.5061480101813326,0.11871682738194561,-7.219927245136748,0.09584315264311631,-0.41055914759635925,0.31843581795692444,-0.3434402048587799,0.510800302028656,-0.3337380290031433,0.3851252496242523,-0.5282267928123474,0.15806008875370026,0.30754902958869934,-0.14454270899295807,171,0,170,1,-1.7866798639297485,134.04371643066406,0.0,0.0,31,False,10.974761009216309,1.5521777963271255,0.010546842308688863,-0.08327922970056534,19,10,0.09691430628299713,0,19,False,171,9574.848695033645,8.673242569304268,1103.95263671875,15.471702606296539,18,4509.186276483924,18.45577206417684,244.3238983154297,16.216142654418945,19,7345.759854016927,22.409704547241258,327.793701171875,15.09682846069336,1.2381340265274048,0,1.119314193725586,0.4806070327758789,0.638707160949707,,,0,,,,NOT_AVAILABLE,173.68942878338817,-1.0362586410645938,82.72481114041997,10.465912920015098,100001,4932.4697265625,4877.8046875,5007.18505859375,0.590499997138977,0.36390000581741333,0.782800018787384,0.2858000099658966,0.13660000264644623,0.38749998807907104,200111,1.1142675876617432,1.081262230873108,1.1393824815750122,0.6621118783950806,0.5655845999717712,0.7586391568183899,https://gea.esac.esa.int/data-server/datalink/links?ID=Gaia+DR2+182507183480379008,,0.07963052553426117,0.0957102865059648,--,--,14.318,13.987,13.962
1635721458409799680,Gaia DR2 182482989925753728,182482989925753728,1245170181,2015.5,81.31340320843127,0.07907439494054389,33.60514237406593,0.06470309620278065,0.6618420289064191,0.0894644527613119,9.111041069030762,-0.8408247749375178,0.18852832537067413,-7.764252190060665,0.14487817910168208,-0.16996286809444427,0.11372342705726624,-0.08751129359006882,0.17743019759655,-0.22916531562805176,0.1958872675895691,-0.21518497169017792,-0.08283033967018127,0.3708139955997467,-0.4889777600765228,150,0,149,1,-0.537634015083313,134.42959594726562,0.0,0.0,31,False,4.726951599121094,1.5586725962893773,0.015213854112347049,-0.11215650290250778,17,10,0.16573412716388702,0,17,False,148,4466.132058107447,3.6725934375106157,1216.0703125,16.277265728759765,17,2018.762888321033,13.253707932164618,152.31683349609375,17.088674545288086,17,3499.1027093090124,14.693471106698489,238.1399688720703,15.90202808380127,1.2354909181594849,0,1.1866464614868164,0.5251369476318359,0.6615095138549805,,,0,,,,NOT_AVAILABLE,173.72111467896227,-1.137417055223965,82.65267845112277,10.387147782104732,100001,4984.66650390625,4864.0,5186.0,,,,,,,200111,0.895570695400238,0.8273838758468628,0.9405566453933716,0.44610682129859924,0.3430738151073456,0.5491398572921753,https://gea.esac.esa.int/data-server/datalink/links?ID=Gaia+DR2+182482989925753728,,0.08396912137891074,0.08446568192035632,,,14.961,14.581,14.508
1635721458409799680,Gaia DR2 182520068382249856,182520068382249856,1617124570,2015.5,81.35122975043048,0.044681766587245125,33.76421129608727,0.04097443054972329,0.7717783260873081,0.05362719118124705,26.01102066040039,-0.8656085059619115,0.0880839740228609,-7.21748518699802,0.07748604340620642,-0.152776300907135,0.17256659269332886,-0.29135286808013916,0.296654611825943,-0.31651070713996887,0.24021656811237335,-0.43361642956733704,0.11962088197469711,0.24901799857616425,0.0029106931760907173,206,0,206,0,-3.7611136436462402,134.1177215576172,0.0,0.0,31,False,30.812755584716797,1.5698700843861577,0.005880287313294251,-0.032695598900318146,23,11,0.05936726927757263,0,23,False,206,24999.985480072275,7.657731571961796,3264.67236328125,14.457922427845002,22,12218.246157783498,30.39524861878714,401.97882080078125,15.133866310119629,22,18580.053497391295,20.9163077241738,888.3046264648438,14.089303016662598,1.2319327592849731,0,1.0445632934570312,0.4403495788574219,0.6042137145996094,,,0,,,,NOT_AVAILABLE,173.6070236670662,-1.0221716678289756,82.69448789511343,10.54400210545341,100001,5141.0,5006.0,6303.49658203125,1.1230000257492065,0.6449000239372253,1.6481000185012817,0.5360000133514404,0.2547000050544739,0.7807999849319458,200111,1.6819442510604858,1.1187776327133179,1.773883581161499,1.7803620100021362,1.613837480545044,1.9468865394592285,https://gea.esac.esa.int/data-server/datalink/links?ID=Gaia+DR2+182520068382249856,,0.08855827316900082,0.09353623620315817,15.745,14.91,13.37,12.984,12.895
1635721458409799680,Gaia DR2 182494298578573056,182494298578573056,972285938,2015.5,81.21283566669689,0.04594814328195493,33.626785111038224,0.037270790411264666,0.8782119553963309,0.05147034970575672,20.18385887145996,-0.47771791326994173,0.09052519964224859,-7.1180955610170855,0.0672646526367397,-0.254091739654541,0.2782438397407532,-0.1943548619747162,0.2342793494462967,-0.3815951347351074,0.13787564635276794,-0.4071052670478821,0.06442993879318237,0.30106574296951294,-0.1414979100227356,165,165,165,0,6.256766319274902,299.038330078125,0.0,1.1147911615022624e-15,31,True,244.30308532714844,1.7145968427885236,0.00920185217137518,-0.150178462266922,19,11,0.050286468118429184,0,19,False,165,179614.26661221776,48.56033565341656,3698.78564453125,12.374940944766998,19,117210.69463992934,162.78420412238478,720.0372924804688,12.678970336914062,19,95164.74583498824,98.39576570354741,967.1630249023438,12.315730094909668,1.1823973655700684,0,0.36324024200439453,0.12645626068115234,0.2367839813232422,,,0,,,,NOT_AVAILABLE,173.65618804176046,-1.194589038656624,82.5690426639733,10.413894394069008,100001,8057.75,7797.5,8370.0,,,,,,,,,,,,,,https://gea.esac.esa.int/data-server/datalink/links?ID=Gaia+DR2+182494298578573056,,0.0930345295862666,0.104071598579821,12.909,12.557,12.017,11.954,11.92
1635721458409799680,Gaia DR2 182519415547214208,182519415547214208,575864145,2015.5,81.37728807624039,0.07019818894759558,33.7585343132495,0.058717691640775276,0.8108575166260081,0.08018202528266016,12.93981647491455,-0.4524403047046339,0.14746300114787816,-7.094641399991916,0.11537621983843614,-0.15002445876598358,0.17425362765789032,-0.15562255680561066,0.24018391966819763,-0.2801540493965149,0.21144135296344757,-0.31793949007987976,0.03697453811764717,0.3131541311740875,-0.2654642164707184,161,0,160,1,-1.8068422079086304,124.73640441894531,0.0,0.0,31,False,6.257130146026611,1.5366185985966292,0.01197337124957155,-0.07605444639921188,18,11,0.11957494169473648,0,18,False,161,5647.969356070759,11.730065651562613,481.4951171875,16.029271683883668,16,2491.7219840624143,26.558192461715507,93.82122039794922,16.860139846801758,15,4662.231731223808,53.53128786122349,87.09358215332031,15.590435028076172,1.2666417360305786,0,1.269704818725586,0.5515041351318359,0.71820068359375,,,0,,,,NOT_AVAILABLE,173.62386864016162,-1.0074107182126104,82.71613205047613,10.537019485676117,100001,4795.5576171875,4697.1552734375,5010.1201171875,0.6766999959945679,0.5770000219345093,0.8238000273704529,0.3310000002384186,0.2759000062942505,0.4104999899864197,200111,0.9093930125236511,0.8331698775291443,0.9478945136070251,0.39405277371406555,0.32902806997299194,0.45907747745513916,https://gea.esac.esa.int/data-server/datalink/links?ID=Gaia+DR2+182519415547214208,,0.0971294981344946,0.1068703164211709,,,14.625,14.16,14.0
1635721458409799680,Gaia DR2 182500002295070336,182500002295070336,1169182202,2015.5,81.23744951903996,0.054387007952918724,33.775885647111224,0.048607919674923054,0.7026839924322041,0.055105736825298755,14.895716667175293,-0.32938856725295174,0.10417784370003415,-7.236000818191561,0.08655990053837927,0.2499028891324997,0.19680780172348022,-0.46280357241630554,-0.1609591841697693,-0.27686914801597595,-0.24391403794288635,-0.6682347655296326,0.1699812412261963,0.2483111321926117,0.33096179366111755,147,147,143,4,9.858936309814453,373.83642578125,0.0,0.18865961223839453,31,False,304.21746826171875,1.713325759500457,0.0091170258865983,0.09026628732681274,17,10,0.06427441537380219,0,17,True,140,888488.185171579,326.20365850665326,2723.722412109375,10.68620266971588,14,596812.726202016,559.7291900582669,1066.252685546875,10.911792755126953,12,443170.96138720715,118.61001103023429,3736.37060546875,10.645491600036621,1.1705093383789062,0,0.26630115509033203,0.09505653381347656,0.17124462127685547,,,0,,,,NOT_AVAILABLE,173.54428972739808,-1.0939210100008074,82.59918586448906,10.561447032132532,100001,8385.0,8145.5,8634.25,0.858299970626831,0.519599974155426,1.118499994277954,0.439300000667572,0.31189998984336853,0.559499979019165,,,,,,,,https://gea.esac.esa.int/data-server/datalink/links?ID=Gaia+DR2+182500002295070336,,0.10088704612700998,0.10616094738994372,11.065,10.837,10.39,10.376,10.33
1635721458409799680,Gaia DR2 182497695892899840,182497695892899840,1206082660,2015.5,81.17256090103471,0.04790270082377074,33.68968763339188,0.042225262036226625,0.648063496938643,0.05307799105547868,14.357973098754883,-0.30245666420996176,0.09838053745276508,-7.351175261923979,0.07590420593162014,0.006412892136722803,0.04995563626289368,-0.3544463515281677,0.06733516603708267,-0.31143832206726074,0.032082244753837585,-0.5285260677337646,0.12631410360336304,0.3460659086704254,-0.010659169405698776,138,130,138,0,7.31843376159668,290.50311279296875,0.0,0.0,31,False,223.49717712402344,1.698438354540449,0.01091174445037568,-0.041550882160663605,16,11,0.055745936930179596,0,16,False,138,164870.124383121,52.989053443751224,3111.399658203125,12.465417334270477,15,103195.11662382059,166.69876134316067,619.051513671875,12.817240715026855,12,93050.67185791262,69.10638258454439,1346.4844970703125,12.340121269226074,1.1903053522109985,0,0.47711944580078125,0.17173004150390625,0.305389404296875,,,0,,,,NOT_AVAILABLE,173.58530175130093,-1.1869847635836723,82.53898131555633,10.478752277142828,100001,7682.5,7541.33349609375,7839.0,1.0809999704360962,0.820900022983551,1.3209999799728394,0.5389999747276306,0.4449000060558319,0.6603999733924866,200111,2.233736276626587,2.1454365253448486,2.318145751953125,15.659170150756836,14.089521408081055,17.228818893432617,https://gea.esac.esa.int/data-server/datalink/links?ID=Gaia+DR2+182497695892899840,,0.10356203722015328,0.12445054221559994,13.085,12.683,11.949,11.867,11.786
1635721458409799680,Gaia DR2 182507046041415552,182507046041415552,1023272852,2015.5,81.43769745474756,0.04118786436816388,33.68332507518235,0.038216186474463405,0.8043283108691055,0.050292565178569795,33.30377197265625,-0.49343442696385564,0.08040714040979899,-7.160589446349243,0.07331175831917591,-0.05689559504389763,0.2795771360397339,-0.21812762320041656,0.320568710565567,-0.20409148931503296,0.26625770330429077,-0.36934491991996765,0.1694319248199463,0.273706316947937,0.05909905582666397,186,0,185,1,-3.3015620708465576,123.8228988647461,0.0,0.0,31,True,104.61943054199219,1.6597854809512005,0.004504079821717327,0.02700405940413475,21,11,0.049025122076272964,0,21,False,184,84419.75800316583,24.077958540285003,3506.10107421875,13.172467206001281,21,50699.38053027301,82.46664571849176,614.7864990234375,13.588881492614746,20,49994.50327201625,60.08807074593663,832.0204467773438,13.01461410522461,1.1927763223648071,0,0.5742673873901367,0.21662616729736328,0.35764122009277344,,,0,,,,NOT_AVAILABLE,173.71433042246426,-1.007904791392215,82.76251639000105,10.458910815043353,100001,6913.0,6817.0,7494.0,0.9537000060081482,0.789900004863739,1.1038000583648682,0.46399998664855957,0.39469999074935913,0.5479999780654907,200111,1.5679287910461426,1.3342342376708984,1.6124002933502197,5.05840539932251,4.668248653411865,5.448562145233154,https://gea.esac.esa.int/data-server/datalink/links?ID=Gaia+DR2+182507046041415552,,0.11715931431264749,0.14077509969626853,13.932,13.417,12.574,12.428,12.363
1635721458409799680,Gaia DR2 182482788066189952,182482788066189952,42334195,2015.5,81.36198937630019,0.08539045993751707,33.58071558061079,0.0709844561220102,0.739188114555809,0.09534961390337399,9.380651473999023,-0.5556784345641017,0.1840226777727615,-7.49867940147845,0.14615054811175324,-0.14008274674415588,0.2711939513683319,0.032440029084682465,0.26375457644462585,-0.30240398645401,0.18826498091220856,-0.032021310180425644,0.031242389231920242,0.29644346237182617,-0.3097110390663147,125,0,125,0,-0.34816280007362366,114.04106903076172,0.0,0.0,31,False,4.991001129150391,1.5801250975305847,0.016196319133397547,-0.09750398248434067,14,10,0.15353645384311676,0,14,False,125,4745.70582651715,4.786299392659832,991.518798828125,16.213128569984438,13,2210.423066858959,23.19139068933101,95.31222534179688,16.99020004272461,13,3671.637165459115,15.38209259115619,238.695556640625,15.849770545959473,1.2394490242004395,0,1.1404294967651367,0.4925861358642578,0.6478433609008789,,,0,,,,NOT_AVAILABLE,173.76403861059214,-1.1175958099657548,82.69223394636052,10.360301410476348,100001,4933.125,4868.5400390625,5089.50634765625,0.23000000417232513,0.09950000047683716,0.4023999869823456,0.1256999969482422,0.05090000107884407,0.1956000030040741,200111,0.848915159702301,0.7975487112998962,0.8715875744819641,0.3845136761665344,0.29883816838264465,0.4701891839504242,https://gea.esac.esa.int/data-server/datalink/links?ID=Gaia+DR2+182482788066189952,,0.1201495492611817,0.12543351097520739,,,15.059,14.584,14.318
1635721458409799680,Gaia DR2 182498765344534016,182498765344534016,875082257,2015.5,81.15101858808403,0.05769465729100021,33.7344979893983,0.04776318062681684,0.8491414339017815,0.06719169547356434,14.368386268615723,-0.5255156866247312,0.10418012103332067,-7.217298289463212,0.08193906855778836,-0.04205465689301491,0.3144148290157318,-0.2691476047039032,0.11995861679315567,-0.35454991459846497,-0.06625229120254517,-0.5914981365203857,0.20669694244861603,0.43104565143585205,0.046912577003240585,129,129,128,1,7.102227210998535,270.27734375,0.0,0.0,31,True,263.3673095703125,1.713494404023442,0.012055817639907387,-0.07561783492565155,15,11,0.05469271168112755,0,16,False,138,196776.55236460426,44.345323422775884,4437.36865234375,12.278544073677063,14,128071.14547747336,148.76543157343133,860.8931884765625,12.582759857177734,15,104957.33061976869,94.47496961262394,1110.953857421875,12.20938777923584,1.1842288970947266,0,0.37337207794189453,0.12932777404785156,0.24404430389404297,,,0,,,,NOT_AVAILABLE,173.53815711565926,-1.1766207794297807,82.52362433470152,10.524589828023805,100001,8014.66650390625,7785.33349609375,8464.0,0.7875000238418579,0.5837000012397766,0.95169997215271,0.3962000012397766,0.3012999892234802,0.5019999742507935,,,,,,,,https://gea.esac.esa.int/data-server/datalink/links?ID=Gaia+DR2+182498765344534016,,0.13004024952671997,0.15320781847890108,12.796,12.472,11.87,11.854,11.761
1635721458409799680,Gaia DR2 182519518626407552,182519518626407552,429050169,2015.5,81.44849593249204,0.04865456307724087,33.75940114940799,0.04233270119393552,0.7569819372355768,0.05523382355066202,23.582923889160156,-0.6684479711186252,0.09056474077398813,-7.678070769343322,0.07813560093645985,-0.35893669724464417,0.28962716460227966,-0.35820329189300537,0.48481014370918274,-0.22122791409492493,0.40490370988845825,-0.5034343004226685,0.21065132319927216,0.26020264625549316,-0.1450490951538086,159,0,158,1,0.4360259473323822,160.06675720214844,0.0,0.0,31,False,57.05488967895508,1.6232917264170366,0.006464939319737484,-0.08329823613166809,18,11,0.06577753275632858,0,18,False,155,45690.66682323931,18.011295162067473,2536.778564453125,13.820945969581604,16,25309.685672684773,59.04544715612495,428.6475524902344,14.343171119689941,16,29914.259509934676,50.972064496554616,586.8755493164062,13.572224617004395,1.2086483240127563,0,0.7709465026855469,0.30437374114990234,0.46657276153564453,,,0,,,,NOT_AVAILABLE,173.65630836662908,-0.9578780973262018,82.77629147549904,10.534308314500999,100001,6071.84326171875,5162.8203125,6650.2099609375,,,,,,,200111,1.592873215675354,1.3278579711914062,2.203171491622925,3.1069865226745605,2.7923834323883057,3.4215896129608154,https://gea.esac.esa.int/data-server/datalink/links?ID=Gaia+DR2+182519518626407552,,0.14482323980832598,0.16747877984513365,14.647,13.999,13.011,12.819,12.721
1635721458409799680,Gaia DR2 182498593545869696,182498593545869696,607658919,2015.5,81.12223640000316,0.060247358825052985,33.693758448855576,0.05362552132606188,0.7114261893104237,0.07212949809597737,13.267643928527832,-0.6645255990065009,0.12134269685263695,-7.432614857810669,0.10062044897873842,0.017304928973317146,0.08735702186822891,-0.28129762411117554,0.07244990020990372,-0.3531187176704407,0.02944226562976837,-0.5300683975219727,0.1247578114271164,0.4026099443435669,-0.0663536787033081,154,0,153,1,-3.080698251724243,100.55691528320312,0.0,0.0,31,False,11.429073333740234,1.5408266853871364,0.010872497747890227,-0.022425446659326553,18,11,0.0917738825082779,0,18,False,153,9816.900685528357,13.335688092601027,736.1375732421875,15.445330901527404,16,4616.490667717794,22.087924552395663,209.00518798828125,16.190608978271484,17,7690.612861033027,46.806939727341295,164.3049774169922,15.047018051147461,1.2536648511886597,0,1.1435909271240234,0.4821796417236328,0.6614112854003906,,,0,,,,NOT_AVAILABLE,173.5583906151382,-1.219325474935088,82.49673930577524,10.485421873890095,100001,4985.10009765625,4922.3046875,5146.16015625,0.9089999794960022,0.6898999810218811,1.0132999420166016,0.4526999890804291,0.35690000653266907,0.5221999883651733,200111,1.234950304031372,1.158859133720398,1.2666605710983276,0.8485730290412903,0.7094011306762695,0.987744927406311,https://gea.esac.esa.int/data-server/datalink/links?ID=Gaia+DR2+182498593545869696,,0.14553203262727624,0.17485844451177238,,,14.197,13.866,13.616
1635721458409799680,Gaia DR2 182498215588751616,182498215588751616,971057076,2015.5,81.11505958042088,0.050160213228206386,33.692745338722254,0.045161631513925556,1.0451786315112888,0.06030689414537995,26.69562339782715,-0.24726155611204825,0.10002963142443995,-6.98233515193138,0.08533986950010154,-0.05191416293382645,0.11030120402574539,-0.3522852659225464,0.10737141221761703,-0.3363802134990692,0.028302304446697235,-0.5792524218559265,0.18783646821975708,0.3712911605834961,-0.06461819261312485,143,0,142,1,-4.797995090484619,71.50463104248047,0.0,0.0,31,False,34.02285385131836,1.5717298590437252,0.007660090826355216,-0.06855957955121994,17,11,0.07209881395101547,0,17,False,140,27769.851833927176,11.870437698564228,2339.41259765625,14.346928939247132,15,13991.206820580112,39.22204806412993,356.7178955078125,14.986750602722168,15,20163.76041279024,23.539477483005516,856.5933837890625,14.00049114227295,1.229929804801941,0,0.9862594604492188,0.4073190689086914,0.5789403915405273,,,0,,,,NOT_AVAILABLE,173.555869562961,-1.22483269278261,82.49061415942444,10.484783676675397,100001,5169.134765625,4932.56640625,5314.25,0.5845000147819519,0.49549999833106995,0.7350999712944031,0.2858000099658966,0.2549999952316284,0.36809998750686646,200111,1.2916001081466675,1.2220242023468018,1.4184626340866089,1.0730557441711426,0.9810064435005188,1.1651051044464111,https://gea.esac.esa.int/data-server/datalink/links?ID=Gaia+DR2+182498215588751616,,0.1514646821168016,0.18200229261252568,15.581,14.764,13.324,12.985,12.928
1635721458409799680,Gaia DR2 182521202253569536,182521202253569536,723322004,2015.5,81.45789685958584,0.04488540966029227,33.80167012857056,0.0435978784382733,0.8354050892987233,0.059456668210424744,21.972517013549805,0.0718531387384731,0.08830014868528266,-7.3149669833793105,0.07788933305292162,-0.08319839090108871,0.02998477779328823,-0.39425134658813477,0.22197315096855164,-0.5759980082511902,-0.02193654514849186,-0.6273627281188965,0.39355841279029846,0.48566827178001404,0.15211302042007446,161,0,161,0,-3.501940965652466,101.45765686035156,0.0,0.0,31,False,115.40733337402344,1.6524081681933536,0.00610180035332549,-0.01623006910085678,18,10,0.059227995574474335,0,19,False,161,89711.25589792896,28.362601744739756,3163.01220703125,13.108249326038361,17,54177.42916699778,116.87696987166578,463.5423889160156,13.516841888427734,18,53077.68458594705,77.07701539213353,688.6318359375,12.949640274047852,1.1955591440200806,0,0.5672016143798828,0.21059322357177734,0.35660839080810547,,,0,,,,NOT_AVAILABLE,173.62564896406482,-0.9277454301447283,82.7868109363356,10.576030925466856,100001,7056.0,6948.0,7287.0,0.8700000047683716,0.5733000040054321,1.1247999668121338,0.4320000112056732,0.25769999623298645,0.583299994468689,200111,1.4956399202346802,1.4023184776306152,1.5424978733062744,4.995547771453857,4.471928596496582,5.519166946411133,https://gea.esac.esa.int/data-server/datalink/links?ID=Gaia+DR2+182521202253569536,,0.17555511615824665,0.19699923236864175,13.813,13.441,12.545,12.362,12.271
1635721458409799680,Gaia DR2 182501307964828544,182501307964828544,352081412,2015.5,81.20992305584096,0.04932846692378982,33.85307936073662,0.045348235863748004,0.7951614910331543,0.05911384327158617,21.17079734802246,-0.12771106192391002,0.09593713629294326,-7.221541740477974,0.08430739370329378,-0.10035894811153412,0.11325843632221222,-0.33707791566848755,0.2173812985420227,-0.3393934667110443,0.115432970225811,-0.5571089386940002,0.2525211274623871,0.3504642844200134,-0.06719484180212021,169,0,168,1,-2.2756733894348145,124.70890045166016,0.0,0.0,31,False,25.45146942138672,1.588910372145581,0.007535496861129412,-0.035663068294525146,19,11,0.06798896938562393,0,19,False,169,21226.79573718689,12.784713187594734,1660.3262939453125,14.630746490478515,16,10985.780011524337,33.53726287961043,327.5693664550781,15.249310493469238,18,15006.464300461177,38.255158836406025,392.27294921875,14.321224212646484,1.224501609802246,0,0.9280862808227539,0.3781557083129883,0.5499305725097656,,,0,,,,NOT_AVAILABLE,173.4675603581086,-1.0694952633908794,82.58081208881678,10.639905584123532,100001,5139.35498046875,4801.72021484375,5400.455078125,0.5239999890327454,0.36719998717308044,0.7329999804496765,0.25850000977516174,0.16200000047683716,0.3260999917984009,200111,1.5054370164871216,1.363386869430542,1.7245910167694092,1.4244734048843384,1.2691324949264526,1.5798143148422241,https://gea.esac.esa.int/data-server/datalink/links?ID=Gaia+DR2+182501307964828544,,0.18025928968641983,0.1866375887791284,15.781,14.965,13.688,13.344,13.237
